Package: ac-dcd
Fetcher: github
Source:  https://github.com/atilaneves/ac-dcd.git

Updating /mnt/store/melpa/working/ac-dcd/
Checking out origin/HEAD
Checking out 56d9817159acdebdbb3d5499c7e9379d29af0cd4
Built ac-dcd in 7.132s, finished at 2021-09-10T04:01:15+0000
 ✓ Success:
 28K -rw-r--r-- 1 root root  27K Sep 10 04:01 packages/ac-dcd-20210428.1556.el
4.0K -rw-r--r-- 1 root root  387 Sep 10 04:01 packages/ac-dcd-20210428.1556.entry
4.0K -rw-r--r-- 1 root root 1.2K Sep 10 04:01 packages/ac-dcd-badge.svg
4.0K -rw-r--r-- 1 root root  343 Sep 10 04:01 packages/ac-dcd-readme.txt
