Package: ac-mozc
Fetcher: github
Source:  https://github.com/igjit/ac-mozc.git

Updating /mnt/store/melpa/working/ac-mozc/
Checking out origin/HEAD
Checking out 4c6c8be4701010d9362184437c0f783e0335c631
Built ac-mozc in 7.309s, finished at 2021-09-10T04:01:36+0000
 ✓ Success:
8.0K -rw-r--r-- 1 root root 5.1K Sep 10 04:01 packages/ac-mozc-20150227.1619.el
4.0K -rw-r--r-- 1 root root  378 Sep 10 04:01 packages/ac-mozc-20150227.1619.entry
4.0K -rw-r--r-- 1 root root 1.2K Sep 10 04:01 packages/ac-mozc-badge.svg
