Package: annotate
Fetcher: github
Source:  https://github.com/bastibe/annotate.el.git

Updating /mnt/store/melpa/working/annotate/
Checking out origin/HEAD
Checking out 4ae1d4f2a6b6d7e598285c6a43ae1785d44147e5
Built annotate in 7.215s, finished at 2021-09-10T04:03:50+0000
 ✓ Success:
148K -rw-r--r-- 1 root root 148K Sep 10 04:03 packages/annotate-20210819.1443.el
4.0K -rw-r--r-- 1 root root  285 Sep 10 04:03 packages/annotate-20210819.1443.entry
4.0K -rw-r--r-- 1 root root 1.2K Sep 10 04:03 packages/annotate-badge.svg
8.0K -rw-r--r-- 1 root root 6.3K Sep 10 04:03 packages/annotate-depth-20160520.2040.el
4.0K -rw-r--r-- 1 root root  407 Sep 10 04:03 packages/annotate-depth-20160520.2040.entry
4.0K -rw-r--r-- 1 root root 1.2K Sep 10 00:19 packages/annotate-depth-badge.svg
4.0K -rw-r--r-- 1 root root  753 Sep 10 04:03 packages/annotate-depth-readme.txt
4.0K -rw-r--r-- 1 root root  226 Sep 10 04:03 packages/annotate-depth.log
4.0K -rw-r--r-- 1 root root  674 Sep 10 04:03 packages/annotate-readme.txt
