Package: apropospriate-theme
Fetcher: github
Source:  https://github.com/waymondo/apropospriate-theme.git

Updating /mnt/store/melpa/working/apropospriate-theme/
Checking out origin/HEAD
Checking out e84255cf485004b6b2cb37ce9e0be62fd6512f8b
Copying files (->) and directories (=>)
  from /mnt/store/melpa/working/apropospriate-theme/
  to /tmp/apropospriate-themeLnmxUi/apropospriate-theme-20210809.1934
    apropospriate-dark-theme.el -> apropospriate-dark-theme.el
    apropospriate-light-theme.el -> apropospriate-light-theme.el
    apropospriate-theme-pkg.el -> apropospriate-theme-pkg.el
    apropospriate-theme.el -> apropospriate-theme.el
    apropospriate.el -> apropospriate.el
Created apropospriate-theme-20210809.1934.tar containing:
  apropospriate-theme-20210809.1934/
  apropospriate-theme-20210809.1934/apropospriate-dark-theme.el
  apropospriate-theme-20210809.1934/apropospriate-light-theme.el
  apropospriate-theme-20210809.1934/apropospriate-theme-pkg.el
  apropospriate-theme-20210809.1934/apropospriate-theme.el
  apropospriate-theme-20210809.1934/apropospriate.el
Built apropospriate-theme in 5.920s, finished at 2021-09-10T04:04:19+0000
 ✓ Success:
4.0K -rw-r--r-- 1 root root  208 Sep 10 04:04 packages/apropospriate-theme-20210809.1934.entry
 60K -rw-r--r-- 1 root root  60K Sep 10 04:04 packages/apropospriate-theme-20210809.1934.tar
4.0K -rw-r--r-- 1 root root 1.2K Sep 10 04:04 packages/apropospriate-theme-badge.svg
