Package: auto-shell-command
Fetcher: github
Source:  https://github.com/ongaeshi/auto-shell-command.git

Updating /mnt/store/melpa/working/auto-shell-command/
Checking out origin/HEAD
Checking out a8f9213e3c773b5687b81881240e6e648f2f56ba
Built auto-shell-command in 5.988s, finished at 2021-09-10T04:05:42+0000
 ✓ Success:
 12K -rw-r--r-- 1 root root 9.6K Sep 10 04:05 packages/auto-shell-command-20180817.1502.el
4.0K -rw-r--r-- 1 root root  413 Sep 10 04:05 packages/auto-shell-command-20180817.1502.entry
4.0K -rw-r--r-- 1 root root 1.2K Sep 10 04:05 packages/auto-shell-command-badge.svg
4.0K -rw-r--r-- 1 root root  560 Sep 10 04:05 packages/auto-shell-command-readme.txt
