Package: bash-completion
Fetcher: github
Source:  https://github.com/szermatt/emacs-bash-completion.git

Updating /mnt/store/melpa/working/bash-completion/
Checking out origin/HEAD
Checking out c5eaeed156ab906190c662d491269230967104b1
Built bash-completion in 6.430s, finished at 2021-09-10T04:06:32+0000
 ✓ Success:
 68K -rw-r--r-- 1 root root  68K Sep 10 04:06 packages/bash-completion-20210821.1941.el
4.0K -rw-r--r-- 1 root root  423 Sep 10 04:06 packages/bash-completion-20210821.1941.entry
4.0K -rw-r--r-- 1 root root 1.2K Sep 10 04:06 packages/bash-completion-badge.svg
4.0K -rw-r--r-- 1 root root 2.8K Sep 10 04:06 packages/bash-completion-readme.txt
