Package: brutalist-theme
Fetcher: git
Source:  https://git.madhouse-project.org/algernon/brutalist-theme.el.git

Updating /mnt/store/melpa/working/brutalist-theme/
Checking out origin/HEAD
Checking out 6568844b83dc916a5d6aa69960cbc85ded5f7d73
Copying files (->) and directories (=>)
  from /mnt/store/melpa/working/brutalist-theme/
  to /tmp/brutalist-theme842eGc/brutalist-theme-20181023.1222
    brutalist-build.el -> brutalist-build.el
    brutalist-dark-theme.el -> brutalist-dark-theme.el
    brutalist-theme.el -> brutalist-theme.el
Created brutalist-theme-20181023.1222.tar containing:
  brutalist-theme-20181023.1222/
  brutalist-theme-20181023.1222/brutalist-build.el
  brutalist-theme-20181023.1222/brutalist-dark-theme.el
  brutalist-theme-20181023.1222/brutalist-theme-pkg.el
  brutalist-theme-20181023.1222/brutalist-theme.el
Built brutalist-theme in 6.574s, finished at 2021-09-10T00:24:04+0000
 ✓ Success:
4.0K -rw-r--r-- 1 root root  282 Sep 10 00:24 packages/brutalist-theme-20181023.1222.entry
 32K -rw-r--r-- 1 root root  30K Sep 10 00:24 packages/brutalist-theme-20181023.1222.tar
4.0K -rw-r--r-- 1 root root 1.2K Sep 10 00:24 packages/brutalist-theme-badge.svg
4.0K -rw-r--r-- 1 root root  114 Sep 10 00:24 packages/brutalist-theme-readme.txt
