Package: burnt-toast
Fetcher: github
Source:  https://github.com/cedarbaum/burnt-toast.el.git

Updating /mnt/store/melpa/working/burnt-toast/
Checking out origin/HEAD
Checking out eed66036d65b0ee26ce02371d14dce16a360acb4
Copying files (->) and directories (=>)
  from /mnt/store/melpa/working/burnt-toast/
  to /tmp/burnt-toasttpAilP/burnt-toast-20201113.814
    burnt-toast-alert.el -> burnt-toast-alert.el
    burnt-toast.el -> burnt-toast.el
    icons/emacs.png -> icons/emacs.png
Created burnt-toast-20201113.814.tar containing:
  burnt-toast-20201113.814/
  burnt-toast-20201113.814/burnt-toast-alert.el
  burnt-toast-20201113.814/burnt-toast-pkg.el
  burnt-toast-20201113.814/burnt-toast.el
  burnt-toast-20201113.814/icons/
  burnt-toast-20201113.814/icons/emacs.png
Built burnt-toast in 4.607s, finished at 2021-09-10T00:24:31+0000
 ✓ Success:
4.0K -rw-r--r-- 1 root root  500 Sep 10 00:24 packages/burnt-toast-20201113.814.entry
 40K -rw-r--r-- 1 root root  40K Sep 10 00:24 packages/burnt-toast-20201113.814.tar
4.0K -rw-r--r-- 1 root root 1.2K Sep 10 00:24 packages/burnt-toast-badge.svg
4.0K -rw-r--r-- 1 root root  126 Sep 10 00:24 packages/burnt-toast-readme.txt
