Package: capture
Fetcher: github
Source:  https://github.com/pashinin/capture.el.git

Updating /mnt/store/melpa/working/capture/
Checking out origin/HEAD
Checking out 1bb26060311da76767f70096218313fc93b0c806
Copying files (->) and directories (=>)
  from /mnt/store/melpa/working/capture/
  to /tmp/capturelgHaRW/capture-20130828.1644
  ! src/capture-functions.el -> capture-functions.el
  ! src/capture-helpers.el -> capture-helpers.el
  ! src/capture-keys.el -> capture-keys.el
  ! src/capture-ui.el -> capture-ui.el
  ! src/capture-vars.el -> capture-vars.el
  ! src/capture.el -> capture.el
Created capture-20130828.1644.tar containing:
  capture-20130828.1644/
  capture-20130828.1644/capture-functions.el
  capture-20130828.1644/capture-helpers.el
  capture-20130828.1644/capture-keys.el
  capture-20130828.1644/capture-pkg.el
  capture-20130828.1644/capture-ui.el
  capture-20130828.1644/capture-vars.el
  capture-20130828.1644/capture.el
Built capture in 6.565s, finished at 2021-09-10T00:25:04+0000
 ✓ Success:
4.0K -rw-r--r-- 1 root root  283 Sep 10 00:25 packages/capture-20130828.1644.entry
 40K -rw-r--r-- 1 root root  40K Sep 10 00:25 packages/capture-20130828.1644.tar
4.0K -rw-r--r-- 1 root root 1.2K Sep 10 00:25 packages/capture-badge.svg
4.0K -rw-r--r-- 1 root root  649 Sep 10 00:25 packages/capture-readme.txt
