Package: cider
Fetcher: github
Source:  https://github.com/clojure-emacs/cider.git

Updating /mnt/store/melpa/working/cider/
Checking out origin/HEAD
Checking out d8dd41e3c31ce0df0d0f4d35054bd5ce7d302b42
Copying files (->) and directories (=>)
  from /mnt/store/melpa/working/cider/
  to /tmp/ciderqhgbur/cider-20210909.1011
    cider-apropos.el -> cider-apropos.el
    cider-browse-ns.el -> cider-browse-ns.el
    cider-browse-spec.el -> cider-browse-spec.el
    cider-cheatsheet.el -> cider-cheatsheet.el
    cider-classpath.el -> cider-classpath.el
    cider-client.el -> cider-client.el
    cider-clojuredocs.el -> cider-clojuredocs.el
    cider-common.el -> cider-common.el
    cider-compat.el -> cider-compat.el
    cider-completion.el -> cider-completion.el
    cider-connection.el -> cider-connection.el
    cider-debug.el -> cider-debug.el
    cider-doc.el -> cider-doc.el
    cider-eldoc.el -> cider-eldoc.el
    cider-eval.el -> cider-eval.el
    cider-find.el -> cider-find.el
    cider-format.el -> cider-format.el
    cider-inspector.el -> cider-inspector.el
    cider-jar.el -> cider-jar.el
    cider-macroexpansion.el -> cider-macroexpansion.el
    cider-mode.el -> cider-mode.el
    cider-ns.el -> cider-ns.el
    cider-overlays.el -> cider-overlays.el
    cider-popup.el -> cider-popup.el
    cider-profile.el -> cider-profile.el
    cider-repl-history.el -> cider-repl-history.el
    cider-repl.el -> cider-repl.el
    cider-resolve.el -> cider-resolve.el
    cider-scratch.el -> cider-scratch.el
    cider-selector.el -> cider-selector.el
    cider-stacktrace.el -> cider-stacktrace.el
    cider-test.el -> cider-test.el
    cider-tracing.el -> cider-tracing.el
    cider-util.el -> cider-util.el
    cider-xref.el -> cider-xref.el
    cider.el -> cider.el
    nrepl-client.el -> nrepl-client.el
    nrepl-dict.el -> nrepl-dict.el
Created cider-20210909.1011.tar containing:
  cider-20210909.1011/
  cider-20210909.1011/cider-apropos.el
  cider-20210909.1011/cider-browse-ns.el
  cider-20210909.1011/cider-browse-spec.el
  cider-20210909.1011/cider-cheatsheet.el
  cider-20210909.1011/cider-classpath.el
  cider-20210909.1011/cider-client.el
  cider-20210909.1011/cider-clojuredocs.el
  cider-20210909.1011/cider-common.el
  cider-20210909.1011/cider-compat.el
  cider-20210909.1011/cider-completion.el
  cider-20210909.1011/cider-connection.el
  cider-20210909.1011/cider-debug.el
  cider-20210909.1011/cider-doc.el
  cider-20210909.1011/cider-eldoc.el
  cider-20210909.1011/cider-eval.el
  cider-20210909.1011/cider-find.el
  cider-20210909.1011/cider-format.el
  cider-20210909.1011/cider-inspector.el
  cider-20210909.1011/cider-jar.el
  cider-20210909.1011/cider-macroexpansion.el
  cider-20210909.1011/cider-mode.el
  cider-20210909.1011/cider-ns.el
  cider-20210909.1011/cider-overlays.el
  cider-20210909.1011/cider-pkg.el
  cider-20210909.1011/cider-popup.el
  cider-20210909.1011/cider-profile.el
  cider-20210909.1011/cider-repl-history.el
  cider-20210909.1011/cider-repl.el
  cider-20210909.1011/cider-resolve.el
  cider-20210909.1011/cider-scratch.el
  cider-20210909.1011/cider-selector.el
  cider-20210909.1011/cider-stacktrace.el
  cider-20210909.1011/cider-test.el
  cider-20210909.1011/cider-tracing.el
  cider-20210909.1011/cider-util.el
  cider-20210909.1011/cider-xref.el
  cider-20210909.1011/cider.el
  cider-20210909.1011/nrepl-client.el
  cider-20210909.1011/nrepl-dict.el
Built cider in 5.467s, finished at 2021-09-10T00:26:12+0000
 ✓ Success:
4.0K -rw-r--r-- 1 root root  769 Sep 10 00:26 packages/cider-20210909.1011.entry
860K -rw-r--r-- 1 root root 860K Sep 10 00:26 packages/cider-20210909.1011.tar
4.0K -rw-r--r-- 1 root root 1.2K Sep 10 00:26 packages/cider-badge.svg
4.0K -rw-r--r-- 1 root root 3.1K Sep 10 00:26 packages/cider-decompile-20151122.537.el
4.0K -rw-r--r-- 1 root root  398 Sep 10 00:26 packages/cider-decompile-20151122.537.entry
4.0K -rw-r--r-- 1 root root 1.2K Sep  9 20:47 packages/cider-decompile-badge.svg
4.0K -rw-r--r-- 1 root root  350 Sep 10 00:26 packages/cider-decompile-readme.txt
4.0K -rw-r--r-- 1 root root  234 Sep 10 00:26 packages/cider-decompile.log
4.0K -rw-r--r-- 1 root root 2.6K Sep 10 00:26 packages/cider-eval-sexp-fu-20190311.2152.el
4.0K -rw-r--r-- 1 root root  430 Sep 10 00:26 packages/cider-eval-sexp-fu-20190311.2152.entry
4.0K -rw-r--r-- 1 root root 1.2K Sep 10 00:26 packages/cider-eval-sexp-fu-badge.svg
4.0K -rw-r--r-- 1 root root  132 Sep 10 00:26 packages/cider-eval-sexp-fu-readme.txt
4.0K -rw-r--r-- 1 root root  330 Sep 10 00:26 packages/cider-eval-sexp-fu.log
8.0K -rw-r--r-- 1 root root 7.0K Sep  9 20:47 packages/cider-hydra-20190816.1121.el
4.0K -rw-r--r-- 1 root root  440 Sep  9 20:47 packages/cider-hydra-20190816.1121.entry
4.0K -rw-r--r-- 1 root root 1.2K Sep  9 20:47 packages/cider-hydra-badge.svg
4.0K -rw-r--r-- 1 root root 1.3K Sep  9 20:47 packages/cider-hydra-readme.txt
4.0K -rw-r--r-- 1 root root  168 Sep 10 00:26 packages/cider-hydra.log
4.0K -rw-r--r-- 1 root root  568 Sep 10 00:26 packages/cider-readme.txt
