Package: clang-format+
Fetcher: github
Source:  https://github.com/SavchenkoValeriy/emacs-clang-format-plus.git

Updating /mnt/store/melpa/working/clang-format+/
Checking out origin/HEAD
Checking out ddd4bfe1a13c2fd494ce339a320a51124c1d2f68
Built clang-format+ in 5.904s, finished at 2021-09-10T00:26:28+0000
 ✓ Success:
 12K -rw-r--r-- 1 root root  11K Sep 10 00:26 packages/clang-format+-20190824.2216.el
4.0K -rw-r--r-- 1 root root  339 Sep 10 00:26 packages/clang-format+-20190824.2216.entry
4.0K -rw-r--r-- 1 root root 1.2K Sep 10 00:26 packages/clang-format+-badge.svg
4.0K -rw-r--r-- 1 root root  162 Sep 10 00:26 packages/clang-format+-readme.txt
