Package: clojure-mode
Fetcher: github
Source:  https://github.com/clojure-emacs/clojure-mode.git

Updating /mnt/store/melpa/working/clojure-mode/
Checking out origin/HEAD
Checking out e1dc7caee76d117a366f8b8b1c2da7e6400636a8
Built clojure-mode in 14.819s, finished at 2021-09-10T00:27:10+0000
 ✓ Success:
116K -rw-r--r-- 1 root root 114K Sep 10 00:27 packages/clojure-mode-20210821.2010.el
4.0K -rw-r--r-- 1 root root  355 Sep 10 00:27 packages/clojure-mode-20210821.2010.entry
4.0K -rw-r--r-- 1 root root 1.2K Sep 10 00:27 packages/clojure-mode-badge.svg
 12K -rw-r--r-- 1 root root  11K Sep 10 00:27 packages/clojure-mode-extra-font-locking-20210322.704.el
4.0K -rw-r--r-- 1 root root  443 Sep 10 00:27 packages/clojure-mode-extra-font-locking-20210322.704.entry
4.0K -rw-r--r-- 1 root root 1.2K Sep  9 20:48 packages/clojure-mode-extra-font-locking-badge.svg
4.0K -rw-r--r-- 1 root root  388 Sep 10 00:27 packages/clojure-mode-extra-font-locking-readme.txt
4.0K -rw-r--r-- 1 root root  263 Sep 10 00:27 packages/clojure-mode-extra-font-locking.log
4.0K -rw-r--r-- 1 root root  632 Sep 10 00:27 packages/clojure-mode-readme.txt
