Package: cmd-to-echo
Fetcher: github
Source:  https://github.com/mallt/cmd-to-echo.git

Updating /mnt/store/melpa/working/cmd-to-echo/
Checking out origin/HEAD
Checking out e0e874fc0e1ad6d291e39ed76023445297ad438a
Built cmd-to-echo in 5.918s, finished at 2021-09-10T00:27:38+0000
 ✓ Success:
4.0K -rw-r--r-- 1 root root 3.7K Sep 10 00:27 packages/cmd-to-echo-20161203.2133.el
4.0K -rw-r--r-- 1 root root  410 Sep 10 00:27 packages/cmd-to-echo-20161203.2133.entry
4.0K -rw-r--r-- 1 root root 1.2K Sep 10 00:27 packages/cmd-to-echo-badge.svg
4.0K -rw-r--r-- 1 root root   84 Sep 10 00:27 packages/cmd-to-echo-readme.txt
