Package: code-library
Fetcher: github
Source:  https://github.com/lujun9972/code-library.git

Updating /mnt/store/melpa/working/code-library/
Checking out origin/HEAD
Checking out 32d59c5c845d6dbdda18f9bd1c03a58d55417fc5
Built code-library in 5.509s, finished at 2021-09-10T00:27:46+0000
 ✓ Success:
 12K -rwxr-xr-x 1 root root 9.4K Sep 10 00:27 packages/code-library-20160426.1218.el
4.0K -rw-r--r-- 1 root root  320 Sep 10 00:27 packages/code-library-20160426.1218.entry
4.0K -rw-r--r-- 1 root root 1.2K Sep 10 00:27 packages/code-library-badge.svg
4.0K -rw-r--r-- 1 root root   67 Sep 10 00:27 packages/code-library-readme.txt
