Package: com-css-sort
Fetcher: github
Source:  https://github.com/jcs-elpa/com-css-sort.git

Updating /mnt/store/melpa/working/com-css-sort/
Checking out origin/HEAD
Checking out e91006ba4a77b8ea8c4fe4085ba5676c97cf0315
Built com-css-sort in 6.602s, finished at 2021-09-10T00:28:08+0000
 ✓ Success:
 16K -rw-r--r-- 1 root root  15K Sep 10 00:28 packages/com-css-sort-20201002.1430.el
4.0K -rw-r--r-- 1 root root  384 Sep 10 00:28 packages/com-css-sort-20201002.1430.entry
4.0K -rw-r--r-- 1 root root 1.2K Sep 10 00:28 packages/com-css-sort-badge.svg
4.0K -rw-r--r-- 1 root root   43 Sep 10 00:28 packages/com-css-sort-readme.txt
