Package: conkeror-minor-mode
Fetcher: github
Source:  https://github.com/Malabarba/conkeror-minor-mode.git

Updating /mnt/store/melpa/working/conkeror-minor-mode/
Checking out origin/HEAD
Checking out 476e81c27b056e21c192391fe674a2bf875466b0
Built conkeror-minor-mode in 5.708s, finished at 2021-09-10T00:29:43+0000
 ✓ Success:
 20K -rw-r--r-- 1 root root  17K Sep 10 00:29 packages/conkeror-minor-mode-20150114.1604.el
4.0K -rw-r--r-- 1 root root  439 Sep 10 00:29 packages/conkeror-minor-mode-20150114.1604.entry
4.0K -rw-r--r-- 1 root root 1.2K Sep 10 00:29 packages/conkeror-minor-mode-badge.svg
4.0K -rw-r--r-- 1 root root 1.7K Sep 10 00:29 packages/conkeror-minor-mode-readme.txt
