Package: cp5022x
Fetcher: github
Source:  https://github.com/awasira/cp5022x.el.git

Updating /mnt/store/melpa/working/cp5022x/
Checking out origin/HEAD
Checking out ea7327dd75e54539576916f592ae1be98179ae35
Built cp5022x in 6.136s, finished at 2021-09-10T00:30:39+0000
 ✓ Success:
 12K -rw-r--r-- 1 root root 9.4K Sep 10 00:30 packages/cp5022x-20120323.2335.el
4.0K -rw-r--r-- 1 root root  344 Sep 10 00:30 packages/cp5022x-20120323.2335.entry
4.0K -rw-r--r-- 1 root root 1.2K Sep 10 00:30 packages/cp5022x-badge.svg
4.0K -rw-r--r-- 1 root root   41 Sep 10 00:30 packages/cp5022x-readme.txt
