Package: dactyl-mode
Fetcher: github
Source:  https://github.com/luxbock/dactyl-mode.git

Updating /mnt/store/melpa/working/dactyl-mode/
Checking out origin/HEAD
Checking out cc55fe6b987271d9647492b8df4c812d884f661f
Built dactyl-mode in 5.313s, finished at 2021-09-10T00:31:39+0000
 ✓ Success:
 16K -rw-r--r-- 1 root root  16K Sep 10 00:31 packages/dactyl-mode-20140906.1725.el
4.0K -rw-r--r-- 1 root root  268 Sep 10 00:31 packages/dactyl-mode-20140906.1725.entry
4.0K -rw-r--r-- 1 root root 1.2K Sep 10 00:31 packages/dactyl-mode-badge.svg
4.0K -rw-r--r-- 1 root root  146 Sep 10 00:31 packages/dactyl-mode-readme.txt
