Package: dashboard-ls
Fetcher: github
Source:  https://github.com/emacs-dashboard/dashboard-ls.git

Updating /mnt/store/melpa/working/dashboard-ls/
Checking out origin/HEAD
Checking out 947c8c99e9abb38852d895f8792258783e3c4e1d
Built dashboard-ls in 4.186s, finished at 2021-09-10T00:32:00+0000
 ✓ Success:
4.0K -rw-r--r-- 1 root root 3.4K Sep 10 00:31 packages/dashboard-ls-20210108.1857.el
4.0K -rw-r--r-- 1 root root  452 Sep 10 00:32 packages/dashboard-ls-20210108.1857.entry
4.0K -rw-r--r-- 1 root root 1.2K Sep 10 00:32 packages/dashboard-ls-badge.svg
4.0K -rw-r--r-- 1 root root   62 Sep 10 00:32 packages/dashboard-ls-readme.txt
