Package: date2name
Fetcher: github
Source:  https://github.com/DerBeutlin/date2name.el.git

Updating /mnt/store/melpa/working/date2name/
Checking out origin/HEAD
Checking out 386dbe73678705d6107cd5c9bdeb4f7c97632360
Built date2name in 5.672s, finished at 2021-09-10T00:32:06+0000
 ✓ Success:
8.0K -rw-r--r-- 1 root root 7.7K Sep 10 00:32 packages/date2name-20190630.933.el
4.0K -rw-r--r-- 1 root root  369 Sep 10 00:32 packages/date2name-20190630.933.entry
4.0K -rw-r--r-- 1 root root 1.2K Sep 10 00:32 packages/date2name-badge.svg
4.0K -rw-r--r-- 1 root root   55 Sep 10 00:32 packages/date2name-readme.txt
