Package: digistar-mode
Fetcher: github
Source:  https://github.com/retroj/digistar-mode.git

Updating /mnt/store/melpa/working/digistar-mode/
Checking out origin/HEAD
Checking out e12b128023b7696a23545f812877e8c6531d261c
Built digistar-mode in 7.971s, finished at 2021-09-10T00:33:34+0000
 ✓ Success:
 20K -rw-r--r-- 1 root root  19K Sep 10 00:33 packages/digistar-mode-20210129.1719.el
4.0K -rw-r--r-- 1 root root  288 Sep 10 00:33 packages/digistar-mode-20210129.1719.entry
4.0K -rw-r--r-- 1 root root 1.2K Sep 10 00:33 packages/digistar-mode-badge.svg
4.0K -rw-r--r-- 1 root root  355 Sep 10 00:33 packages/digistar-mode-readme.txt
