Package: duplicate-thing
Fetcher: github
Source:  https://github.com/ongaeshi/duplicate-thing.git

Updating /mnt/store/melpa/working/duplicate-thing/
Checking out origin/HEAD
Checking out 9d8fd05e3e5caa35d3f2a0c0032c92f0c0908e21
Built duplicate-thing in 5.436s, finished at 2021-09-10T00:35:53+0000
 ✓ Success:
4.0K -rw-r--r-- 1 root root 3.2K Sep 10 00:35 packages/duplicate-thing-20181031.1500.el
4.0K -rw-r--r-- 1 root root  351 Sep 10 00:35 packages/duplicate-thing-20181031.1500.entry
4.0K -rw-r--r-- 1 root root 1.2K Sep 10 00:35 packages/duplicate-thing-badge.svg
4.0K -rw-r--r-- 1 root root  274 Sep 10 00:35 packages/duplicate-thing-readme.txt
