Package: elquery
Fetcher: github
Source:  https://github.com/AdamNiederer/elquery.git

Updating /mnt/store/melpa/working/elquery/
Checking out origin/HEAD
Checking out cba7629ad886c4e51d66f8b509aad48bdfe100cc
Built elquery in 6.546s, finished at 2021-09-10T00:38:33+0000
 ✓ Success:
 24K -rw-r--r-- 1 root root  23K Sep 10 00:38 packages/elquery-20200628.1756.el
4.0K -rw-r--r-- 1 root root  386 Sep 10 00:38 packages/elquery-20200628.1756.entry
4.0K -rw-r--r-- 1 root root 1.2K Sep 10 00:38 packages/elquery-badge.svg
   0 -rw-r--r-- 1 root root    0 Sep 10 00:38 packages/elquery-readme.txt
