Package: eslint-fix
Fetcher: github
Source:  https://github.com/codesuki/eslint-fix.git

Updating /mnt/store/melpa/working/eslint-fix/
Checking out origin/HEAD
Checking out f81f3b47a47460611fbdbdae1d23275ec78f2f8d
Built eslint-fix in 5.866s, finished at 2021-09-10T00:41:14+0000
 ✓ Success:
4.0K -rw-r--r-- 1 root root 2.1K Sep 10 00:41 packages/eslint-fix-20180514.700.el
4.0K -rw-r--r-- 1 root root  438 Sep 10 00:41 packages/eslint-fix-20180514.700.entry
4.0K -rw-r--r-- 1 root root 1.2K Sep 10 00:41 packages/eslint-fix-badge.svg
4.0K -rw-r--r-- 1 root root  439 Sep 10 00:41 packages/eslint-fix-readme.txt
