Package: evil-lion
Fetcher: github
Source:  https://github.com/edkolev/evil-lion.git

Updating /mnt/store/melpa/working/evil-lion/
Checking out origin/HEAD
Checking out 6b03593f5dd6e7c9ca02207f9a73615cf94c93ab
Note: evil-lion :files spec is equivalent to the default.
Built evil-lion in 6.394s, finished at 2021-09-10T00:42:21+0000
 ✓ Success:
 12K -rw-r--r-- 1 root root 8.6K Sep 10 00:42 packages/evil-lion-20170811.614.el
4.0K -rw-r--r-- 1 root root  415 Sep 10 00:42 packages/evil-lion-20170811.614.entry
4.0K -rw-r--r-- 1 root root 1.2K Sep 10 00:42 packages/evil-lion-badge.svg
4.0K -rw-r--r-- 1 root root  275 Sep 10 00:42 packages/evil-lion-readme.txt
