Package: flycheck-dedukti
Fetcher: github
Source:  https://github.com/rafoo/flycheck-dedukti.git

Updating /mnt/store/melpa/working/flycheck-dedukti/
Checking out origin/HEAD
Checking out 3dbff5646355f39d57a3ec514f560a6b0082a1cd
Built flycheck-dedukti in 6.623s, finished at 2021-09-10T00:46:05+0000
 ✓ Success:
4.0K -rw-r--r-- 1 root root 2.2K Sep 10 00:46 packages/flycheck-dedukti-20171103.1212.el
4.0K -rw-r--r-- 1 root root  439 Sep 10 00:46 packages/flycheck-dedukti-20171103.1212.entry
4.0K -rw-r--r-- 1 root root 1.2K Sep 10 00:46 packages/flycheck-dedukti-badge.svg
4.0K -rw-r--r-- 1 root root  559 Sep 10 00:46 packages/flycheck-dedukti-readme.txt
