Package: flycheck-popup-tip
Fetcher: github
Source:  https://github.com/flycheck/flycheck-popup-tip.git

Updating /mnt/store/melpa/working/flycheck-popup-tip/
Checking out origin/HEAD
Checking out ef86aad907f27ca076859d8d9416f4f7727619c6
Built flycheck-popup-tip in 7.402s, finished at 2021-09-10T00:46:58+0000
 ✓ Success:
8.0K -rw-r--r-- 1 root root 5.1K Sep 10 00:46 packages/flycheck-popup-tip-20170812.2351.el
4.0K -rw-r--r-- 1 root root  529 Sep 10 00:46 packages/flycheck-popup-tip-20170812.2351.entry
4.0K -rw-r--r-- 1 root root 1.2K Sep 10 00:46 packages/flycheck-popup-tip-badge.svg
4.0K -rw-r--r-- 1 root root  432 Sep 10 00:46 packages/flycheck-popup-tip-readme.txt
