Package: flycheck-pact
Fetcher: github
Source:  https://github.com/kadena-io/flycheck-pact.git

Updating /mnt/store/melpa/working/flycheck-pact/
Checking out origin/HEAD
Checking out 0e10045064ef89ec8b6f5a473073d47b976a2ca3
Built flycheck-pact in 5.137s, finished at 2021-09-10T00:46:49+0000
 ✓ Success:
4.0K -rw-r--r-- 1 root root 3.4K Sep 10 00:46 packages/flycheck-pact-20180920.2052.el
4.0K -rw-r--r-- 1 root root  457 Sep 10 00:46 packages/flycheck-pact-20180920.2052.entry
4.0K -rw-r--r-- 1 root root 1.2K Sep 10 00:46 packages/flycheck-pact-badge.svg
4.0K -rw-r--r-- 1 root root  101 Sep 10 00:46 packages/flycheck-pact-readme.txt
