Package: flycheck-cfn
Fetcher: gitlab
Source:  https://gitlab.com/worr/cfn-mode.git

Updating /mnt/store/melpa/working/flycheck-cfn/
Checking out origin/HEAD
Checking out a4ca40978e680f9edc86c141e696e0ae57c63533
Built flycheck-cfn in 5.354s, finished at 2021-09-10T00:45:48+0000
 ✓ Success:
8.0K -rw-r--r-- 1 root root 4.1K Sep 10 00:45 packages/flycheck-cfn-20201120.2307.el
4.0K -rw-r--r-- 1 root root  393 Sep 10 00:45 packages/flycheck-cfn-20201120.2307.entry
4.0K -rw-r--r-- 1 root root 1.2K Sep 10 00:45 packages/flycheck-cfn-badge.svg
4.0K -rw-r--r-- 1 root root  501 Sep 10 00:45 packages/flycheck-cfn-readme.txt
