Package: geiser
Fetcher: gitlab
Source:  https://gitlab.com/emacs-geiser/geiser.git

Updating /mnt/store/melpa/working/geiser/
Checking out origin/HEAD
Checking out 327ff01e5b9c6e019fdd0cb710a4c19082249345
Copying files (->) and directories (=>)
  from /mnt/store/melpa/working/geiser/
  to /tmp/geiserJjS6j0/geiser-20210808.16
  ! elisp/geiser-autodoc.el -> geiser-autodoc.el
  ! elisp/geiser-base.el -> geiser-base.el
  ! elisp/geiser-company.el -> geiser-company.el
  ! elisp/geiser-compile.el -> geiser-compile.el
  ! elisp/geiser-completion.el -> geiser-completion.el
  ! elisp/geiser-connection.el -> geiser-connection.el
  ! elisp/geiser-custom.el -> geiser-custom.el
  ! elisp/geiser-debug.el -> geiser-debug.el
  ! elisp/geiser-doc.el -> geiser-doc.el
  ! elisp/geiser-edit.el -> geiser-edit.el
  ! elisp/geiser-eval.el -> geiser-eval.el
  ! elisp/geiser-image.el -> geiser-image.el
  ! elisp/geiser-impl.el -> geiser-impl.el
  ! elisp/geiser-log.el -> geiser-log.el
  ! elisp/geiser-menu.el -> geiser-menu.el
  ! elisp/geiser-mode.el -> geiser-mode.el
  ! elisp/geiser-popup.el -> geiser-popup.el
  ! elisp/geiser-reload.el -> geiser-reload.el
  ! elisp/geiser-repl.el -> geiser-repl.el
  ! elisp/geiser-syntax.el -> geiser-syntax.el
  ! elisp/geiser-table.el -> geiser-table.el
  ! elisp/geiser-xref.el -> geiser-xref.el
  ! elisp/geiser.el -> geiser.el
  ! doc/dir -> dir
  ! doc/geiser.texi -> geiser.texi
Created /tmp/geiserJjS6j0/geiser-20210808.16/geiser.info
Created geiser-20210808.16.tar containing:
  geiser-20210808.16/
  geiser-20210808.16/dir
  geiser-20210808.16/geiser-autodoc.el
  geiser-20210808.16/geiser-base.el
  geiser-20210808.16/geiser-company.el
  geiser-20210808.16/geiser-compile.el
  geiser-20210808.16/geiser-completion.el
  geiser-20210808.16/geiser-connection.el
  geiser-20210808.16/geiser-custom.el
  geiser-20210808.16/geiser-debug.el
  geiser-20210808.16/geiser-doc.el
  geiser-20210808.16/geiser-edit.el
  geiser-20210808.16/geiser-eval.el
  geiser-20210808.16/geiser-image.el
  geiser-20210808.16/geiser-impl.el
  geiser-20210808.16/geiser-log.el
  geiser-20210808.16/geiser-menu.el
  geiser-20210808.16/geiser-mode.el
  geiser-20210808.16/geiser-pkg.el
  geiser-20210808.16/geiser-popup.el
  geiser-20210808.16/geiser-reload.el
  geiser-20210808.16/geiser-repl.el
  geiser-20210808.16/geiser-syntax.el
  geiser-20210808.16/geiser-table.el
  geiser-20210808.16/geiser-xref.el
  geiser-20210808.16/geiser.el
  geiser-20210808.16/geiser.info
Built geiser in 13.283s, finished at 2021-09-10T00:49:49+0000
 ✓ Success:
4.0K -rw-r--r-- 1 root root  373 Sep 10 00:49 packages/geiser-20210808.16.entry
312K -rw-r--r-- 1 root root 310K Sep 10 00:49 packages/geiser-20210808.16.tar
4.0K -rw-r--r-- 1 root root 1.2K Sep 10 00:49 packages/geiser-badge.svg
4.0K -rw-r--r-- 1 root root  443 Sep 10 00:49 packages/geiser-chez-20210421.120.entry
 32K -rw-r--r-- 1 root root  30K Sep 10 00:49 packages/geiser-chez-20210421.120.tar
4.0K -rw-r--r-- 1 root root 1.2K Sep 10 00:49 packages/geiser-chez-badge.svg
4.0K -rw-r--r-- 1 root root   57 Sep 10 00:49 packages/geiser-chez-readme.txt
4.0K -rw-r--r-- 1 root root 1.2K Sep 10 00:49 packages/geiser-chez.log
4.0K -rw-r--r-- 1 root root  424 Sep 10 00:49 packages/geiser-chibi-20210421.123.entry
 32K -rw-r--r-- 1 root root  30K Sep 10 00:49 packages/geiser-chibi-20210421.123.tar
4.0K -rw-r--r-- 1 root root 1.2K Sep 10 00:49 packages/geiser-chibi-badge.svg
4.0K -rw-r--r-- 1 root root   51 Sep 10 00:49 packages/geiser-chibi-readme.txt
4.0K -rw-r--r-- 1 root root 1.2K Sep 10 00:49 packages/geiser-chibi.log
4.0K -rw-r--r-- 1 root root  389 Sep 10 00:49 packages/geiser-chicken-20210421.127.entry
 60K -rw-r--r-- 1 root root  60K Sep 10 00:49 packages/geiser-chicken-20210421.127.tar
4.0K -rw-r--r-- 1 root root 1.2K Sep 10 00:49 packages/geiser-chicken-badge.svg
4.0K -rw-r--r-- 1 root root   69 Sep 10 00:49 packages/geiser-chicken-readme.txt
4.0K -rw-r--r-- 1 root root 1.3K Sep 10 00:49 packages/geiser-chicken.log
4.0K -rw-r--r-- 1 root root  416 Sep 10 00:49 packages/geiser-gambit-20210421.124.entry
140K -rw-r--r-- 1 root root 140K Sep 10 00:49 packages/geiser-gambit-20210421.124.tar
4.0K -rw-r--r-- 1 root root 1.2K Sep 10 00:49 packages/geiser-gambit-badge.svg
4.0K -rw-r--r-- 1 root root  148 Sep 10 00:49 packages/geiser-gambit-readme.txt
4.0K -rw-r--r-- 1 root root 1.2K Sep 10 00:49 packages/geiser-gambit.log
4.0K -rw-r--r-- 1 root root  430 Sep 10 00:49 packages/geiser-gauche-20200802.1300.entry
 32K -rw-r--r-- 1 root root  30K Sep 10 00:49 packages/geiser-gauche-20200802.1300.tar
4.0K -rw-r--r-- 1 root root 1.2K Sep 10 00:49 packages/geiser-gauche-badge.svg
4.0K -rw-r--r-- 1 root root   65 Sep 10 00:49 packages/geiser-gauche-readme.txt
4.0K -rw-r--r-- 1 root root 1.1K Sep 10 00:49 packages/geiser-gauche.log
4.0K -rw-r--r-- 1 root root  440 Sep 10 00:49 packages/geiser-guile-20210508.1838.entry
 60K -rw-r--r-- 1 root root  60K Sep 10 00:49 packages/geiser-guile-20210508.1838.tar
4.0K -rw-r--r-- 1 root root 1.2K Sep 10 00:49 packages/geiser-guile-badge.svg
4.0K -rw-r--r-- 1 root root   69 Sep 10 00:49 packages/geiser-guile-readme.txt
4.0K -rw-r--r-- 1 root root 1.5K Sep 10 00:49 packages/geiser-guile.log
4.0K -rw-r--r-- 1 root root  452 Sep 10 00:49 packages/geiser-kawa-20210427.1626.entry
140K -rw-r--r-- 1 root root 140K Sep 10 00:49 packages/geiser-kawa-20210427.1626.tar
4.0K -rw-r--r-- 1 root root 1.2K Sep 10 00:49 packages/geiser-kawa-badge.svg
4.0K -rw-r--r-- 1 root root   87 Sep 10 00:49 packages/geiser-kawa-readme.txt
4.0K -rw-r--r-- 1 root root 3.7K Sep 10 00:49 packages/geiser-kawa.log
4.0K -rw-r--r-- 1 root root  453 Sep  9 21:11 packages/geiser-mit-20210405.1920.entry
 32K -rw-r--r-- 1 root root  30K Sep  9 21:11 packages/geiser-mit-20210405.1920.tar
4.0K -rw-r--r-- 1 root root 1.2K Sep  9 21:11 packages/geiser-mit-badge.svg
4.0K -rw-r--r-- 1 root root   56 Sep  9 21:11 packages/geiser-mit-readme.txt
4.0K -rw-r--r-- 1 root root  157 Sep 10 00:49 packages/geiser-mit.log
4.0K -rw-r--r-- 1 root root  415 Sep  9 21:11 packages/geiser-racket-20210421.125.entry
 80K -rw-r--r-- 1 root root  80K Sep  9 21:11 packages/geiser-racket-20210421.125.tar
4.0K -rw-r--r-- 1 root root 1.2K Sep  9 21:11 packages/geiser-racket-badge.svg
4.0K -rw-r--r-- 1 root root   94 Sep  9 21:11 packages/geiser-racket-readme.txt
4.0K -rw-r--r-- 1 root root  141 Sep 10 00:49 packages/geiser-racket.log
4.0K -rw-r--r-- 1 root root 1.4K Sep 10 00:49 packages/geiser-readme.txt
 16K -rw-r--r-- 1 root root  14K Sep  9 21:11 packages/geiser-stklos-20210626.1440.el
4.0K -rw-r--r-- 1 root root  441 Sep  9 21:11 packages/geiser-stklos-20210626.1440.entry
4.0K -rw-r--r-- 1 root root 1.2K Sep  9 21:11 packages/geiser-stklos-badge.svg
4.0K -rw-r--r-- 1 root root 1.8K Sep  9 21:11 packages/geiser-stklos-readme.txt
4.0K -rw-r--r-- 1 root root  141 Sep 10 00:49 packages/geiser-stklos.log
