Package: ggtags
Fetcher: github
Source:  https://github.com/leoliu/ggtags.git

Updating /mnt/store/melpa/working/ggtags/
Checking out origin/HEAD
Checking out 1c43705753e639b34b58c9bf961a80b6610a7109
Built ggtags in 7.669s, finished at 2021-09-10T00:50:06+0000
 ✓ Success:
108K -rw-r--r-- 1 root root 105K Sep 10 00:50 packages/ggtags-20190320.2208.el
4.0K -rw-r--r-- 1 root root  362 Sep 10 00:50 packages/ggtags-20190320.2208.entry
4.0K -rw-r--r-- 1 root root 1.2K Sep 10 00:50 packages/ggtags-badge.svg
4.0K -rw-r--r-- 1 root root  653 Sep 10 00:50 packages/ggtags-readme.txt
