Package: gitpatch
Fetcher: github
Source:  https://github.com/tumashu/gitpatch.git

Updating /mnt/store/melpa/working/gitpatch/
Checking out origin/HEAD
Checking out 577d5adf65c8133caa325c10e89e1e2fc323c907
Built gitpatch in 5.316s, finished at 2021-09-10T00:51:37+0000
 ✓ Success:
8.0K -rw-r--r-- 1 root root 7.4K Sep 10 00:51 packages/gitpatch-20170722.410.el
4.0K -rw-r--r-- 1 root root  347 Sep 10 00:51 packages/gitpatch-20170722.410.entry
4.0K -rw-r--r-- 1 root root 1.2K Sep 10 00:51 packages/gitpatch-badge.svg
4.0K -rw-r--r-- 1 root root  945 Sep 10 00:51 packages/gitpatch-readme.txt
