Package: gregorio-mode
Fetcher: github
Source:  https://github.com/jsrjenkins/gregorio-mode.git

Updating /mnt/store/melpa/working/gregorio-mode/
Checking out origin/HEAD
Checking out 736fd3d05fb67f707cca1a7ce24e3ee7ca5e9567
Built gregorio-mode in 5.749s, finished at 2021-09-10T00:53:22+0000
 ✓ Success:
 12K -rw-r--r-- 1 root root  10K Sep 10 00:53 packages/gregorio-mode-20170705.1451.el
4.0K -rw-r--r-- 1 root root  355 Sep 10 00:53 packages/gregorio-mode-20170705.1451.entry
4.0K -rw-r--r-- 1 root root 1.2K Sep 10 00:53 packages/gregorio-mode-badge.svg
4.0K -rw-r--r-- 1 root root   94 Sep 10 00:53 packages/gregorio-mode-readme.txt
