Package: helm-emms
Fetcher: github
Source:  https://github.com/emacs-helm/helm-emms.git

Updating /mnt/store/melpa/working/helm-emms/
Checking out origin/HEAD
Checking out 43d387504a292b36e4e4246abdc9090c1717a561
Built helm-emms in 5.509s, finished at 2021-09-10T00:55:17+0000
 ✓ Success:
 20K -rw-r--r-- 1 root root  19K Sep 10 00:55 packages/helm-emms-20201205.1635.el
4.0K -rw-r--r-- 1 root root  481 Sep 10 00:55 packages/helm-emms-20201205.1635.entry
4.0K -rw-r--r-- 1 root root 1.2K Sep 10 00:55 packages/helm-emms-badge.svg
4.0K -rw-r--r-- 1 root root  358 Sep 10 00:55 packages/helm-emms-readme.txt
