Package: helm-describe-modes
Fetcher: github
Source:  https://github.com/emacs-helm/helm-describe-modes.git

Updating /mnt/store/melpa/working/helm-describe-modes/
Checking out origin/HEAD
Checking out 11fb36af119b784539d31c6160002de1957408aa
Built helm-describe-modes in 5.180s, finished at 2021-09-10T00:55:10+0000
 ✓ Success:
8.0K -rw-r--r-- 1 root root 6.7K Sep 10 00:55 packages/helm-describe-modes-20160212.518.el
4.0K -rw-r--r-- 1 root root  507 Sep 10 00:55 packages/helm-describe-modes-20160212.518.entry
4.0K -rw-r--r-- 1 root root 1.2K Sep 10 00:55 packages/helm-describe-modes-badge.svg
4.0K -rw-r--r-- 1 root root  317 Sep 10 00:55 packages/helm-describe-modes-readme.txt
