Package: helm-lsp
Fetcher: github
Source:  https://github.com/emacs-lsp/helm-lsp.git

Updating /mnt/store/melpa/working/helm-lsp/
Checking out origin/HEAD
Checking out c2c6974dadfac459b1a69a1217441283874cea92
Built helm-lsp in 6.532s, finished at 2021-09-10T00:56:40+0000
 ✓ Success:
 16K -rwxr-xr-x 1 root root  14K Sep 10 00:56 packages/helm-lsp-20210419.2014.el
4.0K -rw-r--r-- 1 root root  447 Sep 10 00:56 packages/helm-lsp-20210419.2014.entry
4.0K -rw-r--r-- 1 root root 1.2K Sep 10 00:56 packages/helm-lsp-badge.svg
4.0K -rw-r--r-- 1 root root   25 Sep 10 00:56 packages/helm-lsp-readme.txt
