Package: hemisu-theme
Fetcher: github
Source:  https://github.com/andrzejsliwa/hemisu-theme.git

Updating /mnt/store/melpa/working/hemisu-theme/
Checking out origin/HEAD
Checking out 5c206561aa2c844ecdf3e3b672c3235e559ddd7f
Copying files (->) and directories (=>)
  from /mnt/store/melpa/working/hemisu-theme/
  to /tmp/hemisu-themeCSOBRe/hemisu-theme-20130508.1844
    hemisu-dark-theme.el -> hemisu-dark-theme.el
    hemisu-light-theme.el -> hemisu-light-theme.el
    hemisu-theme.el -> hemisu-theme.el
Created hemisu-theme-20130508.1844.tar containing:
  hemisu-theme-20130508.1844/
  hemisu-theme-20130508.1844/hemisu-dark-theme.el
  hemisu-theme-20130508.1844/hemisu-light-theme.el
  hemisu-theme-20130508.1844/hemisu-theme-pkg.el
  hemisu-theme-20130508.1844/hemisu-theme.el
Built hemisu-theme in 5.129s, finished at 2021-09-10T00:58:02+0000
 ✓ Success:
4.0K -rw-r--r-- 1 root root  261 Sep 10 00:58 packages/hemisu-theme-20130508.1844.entry
 20K -rw-r--r-- 1 root root  20K Sep 10 00:58 packages/hemisu-theme-20130508.1844.tar
4.0K -rw-r--r-- 1 root root 1.2K Sep 10 00:58 packages/hemisu-theme-badge.svg
4.0K -rw-r--r-- 1 root root  375 Sep 10 00:58 packages/hemisu-theme-readme.txt
