Package: home-end
Fetcher: github
Source:  https://github.com/Boruch-Baum/emacs-home-end.git

Updating /mnt/store/melpa/working/home-end/
Checking out origin/HEAD
Checking out fbddad2c1268720ce17662a232b48f666e489526
Built home-end in 6.087s, finished at 2021-09-10T00:59:04+0000
 ✓ Success:
8.0K -rw-r--r-- 1 root root 6.8K Sep 10 00:59 packages/home-end-20180817.855.el
4.0K -rw-r--r-- 1 root root  451 Sep 10 00:59 packages/home-end-20180817.855.entry
4.0K -rw-r--r-- 1 root root 1.2K Sep 10 00:59 packages/home-end-badge.svg
4.0K -rw-r--r-- 1 root root  913 Sep 10 00:59 packages/home-end-readme.txt
