Package: html-script-src
Fetcher: github
Source:  https://github.com/rejeep/html-script-src.el.git

Updating /mnt/store/melpa/working/html-script-src/
Checking out origin/HEAD
Checking out 66460f8ab1b24656e6f3ce5bd50cff6a81be8422
Built html-script-src in 5.133s, finished at 2021-09-10T00:59:20+0000
 ✓ Success:
8.0K -rw-r--r-- 1 root root 4.6K Sep 10 00:59 packages/html-script-src-20120403.1815.el
4.0K -rw-r--r-- 1 root root  408 Sep 10 00:59 packages/html-script-src-20120403.1815.entry
4.0K -rw-r--r-- 1 root root 1.2K Sep 10 00:59 packages/html-script-src-badge.svg
4.0K -rw-r--r-- 1 root root  368 Sep 10 00:59 packages/html-script-src-readme.txt
