Package: humanoid-themes
Fetcher: github
Source:  https://github.com/humanoid-colors/emacs-humanoid-themes.git

Updating /mnt/store/melpa/working/humanoid-themes/
Checking out origin/HEAD
Checking out 3a157bab0493fe0654de0324ec59eef9b3d15202
Copying files (->) and directories (=>)
  from /mnt/store/melpa/working/humanoid-themes/
  to /tmp/humanoid-themesIKpHVU/humanoid-themes-20210819.811
    humanoid-dark-theme.el -> humanoid-dark-theme.el
    humanoid-light-theme.el -> humanoid-light-theme.el
    humanoid-themes.el -> humanoid-themes.el
Created humanoid-themes-20210819.811.tar containing:
  humanoid-themes-20210819.811/
  humanoid-themes-20210819.811/humanoid-dark-theme.el
  humanoid-themes-20210819.811/humanoid-light-theme.el
  humanoid-themes-20210819.811/humanoid-themes-pkg.el
  humanoid-themes-20210819.811/humanoid-themes.el
Built humanoid-themes in 5.147s, finished at 2021-09-10T00:59:34+0000
 ✓ Success:
4.0K -rw-r--r-- 1 root root  370 Sep 10 00:59 packages/humanoid-themes-20210819.811.entry
112K -rw-r--r-- 1 root root 110K Sep 10 00:59 packages/humanoid-themes-20210819.811.tar
4.0K -rw-r--r-- 1 root root 1.2K Sep 10 00:59 packages/humanoid-themes-badge.svg
4.0K -rw-r--r-- 1 root root  106 Sep 10 00:59 packages/humanoid-themes-readme.txt
