Package: hyai
Fetcher: github
Source:  https://github.com/iquiw/hyai.git

Updating /mnt/store/melpa/working/hyai/
Checking out origin/HEAD
Checking out 9efad2ac6a57059b3be624588f649e276a96fdd4
Built hyai in 5.269s, finished at 2021-09-10T00:59:36+0000
 ✓ Success:
 28K -rw-r--r-- 1 root root  25K Sep 10 00:59 packages/hyai-20170301.1447.el
4.0K -rw-r--r-- 1 root root  332 Sep 10 00:59 packages/hyai-20170301.1447.entry
4.0K -rw-r--r-- 1 root root 1.2K Sep 10 00:59 packages/hyai-badge.svg
4.0K -rw-r--r-- 1 root root  169 Sep 10 00:59 packages/hyai-readme.txt
