Package: icsql
Fetcher: github
Source:  https://github.com/plandes/icsql.git

Updating /mnt/store/melpa/working/icsql/
Checking out origin/HEAD
Checking out 4521e9d2debef7687bfd26a664479f0c46688a36
Built icsql in 6.322s, finished at 2021-09-10T01:00:00+0000
 ✓ Success:
 16K -rw-r--r-- 1 root root  16K Sep 10 00:59 packages/icsql-20210612.1340.el
4.0K -rw-r--r-- 1 root root  365 Sep 10 01:00 packages/icsql-20210612.1340.entry
4.0K -rw-r--r-- 1 root root 1.2K Sep 10 01:00 packages/icsql-badge.svg
4.0K -rw-r--r-- 1 root root   89 Sep 10 01:00 packages/icsql-readme.txt
