Package: import-popwin
Fetcher: github
Source:  https://github.com/emacsorphanage/import-popwin.git

Updating /mnt/store/melpa/working/import-popwin/
Checking out origin/HEAD
Checking out bb05a9e226f8c63fe7b18a3e92010357049ab5ba
Built import-popwin in 5.419s, finished at 2021-09-10T01:00:56+0000
 ✓ Success:
8.0K -rw-r--r-- 1 root root 5.7K Sep 10 01:00 packages/import-popwin-20170218.1407.el
4.0K -rw-r--r-- 1 root root  384 Sep 10 01:00 packages/import-popwin-20170218.1407.entry
4.0K -rw-r--r-- 1 root root 1.2K Sep 10 01:00 packages/import-popwin-badge.svg
4.0K -rw-r--r-- 1 root root  217 Sep 10 01:00 packages/import-popwin-readme.txt
