Package: itasca
Fetcher: github
Source:  https://github.com/jkfurtney/itasca-emacs.git

Updating /mnt/store/melpa/working/itasca/
Checking out origin/HEAD
Checking out 3d15dd1b70d6db69b0f4758a3e28b8b506cc84ca
Copying files (->) and directories (=>)
  from /mnt/store/melpa/working/itasca/
  to /tmp/itascabrolXN/itasca-20170601.1622
    itasca.el -> itasca.el
    ac-dict => ac-dict
    snippets => snippets
Created itasca-20170601.1622.tar containing:
  itasca-20170601.1622/
  itasca-20170601.1622/ac-dict/
  itasca-20170601.1622/ac-dict/itasca-3dec-mode
  itasca-20170601.1622/ac-dict/itasca-flac3d-mode
  itasca-20170601.1622/ac-dict/itasca-general-mode
  itasca-20170601.1622/ac-dict/itasca-pfc-mode
  itasca-20170601.1622/ac-dict/itasca-pfc5-mode
  itasca-20170601.1622/ac-dict/itasca-udec-mode
  itasca-20170601.1622/itasca-pkg.el
  itasca-20170601.1622/itasca.el
  itasca-20170601.1622/snippets/
  itasca-20170601.1622/snippets/itasca-3dec-mode/
  itasca-20170601.1622/snippets/itasca-3dec-mode/.yas-parents
  itasca-20170601.1622/snippets/itasca-flac-mode/
  itasca-20170601.1622/snippets/itasca-flac-mode/.yas-parents
  itasca-20170601.1622/snippets/itasca-flac3d-mode/
  itasca-20170601.1622/snippets/itasca-flac3d-mode/.yas-parents
  itasca-20170601.1622/snippets/itasca-flac3d-mode/ploop
  itasca-20170601.1622/snippets/itasca-general-mode/
  itasca-20170601.1622/snippets/itasca-general-mode/acoff
  itasca-20170601.1622/snippets/itasca-general-mode/cloop
  itasca-20170601.1622/snippets/itasca-general-mode/com
  itasca-20170601.1622/snippets/itasca-general-mode/def
  itasca-20170601.1622/snippets/itasca-general-mode/fileio
  itasca-20170601.1622/snippets/itasca-general-mode/idef
  itasca-20170601.1622/snippets/itasca-general-mode/if
  itasca-20170601.1622/snippets/itasca-general-mode/ife
  itasca-20170601.1622/snippets/itasca-general-mode/ploop
  itasca-20170601.1622/snippets/itasca-pfc-mode/
  itasca-20170601.1622/snippets/itasca-pfc-mode/.yas-parents
  itasca-20170601.1622/snippets/itasca-pfc5-mode/
  itasca-20170601.1622/snippets/itasca-pfc5-mode/.yas-parents
  itasca-20170601.1622/snippets/itasca-udec-mode/
  itasca-20170601.1622/snippets/itasca-udec-mode/.yas-parents
Built itasca in 5.139s, finished at 2021-09-10T01:02:30+0000
 ✓ Success:
4.0K -rw-r--r-- 1 root root  420 Sep 10 01:02 packages/itasca-20170601.1622.entry
132K -rw-r--r-- 1 root root 130K Sep 10 01:02 packages/itasca-20170601.1622.tar
4.0K -rw-r--r-- 1 root root 1.2K Sep 10 01:02 packages/itasca-badge.svg
4.0K -rw-r--r-- 1 root root 1.5K Sep 10 01:02 packages/itasca-readme.txt
