Package: jade-mode
Fetcher: github
Source:  https://github.com/brianc/jade-mode.git

Updating /mnt/store/melpa/working/jade-mode/
Checking out origin/HEAD
Checking out 111460b056838854e470a6383041a99f843b93ee
Built jade-mode in 6.042s, finished at 2021-09-10T01:03:17+0000
 ✓ Success:
 16K -rw-r--r-- 1 root root  15K Sep 10 01:03 packages/jade-mode-20210908.2121.el
4.0K -rw-r--r-- 1 root root  364 Sep 10 01:03 packages/jade-mode-20210908.2121.entry
4.0K -rw-r--r-- 1 root root 1.2K Sep 10 01:03 packages/jade-mode-badge.svg
4.0K -rw-r--r-- 1 root root   70 Sep 10 01:03 packages/jade-mode-readme.txt
