Package: just-mode
Fetcher: github
Source:  https://github.com/leon-barrett/just-mode.el.git

Updating /mnt/store/melpa/working/just-mode/
Checking out origin/HEAD
Checking out 8cf9e686c8c7bb725c724b5220a4a3ed17d005d0
Built just-mode in 5.750s, finished at 2021-09-10T01:04:42+0000
 ✓ Success:
8.0K -rw-r--r-- 1 root root 6.3K Sep 10 01:04 packages/just-mode-20210818.1526.el
4.0K -rw-r--r-- 1 root root  399 Sep 10 01:04 packages/just-mode-20210818.1526.entry
4.0K -rw-r--r-- 1 root root 1.2K Sep 10 01:04 packages/just-mode-badge.svg
4.0K -rw-r--r-- 1 root root   97 Sep 10 01:04 packages/just-mode-readme.txt
