Package: ksp-cfg-mode
Fetcher: github
Source:  https://github.com/lashtear/ksp-cfg-mode.git

Updating /mnt/store/melpa/working/ksp-cfg-mode/
Checking out origin/HEAD
Checking out faec8bd8456c67276d065eb68c88a30efcef59ef
Built ksp-cfg-mode in 4.920s, finished at 2021-09-10T01:05:53+0000
 ✓ Success:
 28K -rw-r--r-- 1 root root  25K Sep 10 01:05 packages/ksp-cfg-mode-20190414.2348.el
4.0K -rw-r--r-- 1 root root  387 Sep 10 01:05 packages/ksp-cfg-mode-20190414.2348.entry
4.0K -rw-r--r-- 1 root root 1.2K Sep 10 01:05 packages/ksp-cfg-mode-badge.svg
4.0K -rw-r--r-- 1 root root  123 Sep 10 01:05 packages/ksp-cfg-mode-readme.txt
