Package: lavenderless-theme
Fetcher: git
Source:  https://git.sr.ht/~lthms/colorless-themes.el

Updating /mnt/store/melpa/working/lavenderless-theme/
Checking out origin/HEAD
Checking out c1ed1e12541cf05cc6c558d23c089c07e10b54d7
Built lavenderless-theme in 4.968s, finished at 2021-09-10T01:06:33+0000
 ✓ Success:
4.0K -rw-r--r-- 1 root root 2.1K Sep 10 01:06 packages/lavenderless-theme-20201222.1627.el
4.0K -rw-r--r-- 1 root root  441 Sep 10 01:06 packages/lavenderless-theme-20201222.1627.entry
4.0K -rw-r--r-- 1 root root 1.2K Sep 10 01:06 packages/lavenderless-theme-badge.svg
4.0K -rw-r--r-- 1 root root   92 Sep 10 01:06 packages/lavenderless-theme-readme.txt
