Package: leaf-tree
Fetcher: github
Source:  https://github.com/conao3/leaf-tree.el.git

Updating /mnt/store/melpa/working/leaf-tree/
Checking out origin/HEAD
Checking out 8126baf45c881fd4a692c2d74f9cc2eb15170401
Built leaf-tree in 5.444s, finished at 2021-09-10T01:06:41+0000
 ✓ Success:
 12K -rw-r--r-- 1 root root  11K Sep 10 01:06 packages/leaf-tree-20210503.531.el
4.0K -rw-r--r-- 1 root root  443 Sep 10 01:06 packages/leaf-tree-20210503.531.entry
4.0K -rw-r--r-- 1 root root 1.2K Sep 10 01:06 packages/leaf-tree-badge.svg
4.0K -rw-r--r-- 1 root root  112 Sep 10 01:06 packages/leaf-tree-readme.txt
