Package: lf
Fetcher: github
Source:  https://github.com/alhassy/lf.git

Updating /mnt/store/melpa/working/lf/
Checking out origin/HEAD
Checking out 35db92ca765a0544721fdeea036d77b7d192d083
Built lf in 5.542s, finished at 2021-09-10T01:07:01+0000
 ✓ Success:
 20K -rw-r--r-- 1 root root  19K Sep 10 01:07 packages/lf-20210808.1921.el
4.0K -rw-r--r-- 1 root root  450 Sep 10 01:07 packages/lf-20210808.1921.entry
4.0K -rw-r--r-- 1 root root 1.2K Sep 10 01:07 packages/lf-badge.svg
4.0K -rw-r--r-- 1 root root  884 Sep 10 01:07 packages/lf-readme.txt
