Package: magit-gerrit
Fetcher: github
Source:  https://github.com/emacsorphanage/magit-gerrit.git

Updating /mnt/store/melpa/working/magit-gerrit/
Checking out origin/HEAD
Checking out 9104713f6ea918e9faaf25f2cc182c65029db936
Built magit-gerrit in 5.515s, finished at 2021-09-10T01:09:56+0000
 ✓ Success:
 24K -rw-r--r-- 1 root root  21K Sep 10 01:09 packages/magit-gerrit-20210831.1453.el
4.0K -rw-r--r-- 1 root root  413 Sep 10 01:09 packages/magit-gerrit-20210831.1453.entry
4.0K -rw-r--r-- 1 root root 1.2K Sep 10 01:09 packages/magit-gerrit-badge.svg
4.0K -rw-r--r-- 1 root root  353 Sep 10 01:09 packages/magit-gerrit-readme.txt
