Package: magit-patch-changelog
Fetcher: github
Source:  https://github.com/dickmao/magit-patch-changelog.git

Updating /mnt/store/melpa/working/magit-patch-changelog/
Checking out origin/HEAD
Checking out 623d1a6a3bfa0f01bcaaffa13ad5ce5ae29cdb0a
Built magit-patch-changelog in 5.198s, finished at 2021-09-10T01:10:08+0000
 ✓ Success:
 32K -rw-r--r-- 1 root root  29K Sep 10 01:10 packages/magit-patch-changelog-20210616.1302.el
4.0K -rw-r--r-- 1 root root  329 Sep 10 01:10 packages/magit-patch-changelog-20210616.1302.entry
4.0K -rw-r--r-- 1 root root 1.2K Sep 10 01:10 packages/magit-patch-changelog-badge.svg
4.0K -rw-r--r-- 1 root root   55 Sep 10 01:10 packages/magit-patch-changelog-readme.txt
