Package: magic-filetype
Fetcher: github
Source:  https://github.com/emacs-php/magic-filetype.el.git

Updating /mnt/store/melpa/working/magic-filetype/
Checking out origin/HEAD
Checking out 019494add5ff02dd36cb3f500142fc51125522cc
Built magic-filetype in 5.748s, finished at 2021-09-10T01:09:46+0000
 ✓ Success:
 12K -rw-r--r-- 1 root root 9.1K Sep 10 01:09 packages/magic-filetype-20180219.1552.el
4.0K -rw-r--r-- 1 root root  409 Sep 10 01:09 packages/magic-filetype-20180219.1552.entry
4.0K -rw-r--r-- 1 root root 1.2K Sep 10 01:09 packages/magic-filetype-badge.svg
4.0K -rw-r--r-- 1 root root  380 Sep 10 01:09 packages/magic-filetype-readme.txt
