Package: md4rd
Fetcher: github
Source:  https://github.com/ahungry/md4rd.git

Updating /mnt/store/melpa/working/md4rd/
Checking out origin/HEAD
Checking out 8ed075874425c4aa1081608dd66f46e5dfa333c0
Built md4rd in 5.814s, finished at 2021-09-10T01:11:24+0000
 ✓ Success:
 32K -rw-r--r-- 1 root root  32K Sep 10 01:11 packages/md4rd-20201203.545.el
4.0K -rw-r--r-- 1 root root  485 Sep 10 01:11 packages/md4rd-20201203.545.entry
4.0K -rw-r--r-- 1 root root 1.2K Sep 10 01:11 packages/md4rd-badge.svg
4.0K -rw-r--r-- 1 root root  104 Sep 10 01:11 packages/md4rd-readme.txt
