Package: moe-theme
Fetcher: github
Source:  https://github.com/kuanyui/moe-theme.el.git

Updating /mnt/store/melpa/working/moe-theme/
Checking out origin/HEAD
Checking out b23975ba57a68f69551424552f484227db8a7b97
Copying files (->) and directories (=>)
  from /mnt/store/melpa/working/moe-theme/
  to /tmp/moe-themeHk4Rzc/moe-theme-20210308.1053
    moe-dark-theme.el -> moe-dark-theme.el
    moe-light-theme.el -> moe-light-theme.el
    moe-theme-flavours.el -> moe-theme-flavours.el
    moe-theme-pkg.el -> moe-theme-pkg.el
    moe-theme-switcher.el -> moe-theme-switcher.el
    moe-theme.el -> moe-theme.el
Created moe-theme-20210308.1053.tar containing:
  moe-theme-20210308.1053/
  moe-theme-20210308.1053/moe-dark-theme.el
  moe-theme-20210308.1053/moe-light-theme.el
  moe-theme-20210308.1053/moe-theme-flavours.el
  moe-theme-20210308.1053/moe-theme-pkg.el
  moe-theme-20210308.1053/moe-theme-switcher.el
  moe-theme-20210308.1053/moe-theme.el
Built moe-theme in 5.260s, finished at 2021-09-10T01:12:58+0000
 ✓ Success:
4.0K -rw-r--r-- 1 root root  357 Sep 10 01:12 packages/moe-theme-20210308.1053.entry
172K -rw-r--r-- 1 root root 170K Sep 10 01:12 packages/moe-theme-20210308.1053.tar
4.0K -rw-r--r-- 1 root root 1.2K Sep 10 01:12 packages/moe-theme-badge.svg
4.0K -rw-r--r-- 1 root root  113 Sep 10 01:12 packages/moe-theme-readme.txt
