Package: navorski
Fetcher: github
Source:  https://github.com/roman/navorski.el.git

Updating /mnt/store/melpa/working/navorski/
Checking out origin/HEAD
Checking out 698c1c62da70164aebe9a7a5d034778fbc30ea5b
Built navorski in 5.578s, finished at 2021-09-10T01:15:33+0000
 ✓ Success:
 28K -rw-r--r-- 1 root root  26K Sep 10 01:15 packages/navorski-20141203.1824.el
4.0K -rw-r--r-- 1 root root  435 Sep 10 01:15 packages/navorski-20141203.1824.entry
4.0K -rw-r--r-- 1 root root 1.2K Sep 10 01:15 packages/navorski-badge.svg
