Package: naysayer-theme
Fetcher: github
Source:  https://github.com/nickav/naysayer-theme.el.git

Updating /mnt/store/melpa/working/naysayer-theme/
Checking out origin/HEAD
Checking out 9d0bef898f31368cd30e063d53d443dee29683b0
Built naysayer-theme in 5.574s, finished at 2021-09-10T01:15:35+0000
 ✓ Success:
8.0K -rw-r--r-- 1 root root 7.4K Sep 10 01:15 packages/naysayer-theme-20200405.123.el
4.0K -rw-r--r-- 1 root root  361 Sep 10 01:15 packages/naysayer-theme-20200405.123.entry
4.0K -rw-r--r-- 1 root root 1.2K Sep 10 01:15 packages/naysayer-theme-badge.svg
4.0K -rw-r--r-- 1 root root   96 Sep 10 01:15 packages/naysayer-theme-readme.txt
