Package: nclip
Fetcher: github
Source:  https://github.com/maio/nclip.el.git

Updating /mnt/store/melpa/working/nclip/
Checking out origin/HEAD
Checking out af88e38b1f04be02bf2e57affc662dbd0f828e67
Copying files (->) and directories (=>)
  from /mnt/store/melpa/working/nclip/
  to /tmp/nclipqWpgxg/nclip-20130617.2015
    nclip.el -> nclip.el
    nclip.rb -> nclip.rb
    nclip.py -> nclip.py
Created nclip-20130617.2015.tar containing:
  nclip-20130617.2015/
  nclip-20130617.2015/nclip-pkg.el
  nclip-20130617.2015/nclip.el
  nclip-20130617.2015/nclip.py
  nclip-20130617.2015/nclip.rb
Built nclip in 5.184s, finished at 2021-09-10T01:15:35+0000
 ✓ Success:
4.0K -rw-r--r-- 1 root root  352 Sep 10 01:15 packages/nclip-20130617.2015.entry
 12K -rw-r--r-- 1 root root  10K Sep 10 01:15 packages/nclip-20130617.2015.tar
4.0K -rw-r--r-- 1 root root 1.2K Sep 10 01:15 packages/nclip-badge.svg
4.0K -rw-r--r-- 1 root root  470 Sep 10 01:15 packages/nclip-readme.txt
