Package: network-watch
Fetcher: github
Source:  https://github.com/jamiguet/network-watch.git

Updating /mnt/store/melpa/working/network-watch/
Checking out origin/HEAD
Checking out 958dd0d419e4f9402648a86b754091ba346e01b8
Built network-watch in 5.693s, finished at 2021-09-10T01:15:49+0000
 ✓ Success:
8.0K -rw-r--r-- 1 root root 4.6K Sep 10 01:15 packages/network-watch-20171123.1146.el
4.0K -rw-r--r-- 1 root root  416 Sep 10 01:15 packages/network-watch-20171123.1146.entry
4.0K -rw-r--r-- 1 root root 1.2K Sep 10 01:15 packages/network-watch-badge.svg
4.0K -rw-r--r-- 1 root root 1.1K Sep 10 01:15 packages/network-watch-readme.txt
