Package: never-comment
Fetcher: github
Source:  https://github.com/To1ne/never-comment.git

Updating /mnt/store/melpa/working/never-comment/
Checking out origin/HEAD
Checking out 74ded8f1e7f23240f5f6032d0451fb0a51733bc4
Built never-comment in 5.626s, finished at 2021-09-10T01:15:50+0000
 ✓ Success:
4.0K -rw-r--r-- 1 root root 3.2K Sep 10 01:15 packages/never-comment-20140104.2207.el
4.0K -rw-r--r-- 1 root root  263 Sep 10 01:15 packages/never-comment-20140104.2207.entry
4.0K -rw-r--r-- 1 root root 1.2K Sep 10 01:15 packages/never-comment-badge.svg
4.0K -rw-r--r-- 1 root root  198 Sep 10 01:15 packages/never-comment-readme.txt
