Package: ob-coffeescript
Fetcher: github
Source:  https://github.com/brantou/ob-coffeescript.git

Updating /mnt/store/melpa/working/ob-coffeescript/
Checking out origin/HEAD
Checking out 5a5bb04aea9c2a6eab5b05f90f5c7cb6de7b4261
Built ob-coffeescript in 5.234s, finished at 2021-09-10T01:17:22+0000
 ✓ Success:
 16K -rw-r--r-- 1 root root  13K Sep 10 01:17 packages/ob-coffeescript-20180126.719.el
4.0K -rw-r--r-- 1 root root  467 Sep 10 01:17 packages/ob-coffeescript-20180126.719.entry
4.0K -rw-r--r-- 1 root root 1.2K Sep 10 01:17 packages/ob-coffeescript-badge.svg
4.0K -rw-r--r-- 1 root root  708 Sep 10 01:17 packages/ob-coffeescript-readme.txt
