Package: org-roam-server
Fetcher: github
Source:  https://github.com/org-roam/org-roam-server.git

Updating /mnt/store/melpa/working/org-roam-server/
Checking out origin/HEAD
Checking out a207ecd36e29dad55eb66431f041e39144130ee5
Copying files (->) and directories (=>)
  from /mnt/store/melpa/working/org-roam-server/
  to /tmp/org-roam-serverNrUUji/org-roam-server-20210723.1424
    org-roam-server.el -> org-roam-server.el
    index.html -> index.html
    assets => assets
Created org-roam-server-20210723.1424.tar containing:
  org-roam-server-20210723.1424/
  org-roam-server-20210723.1424/assets/
  org-roam-server-20210723.1424/assets/bootstrap-toggle.min.css
  org-roam-server-20210723.1424/assets/bootstrap-toggle.min.js
  org-roam-server-20210723.1424/assets/bootstrap.min.css
  org-roam-server-20210723.1424/assets/bootstrap.min.js
  org-roam-server-20210723.1424/assets/jquery-3.5.0.min.js
  org-roam-server-20210723.1424/assets/org.css
  org-roam-server-20210723.1424/assets/select2.min.css
  org-roam-server-20210723.1424/assets/select2.min.js
  org-roam-server-20210723.1424/assets/vis-network.min.js
  org-roam-server-20210723.1424/index.html
  org-roam-server-20210723.1424/org-roam-server-pkg.el
  org-roam-server-20210723.1424/org-roam-server.el
Built org-roam-server in 3.780s, finished at 2021-08-23T11:40:57+0000
 ✓ Success:
4.0K -rw-r--r-- 1 root root  531 Aug 23 11:40 packages/org-roam-server-20210723.1424.entry
1.3M -rw-r--r-- 1 root root 1.3M Aug 23 11:40 packages/org-roam-server-20210723.1424.tar
4.0K -rw-r--r-- 1 root root 1.2K Aug 23 11:40 packages/org-roam-server-badge.svg
4.0K -rw-r--r-- 1 root root  166 Aug 23 11:40 packages/org-roam-server-readme.txt
