Package: org-re-reveal-ref
Fetcher: gitlab
Source:  https://gitlab.com/oer/org-re-reveal-ref.git

Updating /mnt/store/melpa/working/org-re-reveal-ref/
Checking out origin/HEAD
Checking out 2379e224d6acfdba3ee6f0de72805cdfa6b8e0f8
Copying files (->) and directories (=>)
  from /mnt/store/melpa/working/org-re-reveal-ref/
  to /tmp/org-re-reveal-refxKAA0o/org-re-reveal-ref-20210104.1650
    org-re-reveal-ref.el -> org-re-reveal-ref.el
    LICENSES => LICENSES
    README.org -> README.org
    references.bib -> references.bib
Created org-re-reveal-ref-20210104.1650.tar containing:
  org-re-reveal-ref-20210104.1650/
  org-re-reveal-ref-20210104.1650/LICENSES/
  org-re-reveal-ref-20210104.1650/LICENSES/GPL-3.0-or-later.txt
  org-re-reveal-ref-20210104.1650/README.org
  org-re-reveal-ref-20210104.1650/org-re-reveal-ref-pkg.el
  org-re-reveal-ref-20210104.1650/org-re-reveal-ref.el
  org-re-reveal-ref-20210104.1650/references.bib
Built org-re-reveal-ref in 6.035s, finished at 2021-09-10T01:20:58+0000
 ✓ Success:
4.0K -rw-r--r-- 1 root root  502 Sep 10 01:20 packages/org-re-reveal-ref-20210104.1650.entry
 60K -rw-r--r-- 1 root root  60K Sep 10 01:20 packages/org-re-reveal-ref-20210104.1650.tar
4.0K -rw-r--r-- 1 root root 1.2K Sep 10 01:20 packages/org-re-reveal-ref-badge.svg
4.0K -rw-r--r-- 1 root root 2.0K Sep 10 01:20 packages/org-re-reveal-ref-readme.txt
