Package: org-dashboard
Fetcher: github
Source:  https://github.com/bard/org-dashboard.git

Updating /mnt/store/melpa/working/org-dashboard/
Checking out origin/HEAD
Checking out 02c0699771d199075a286e4502340ca6e7c9e831
Built org-dashboard in 5.384s, finished at 2021-09-10T01:19:51+0000
 ✓ Success:
 12K -rw-r--r-- 1 root root 9.5K Sep 10 01:19 packages/org-dashboard-20171223.1924.el
4.0K -rw-r--r-- 1 root root  397 Sep 10 01:19 packages/org-dashboard-20171223.1924.entry
4.0K -rw-r--r-- 1 root root 1.2K Sep 10 01:19 packages/org-dashboard-badge.svg
4.0K -rw-r--r-- 1 root root 2.7K Sep 10 01:19 packages/org-dashboard-readme.txt
