Package: ox-twiki
Fetcher: github
Source:  https://github.com/dfeich/org8-wikiexporters.git

Updating /mnt/store/melpa/working/ox-twiki/
Checking out origin/HEAD
Checking out 3377d8732aa916e736ce5822c7a9a4fbdc894e37
Built ox-twiki in 6.479s, finished at 2021-09-10T01:23:27+0000
 ✓ Success:
 12K -rw-r--r-- 1 root root  12K Sep 10 01:23 packages/ox-twiki-20200927.857.el
4.0K -rw-r--r-- 1 root root  409 Sep 10 01:23 packages/ox-twiki-20200927.857.entry
4.0K -rw-r--r-- 1 root root 1.2K Sep 10 01:23 packages/ox-twiki-badge.svg
4.0K -rw-r--r-- 1 root root  501 Sep 10 01:23 packages/ox-twiki-readme.txt
