Package: pangu-spacing
Fetcher: github
Source:  https://github.com/coldnew/pangu-spacing.git

Updating /mnt/store/melpa/working/pangu-spacing/
Checking out origin/HEAD
Checking out f92898949ba3bf991fd229416f3bbb54e9c6c223
Built pangu-spacing in 6.205s, finished at 2021-09-10T01:23:57+0000
 ✓ Success:
 16K -rw-r--r-- 1 root root  14K Sep 10 01:23 packages/pangu-spacing-20190823.401.el
4.0K -rw-r--r-- 1 root root  342 Sep 10 01:23 packages/pangu-spacing-20190823.401.entry
4.0K -rw-r--r-- 1 root root 1.2K Sep 10 01:23 packages/pangu-spacing-badge.svg
4.0K -rw-r--r-- 1 root root  213 Sep 10 01:23 packages/pangu-spacing-readme.txt
