Package: phabricator
Fetcher: github
Source:  https://github.com/ajtulloch/phabricator.el.git

Updating /mnt/store/melpa/working/phabricator/
Checking out origin/HEAD
Checking out d09d6f059aea92d3b11c68664a5e80c901182ab8
Built phabricator in 5.222s, finished at 2021-09-10T01:25:37+0000
 ✓ Success:
8.0K -rw-r--r-- 1 root root 7.1K Sep 10 01:25 packages/phabricator-20160510.1425.el
4.0K -rw-r--r-- 1 root root  486 Sep 10 01:25 packages/phabricator-20160510.1425.entry
4.0K -rw-r--r-- 1 root root 1.2K Sep 10 01:25 packages/phabricator-badge.svg
4.0K -rw-r--r-- 1 root root   45 Sep 10 01:25 packages/phabricator-readme.txt
