Package: phpstan
Fetcher: github
Source:  https://github.com/emacs-php/phpstan.el.git

Updating /mnt/store/melpa/working/phpstan/
Checking out origin/HEAD
Checking out 0869b152f82a76138daa53e953285936b9d558bd
Built phpstan in 5.808s, finished at 2021-09-10T01:25:57+0000
 ✓ Success:
 16K -rw-r--r-- 1 root root  13K Sep 10 01:25 packages/phpstan-20210714.1805.el
4.0K -rw-r--r-- 1 root root  370 Sep 10 01:25 packages/phpstan-20210714.1805.entry
4.0K -rw-r--r-- 1 root root 1.2K Sep 10 01:25 packages/phpstan-badge.svg
4.0K -rw-r--r-- 1 root root 1013 Sep 10 01:25 packages/phpstan-readme.txt
