Package: poet-client
Fetcher: github
Source:  https://github.com/wailo/emacs-poet.git

Updating /mnt/store/melpa/working/poet-client/
Checking out origin/HEAD
Checking out 32382057b3e4b8a02ec5ac3190dbe4b93d058741
Built poet-client in 5.215s, finished at 2021-09-10T01:26:52+0000
 ✓ Success:
 16K -rw-r--r-- 1 root root  13K Sep 10 01:26 packages/poet-client-20190124.654.el
4.0K -rw-r--r-- 1 root root  322 Sep 10 01:26 packages/poet-client-20190124.654.entry
4.0K -rw-r--r-- 1 root root 1.2K Sep 10 01:26 packages/poet-client-badge.svg
4.0K -rw-r--r-- 1 root root  190 Sep 10 01:26 packages/poet-client-readme.txt
