Package: polymode
Fetcher: github
Source:  https://github.com/polymode/polymode.git

Updating /mnt/store/melpa/working/polymode/
Checking out origin/HEAD
Checking out 54888d6c15249503e1a66da7bd7761a9eda9b075
Copying files (->) and directories (=>)
  from /mnt/store/melpa/working/polymode/
  to /tmp/polymode1XLNhh/polymode-20210907.807
    poly-lock.el -> poly-lock.el
    polymode-base.el -> polymode-base.el
    polymode-classes.el -> polymode-classes.el
    polymode-compat.el -> polymode-compat.el
    polymode-core.el -> polymode-core.el
    polymode-debug.el -> polymode-debug.el
    polymode-export.el -> polymode-export.el
    polymode-methods.el -> polymode-methods.el
    polymode-tangle.el -> polymode-tangle.el
    polymode-test-utils.el -> polymode-test-utils.el
    polymode-weave.el -> polymode-weave.el
    polymode.el -> polymode.el
Created polymode-20210907.807.tar containing:
  polymode-20210907.807/
  polymode-20210907.807/poly-lock.el
  polymode-20210907.807/polymode-base.el
  polymode-20210907.807/polymode-classes.el
  polymode-20210907.807/polymode-compat.el
  polymode-20210907.807/polymode-core.el
  polymode-20210907.807/polymode-debug.el
  polymode-20210907.807/polymode-export.el
  polymode-20210907.807/polymode-methods.el
  polymode-20210907.807/polymode-pkg.el
  polymode-20210907.807/polymode-tangle.el
  polymode-20210907.807/polymode-test-utils.el
  polymode-20210907.807/polymode-weave.el
  polymode-20210907.807/polymode.el
Built polymode in 5.261s, finished at 2021-09-10T01:27:11+0000
 ✓ Success:
4.0K -rw-r--r-- 1 root root  358 Sep 10 01:27 packages/polymode-20210907.807.entry
292K -rw-r--r-- 1 root root 290K Sep 10 01:27 packages/polymode-20210907.807.tar
4.0K -rw-r--r-- 1 root root 1.2K Sep 10 01:27 packages/polymode-badge.svg
4.0K -rw-r--r-- 1 root root  117 Sep 10 01:27 packages/polymode-readme.txt
