Package: py-import-check
Fetcher: github
Source:  https://github.com/psibi/emacs-py-import-check.git

Updating /mnt/store/melpa/working/py-import-check/
Checking out origin/HEAD
Checking out 9787f87745a4234cd9bed711860b707902bc8ae4
Built py-import-check in 5.691s, finished at 2021-09-10T01:29:06+0000
 ✓ Success:
4.0K -rw-r--r-- 1 root root 1.6K Sep 10 01:29 packages/py-import-check-20130802.1111.el
4.0K -rw-r--r-- 1 root root  370 Sep 10 01:29 packages/py-import-check-20130802.1111.entry
4.0K -rw-r--r-- 1 root root 1.2K Sep 10 01:29 packages/py-import-check-badge.svg
