Package: rcirc-styles
Fetcher: github
Source:  https://github.com/aaron-em/rcirc-styles.el.git

Updating /mnt/store/melpa/working/rcirc-styles/
Checking out origin/HEAD
Checking out dd06ec5fa455131788bbc885fcfaaec16b08f13b
Built rcirc-styles in 6.960s, finished at 2021-09-10T01:30:29+0000
 ✓ Success:
 24K -rw-r--r-- 1 root root  24K Sep 10 01:30 packages/rcirc-styles-20210414.1712.el
4.0K -rw-r--r-- 1 root root  197 Sep 10 01:30 packages/rcirc-styles-20210414.1712.entry
4.0K -rw-r--r-- 1 root root 1.2K Sep 10 01:30 packages/rcirc-styles-badge.svg
4.0K -rw-r--r-- 1 root root 2.4K Sep 10 01:30 packages/rcirc-styles-readme.txt
