Package: rdf-prefix
Fetcher: github
Source:  https://github.com/simenheg/rdf-prefix.git

Updating /mnt/store/melpa/working/rdf-prefix/
Checking out origin/HEAD
Checking out 825af2c584fbad9e67c2c08e29040776fa647fe0
Built rdf-prefix in 7.364s, finished at 2021-09-10T01:30:30+0000
 ✓ Success:
144K -rw-r--r-- 1 root root 142K Sep 10 01:30 packages/rdf-prefix-20200216.914.el
4.0K -rw-r--r-- 1 root root  375 Sep 10 01:30 packages/rdf-prefix-20200216.914.entry
4.0K -rw-r--r-- 1 root root 1.2K Sep 10 01:30 packages/rdf-prefix-badge.svg
4.0K -rw-r--r-- 1 root root  480 Sep 10 01:30 packages/rdf-prefix-readme.txt
