Package: retrie
Fetcher: github
Source:  https://github.com/Ailrun/emacs-retrie.git

Updating /mnt/store/melpa/working/retrie/
Checking out origin/HEAD
Checking out 976d6f01a3e214917f16b82e750d825cb9bfcc59
Built retrie in 4.822s, finished at 2021-09-10T01:32:10+0000
 ✓ Success:
 12K -rw-r--r-- 1 root root  12K Sep 10 01:32 packages/retrie-20200519.551.el
4.0K -rw-r--r-- 1 root root  380 Sep 10 01:32 packages/retrie-20200519.551.entry
4.0K -rw-r--r-- 1 root root 1.2K Sep 10 01:32 packages/retrie-badge.svg
4.0K -rw-r--r-- 1 root root  806 Sep 10 01:32 packages/retrie-readme.txt
