Package: rib-mode
Fetcher: github
Source:  https://github.com/blezek/rib-mode.git

Updating /mnt/store/melpa/working/rib-mode/
Checking out origin/HEAD
Checking out 97470158784c3c212e22e2c20b8471ee65ba59af
Built rib-mode in 5.773s, finished at 2021-09-10T01:32:20+0000
 ✓ Success:
8.0K -rw-r--r-- 1 root root 7.0K Sep 10 01:32 packages/rib-mode-20170726.1448.el
4.0K -rw-r--r-- 1 root root  407 Sep 10 01:32 packages/rib-mode-20170726.1448.entry
4.0K -rw-r--r-- 1 root root 1.2K Sep 10 01:32 packages/rib-mode-badge.svg
4.0K -rw-r--r-- 1 root root  872 Sep 10 01:32 packages/rib-mode-readme.txt
