Package: speech-tagger
Fetcher: github
Source:  https://github.com/cosmicexplorer/speech-tagger.git

Updating /mnt/store/melpa/working/speech-tagger/
Checking out origin/HEAD
Checking out 61955b40d4e8b09e66a3e8033e82893f81657c06
Copying files (->) and directories (=>)
  from /mnt/store/melpa/working/speech-tagger/
  to /tmp/speech-taggermem3zT/speech-tagger-20170728.1829
  ! emacs/speech-tagger.el -> speech-tagger.el
  ! emacs/penn_treebank_tags.json -> penn_treebank_tags.json
Created speech-tagger-20170728.1829.tar containing:
  speech-tagger-20170728.1829/
  speech-tagger-20170728.1829/penn_treebank_tags.json
  speech-tagger-20170728.1829/speech-tagger-pkg.el
  speech-tagger-20170728.1829/speech-tagger.el
Built speech-tagger in 8.163s, finished at 2021-09-10T01:38:04+0000
 ✓ Success:
4.0K -rw-r--r-- 1 root root  446 Sep 10 01:38 packages/speech-tagger-20170728.1829.entry
 40K -rw-r--r-- 1 root root  40K Sep 10 01:38 packages/speech-tagger-20170728.1829.tar
4.0K -rw-r--r-- 1 root root 1.2K Sep 10 01:38 packages/speech-tagger-badge.svg
4.0K -rw-r--r-- 1 root root  852 Sep 10 01:38 packages/speech-tagger-readme.txt
