Package: srcery-theme
Fetcher: github
Source:  https://github.com/srcery-colors/srcery-emacs.git

Updating /mnt/store/melpa/working/srcery-theme/
Checking out origin/HEAD
Checking out 58dd21cd63e4a2eed15e0082c2547069363f107b
Built srcery-theme in 5.574s, finished at 2021-09-10T01:38:35+0000
 ✓ Success:
140K -rw-r--r-- 1 root root 137K Sep 10 01:38 packages/srcery-theme-20210601.1247.el
4.0K -rw-r--r-- 1 root root  310 Sep 10 01:38 packages/srcery-theme-20210601.1247.entry
4.0K -rw-r--r-- 1 root root 1.2K Sep 10 01:38 packages/srcery-theme-badge.svg
4.0K -rw-r--r-- 1 root root  603 Sep 10 01:38 packages/srcery-theme-readme.txt
