Package: standard-dirs
Fetcher: github
Source:  https://github.com/lafrenierejm/standard-dirs.el.git

Updating /mnt/store/melpa/working/standard-dirs/
Checking out origin/HEAD
Checking out 92460e21f964cb7495d974c42acd0b726af3fbcb
Built standard-dirs in 4.793s, finished at 2021-09-10T01:38:45+0000
 ✓ Success:
 12K -rw-r--r-- 1 root root 8.5K Sep 10 01:38 packages/standard-dirs-20200621.1603.el
4.0K -rw-r--r-- 1 root root  453 Sep 10 01:38 packages/standard-dirs-20200621.1603.entry
4.0K -rw-r--r-- 1 root root 1.2K Sep 10 01:38 packages/standard-dirs-badge.svg
4.0K -rw-r--r-- 1 root root  488 Sep 10 01:38 packages/standard-dirs-readme.txt
