Package: tablist
Fetcher: github
Source:  https://github.com/politza/tablist.git

Updating /mnt/store/melpa/working/tablist/
Checking out origin/HEAD
Checking out faab7a035ef2258cc4ea2182f67e3aedab7e2af9
Copying files (->) and directories (=>)
  from /mnt/store/melpa/working/tablist/
  to /tmp/tablistFbyuza/tablist-20200427.2205
    tablist-filter.el -> tablist-filter.el
    tablist.el -> tablist.el
Created tablist-20200427.2205.tar containing:
  tablist-20200427.2205/
  tablist-20200427.2205/tablist-filter.el
  tablist-20200427.2205/tablist-pkg.el
  tablist-20200427.2205/tablist.el
Built tablist in 4.833s, finished at 2021-09-10T01:40:29+0000
 ✓ Success:
4.0K -rw-r--r-- 1 root root  313 Sep 10 01:40 packages/tablist-20200427.2205.entry
 92K -rw-r--r-- 1 root root  90K Sep 10 01:40 packages/tablist-20200427.2205.tar
4.0K -rw-r--r-- 1 root root 1.2K Sep 10 01:40 packages/tablist-badge.svg
4.0K -rw-r--r-- 1 root root  252 Sep 10 01:40 packages/tablist-readme.txt
