Package: tc
Fetcher: github
Source:  https://github.com/kanchoku/tc.git

Updating /mnt/store/melpa/working/tc/
Checking out origin/HEAD
Checking out 5c6bbb0ff08e5d81e905198156ae5600df7ff7ab
Copying files (->) and directories (=>)
  from /mnt/store/melpa/working/tc/
  to /tmp/tcBGDQOh/tc-20201022.1646
    eelll.el -> eelll.el
    tc-bushu.el -> tc-bushu.el
    tc-complete.el -> tc-complete.el
    tc-help.el -> tc-help.el
    tc-image.el -> tc-image.el
    tc-inst.el -> tc-inst.el
    tc-is22.el -> tc-is22.el
    tc-ja-alnum.el -> tc-ja-alnum.el
    tc-jiscode.el -> tc-jiscode.el
    tc-mazegaki.el -> tc-mazegaki.el
    tc-mkmzdic.el -> tc-mkmzdic.el
    tc-pre.el -> tc-pre.el
    tc-setup.el -> tc-setup.el
    tc-stat.el -> tc-stat.el
    tc-sysdep.el -> tc-sysdep.el
    tc-tbl.el -> tc-tbl.el
    tc-util.el -> tc-util.el
    tc.el -> tc.el
    try-etbl.el -> try-etbl.el
    try-tbl.el -> try-tbl.el
    ttc-ltbl.el -> ttc-ltbl.el
    ttc-rtbl.el -> ttc-rtbl.el
    ttc-tbl.el -> ttc-tbl.el
    tutc-tbl.el -> tutc-tbl.el
    tcode => tcode
Created tc-20201022.1646.tar containing:
  tc-20201022.1646/
  tc-20201022.1646/eelll.el
  tc-20201022.1646/tc-bushu.el
  tc-20201022.1646/tc-complete.el
  tc-20201022.1646/tc-help.el
  tc-20201022.1646/tc-image.el
  tc-20201022.1646/tc-inst.el
  tc-20201022.1646/tc-is22.el
  tc-20201022.1646/tc-ja-alnum.el
  tc-20201022.1646/tc-jiscode.el
  tc-20201022.1646/tc-mazegaki.el
  tc-20201022.1646/tc-mkmzdic.el
  tc-20201022.1646/tc-pkg.el
  tc-20201022.1646/tc-pre.el
  tc-20201022.1646/tc-setup.el
  tc-20201022.1646/tc-stat.el
  tc-20201022.1646/tc-sysdep.el
  tc-20201022.1646/tc-tbl.el
  tc-20201022.1646/tc-util.el
  tc-20201022.1646/tc.el
  tc-20201022.1646/tcode/
  tc-20201022.1646/tcode/EELLLTXT
  tc-20201022.1646/tcode/EELLLTXT.tut
  tc-20201022.1646/tcode/Makefile.am
  tc-20201022.1646/tcode/Makefile.in
  tc-20201022.1646/tcode/README
  tc-20201022.1646/tcode/bushu.expand
  tc-20201022.1646/tcode/bushu.rev
  tc-20201022.1646/tcode/greece.maz
  tc-20201022.1646/tcode/itaiji.maz
  tc-20201022.1646/tcode/jukujiku.maz
  tc-20201022.1646/tcode/mazegaki.dic
  tc-20201022.1646/tcode/mk-mzdic
  tc-20201022.1646/tcode/mkcertain.pl
  tc-20201022.1646/tcode/pd_kihon.yom
  tc-20201022.1646/tcode/step1.pl
  tc-20201022.1646/tcode/step2.pl
  tc-20201022.1646/tcode/symbol.rev
  tc-20201022.1646/tcode/t1200.dat
  tc-20201022.1646/tcode/t1353.dat
  tc-20201022.1646/tcode/t225.dat
  tc-20201022.1646/tcode/t300.dat
  tc-20201022.1646/tcode/t400.dat
  tc-20201022.1646/tcode/t450.dat
  tc-20201022.1646/tcode/t575.dat
  tc-20201022.1646/tcode/t675.dat
  tc-20201022.1646/tcode/t900.dat
  tc-20201022.1646/tcode/tcode.u
  tc-20201022.1646/try-etbl.el
  tc-20201022.1646/try-tbl.el
  tc-20201022.1646/ttc-ltbl.el
  tc-20201022.1646/ttc-rtbl.el
  tc-20201022.1646/ttc-tbl.el
  tc-20201022.1646/tutc-tbl.el
Built tc in 4.892s, finished at 2021-09-10T01:40:41+0000
 ✓ Success:
4.0K -rw-r--r-- 1 root root  365 Sep 10 01:40 packages/tc-20201022.1646.entry
3.3M -rw-r--r-- 1 root root 3.3M Sep 10 01:40 packages/tc-20201022.1646.tar
4.0K -rw-r--r-- 1 root root 1.2K Sep 10 01:40 packages/tc-badge.svg
