Package: ten-hundred-mode
Fetcher: github
Source:  https://github.com/aaron-em/ten-hundred-mode.el.git

Updating /mnt/store/melpa/working/ten-hundred-mode/
Checking out origin/HEAD
Checking out bdcfda49b1819e82d61fe90947e50bb948cf7933
Copying files (->) and directories (=>)
  from /mnt/store/melpa/working/ten-hundred-mode/
  to /tmp/ten-hundred-modeN5kJiz/ten-hundred-mode-20161028.2236
    ten-hundred-mode.el -> ten-hundred-mode.el
    lib => lib
Created ten-hundred-mode-20161028.2236.tar containing:
  ten-hundred-mode-20161028.2236/
  ten-hundred-mode-20161028.2236/lib/
  ten-hundred-mode-20161028.2236/lib/.nosearch
  ten-hundred-mode-20161028.2236/lib/levenshtein.el
  ten-hundred-mode-20161028.2236/lib/stem-english.el
  ten-hundred-mode-20161028.2236/ten-hundred-mode-pkg.el
  ten-hundred-mode-20161028.2236/ten-hundred-mode.el
Built ten-hundred-mode in 4.798s, finished at 2021-09-10T01:40:55+0000
 ✓ Success:
4.0K -rw-r--r-- 1 root root  187 Sep 10 01:40 packages/ten-hundred-mode-20161028.2236.entry
 60K -rw-r--r-- 1 root root  60K Sep 10 01:40 packages/ten-hundred-mode-20161028.2236.tar
4.0K -rw-r--r-- 1 root root 1.2K Sep 10 01:40 packages/ten-hundred-mode-badge.svg
4.0K -rw-r--r-- 1 root root 1.7K Sep 10 01:40 packages/ten-hundred-mode-readme.txt
