Package: tern-context-coloring
Fetcher: github
Source:  https://github.com/jacksonrayhamilton/tern-context-coloring.git

Updating /mnt/store/melpa/working/tern-context-coloring/
Checking out origin/HEAD
Checking out 3a8e979d6cc83aabcb3dda3f5f31a6422532efba
Built tern-context-coloring in 5.152s, finished at 2021-09-10T01:41:10+0000
 ✓ Success:
4.0K -rw-r--r-- 1 root root 2.6K Sep 10 01:41 packages/tern-context-coloring-20161218.747.el
4.0K -rw-r--r-- 1 root root  516 Sep 10 01:41 packages/tern-context-coloring-20161218.747.entry
4.0K -rw-r--r-- 1 root root 1.2K Sep 10 01:41 packages/tern-context-coloring-badge.svg
4.0K -rw-r--r-- 1 root root  183 Sep 10 01:41 packages/tern-context-coloring-readme.txt
