Package: timer-revert
Fetcher: github
Source:  https://github.com/yyr/timer-revert.git

Updating /mnt/store/melpa/working/timer-revert/
Checking out origin/HEAD
Checking out 615c91dec8b440d2b9b7c725dd733d7432564e45
Copying files (->) and directories (=>)
  from /mnt/store/melpa/working/timer-revert/
  to /tmp/timer-revertEl7N3l/timer-revert-20150122.2032
    timer-revert-pkg.el -> timer-revert-pkg.el
    timer-revert.el -> timer-revert.el
Created timer-revert-20150122.2032.tar containing:
  timer-revert-20150122.2032/
  timer-revert-20150122.2032/timer-revert-pkg.el
  timer-revert-20150122.2032/timer-revert.el
Built timer-revert in 5.564s, finished at 2021-09-10T01:41:47+0000
 ✓ Success:
4.0K -rw-r--r-- 1 root root  377 Sep 10 01:41 packages/timer-revert-20150122.2032.entry
 12K -rw-r--r-- 1 root root  10K Sep 10 01:41 packages/timer-revert-20150122.2032.tar
4.0K -rw-r--r-- 1 root root 1.2K Sep 10 01:41 packages/timer-revert-badge.svg
4.0K -rw-r--r-- 1 root root  717 Sep 10 01:41 packages/timer-revert-readme.txt
