Package: tinysegmenter
Fetcher: github
Source:  https://github.com/myuhe/tinysegmenter.el.git

Updating /mnt/store/melpa/working/tinysegmenter/
Checking out origin/HEAD
Checking out 872134704bd25c13a4c59552433da4c6881b5230
Built tinysegmenter in 5.738s, finished at 2021-09-10T01:41:56+0000
 ✓ Success:
 32K -rw-r--r-- 1 root root  29K Sep 10 01:41 packages/tinysegmenter-20141124.1013.el
4.0K -rw-r--r-- 1 root root  365 Sep 10 01:41 packages/tinysegmenter-20141124.1013.entry
4.0K -rw-r--r-- 1 root root 1.2K Sep 10 01:41 packages/tinysegmenter-badge.svg
4.0K -rw-r--r-- 1 root root  199 Sep 10 01:41 packages/tinysegmenter-readme.txt
