Package: tiny
Fetcher: github
Source:  https://github.com/abo-abo/tiny.git

Updating /mnt/store/melpa/working/tiny/
Checking out origin/HEAD
Checking out fd8a6b0b0c564d8242259e20e557ee6041f40908
Built tiny in 5.145s, finished at 2021-09-10T01:41:52+0000
 ✓ Success:
 24K -rw-r--r-- 1 root root  21K Sep 10 01:41 packages/tiny-20190722.1212.el
4.0K -rw-r--r-- 1 root root  335 Sep 10 01:41 packages/tiny-20190722.1212.entry
4.0K -rw-r--r-- 1 root root 1.2K Sep 10 01:41 packages/tiny-badge.svg
8.0K -rw-r--r-- 1 root root 6.1K Sep  9 22:00 packages/tiny-menu-20161213.1235.el
4.0K -rw-r--r-- 1 root root  383 Sep  9 22:00 packages/tiny-menu-20161213.1235.entry
4.0K -rw-r--r-- 1 root root 1.2K Sep  9 22:00 packages/tiny-menu-badge.svg
4.0K -rw-r--r-- 1 root root  212 Sep  9 22:00 packages/tiny-menu-readme.txt
4.0K -rw-r--r-- 1 root root  217 Sep 10 01:41 packages/tiny-menu.log
4.0K -rw-r--r-- 1 root root 2.6K Sep 10 01:41 packages/tiny-readme.txt
