Package: toggle-test
Fetcher: github
Source:  https://github.com/rags/toggle-test.git

Updating /mnt/store/melpa/working/toggle-test/
Checking out origin/HEAD
Checking out e969321f274903d705995a7d0345a257576ec5ff
Built toggle-test in 10.978s, finished at 2021-09-10T01:42:19+0000
 ✓ Success:
 12K -rw-r--r-- 1 root root 9.9K Sep 10 01:42 packages/toggle-test-20140723.537.el
4.0K -rw-r--r-- 1 root root  442 Sep 10 01:42 packages/toggle-test-20140723.537.entry
4.0K -rw-r--r-- 1 root root 1.2K Sep 10 01:42 packages/toggle-test-badge.svg
4.0K -rw-r--r-- 1 root root  457 Sep 10 01:42 packages/toggle-test-readme.txt
