Package: twig-mode
Fetcher: github
Source:  https://github.com/moljac024/twig-mode.git

Updating /mnt/store/melpa/working/twig-mode/
Checking out origin/HEAD
Checking out 2849f273a4855d3314a9c0cc84134f5b28ad5ea6
Built twig-mode in 4.970s, finished at 2021-09-10T01:43:40+0000
 ✓ Success:
 12K -rw-r--r-- 1 root root  11K Sep 10 01:43 packages/twig-mode-20130220.1850.el
4.0K -rw-r--r-- 1 root root  240 Sep 10 01:43 packages/twig-mode-20130220.1850.entry
4.0K -rw-r--r-- 1 root root 1.2K Sep 10 01:43 packages/twig-mode-badge.svg
4.0K -rw-r--r-- 1 root root  200 Sep 10 01:43 packages/twig-mode-readme.txt
