Package: underline-with-char
Fetcher: gitlab
Source:  https://gitlab.com/marcowahl/underline-with-char.git

Updating /mnt/store/melpa/working/underline-with-char/
Checking out origin/HEAD
Checking out 36577e72aa4fbfa7f1abad01842359209f543751
Built underline-with-char in 5.498s, finished at 2021-09-10T01:44:04+0000
 ✓ Success:
4.0K -rw-r--r-- 1 root root 3.6K Sep 10 01:44 packages/underline-with-char-20191128.2309.el
4.0K -rw-r--r-- 1 root root  338 Sep 10 01:44 packages/underline-with-char-20191128.2309.entry
4.0K -rw-r--r-- 1 root root 1.2K Sep 10 01:44 packages/underline-with-char-badge.svg
4.0K -rw-r--r-- 1 root root 1.2K Sep 10 01:44 packages/underline-with-char-readme.txt
