Package: use-package-ensure-system-package
Fetcher: github
Source:  https://github.com/jwiegley/use-package.git

Updating /mnt/store/melpa/working/use-package-ensure-system-package/
Checking out origin/HEAD
Checking out a7422fb8ab1baee19adb2717b5b47b9c3812a84c
Built use-package-ensure-system-package in 5.425s, finished at 2021-09-10T01:44:39+0000
 ✓ Success:
4.0K -rw-r--r-- 1 root root 2.8K Sep 10 01:44 packages/use-package-ensure-system-package-20180913.1501.el
4.0K -rw-r--r-- 1 root root  534 Sep 10 01:44 packages/use-package-ensure-system-package-20180913.1501.entry
4.0K -rw-r--r-- 1 root root 1.2K Sep 10 01:44 packages/use-package-ensure-system-package-badge.svg
4.0K -rw-r--r-- 1 root root  124 Sep 10 01:44 packages/use-package-ensure-system-package-readme.txt
