Package: use-ttf
Fetcher: github
Source:  https://github.com/jcs-elpa/use-ttf.git

Updating /mnt/store/melpa/working/use-ttf/
Checking out origin/HEAD
Checking out aa6e271e8efc3a93caaaa740245d126d24e778ab
Built use-ttf in 5.065s, finished at 2021-09-10T01:44:43+0000
 ✓ Success:
8.0K -rw-r--r-- 1 root root 7.5K Sep 10 01:44 packages/use-ttf-20201021.1620.el
4.0K -rw-r--r-- 1 root root  369 Sep 10 01:44 packages/use-ttf-20201021.1620.entry
4.0K -rw-r--r-- 1 root root 1.2K Sep 10 01:44 packages/use-ttf-badge.svg
4.0K -rw-r--r-- 1 root root   45 Sep 10 01:44 packages/use-ttf-readme.txt
