Package: vdf-mode
Fetcher: github
Source:  https://github.com/plapadoo/vdf-mode.git

Updating /mnt/store/melpa/working/vdf-mode/
Checking out origin/HEAD
Checking out 0910d4f847e9c817eb8da5434b3879048ec4ac92
Built vdf-mode in 5.354s, finished at 2021-09-10T01:45:07+0000
 ✓ Success:
4.0K -rw-r--r-- 1 root root 3.0K Sep 10 01:45 packages/vdf-mode-20210303.714.el
4.0K -rw-r--r-- 1 root root  312 Sep 10 01:45 packages/vdf-mode-20210303.714.entry
4.0K -rw-r--r-- 1 root root 1.2K Sep 10 01:45 packages/vdf-mode-badge.svg
4.0K -rw-r--r-- 1 root root   38 Sep 10 01:45 packages/vdf-mode-readme.txt
