Package: virtualenvwrapper
Fetcher: github
Source:  https://github.com/porterjamesj/virtualenvwrapper.el.git

Updating /mnt/store/melpa/working/virtualenvwrapper/
Checking out origin/HEAD
Checking out c7e84505db4142fd1beebf38ffe37c3f42444ca3
Built virtualenvwrapper in 5.015s, finished at 2021-09-10T01:45:37+0000
 ✓ Success:
 24K -rw-r--r-- 1 root root  22K Sep 10 01:45 packages/virtualenvwrapper-20190223.1919.el
4.0K -rw-r--r-- 1 root root  488 Sep 10 01:45 packages/virtualenvwrapper-20190223.1919.entry
4.0K -rw-r--r-- 1 root root 1.2K Sep 10 01:45 packages/virtualenvwrapper-badge.svg
4.0K -rw-r--r-- 1 root root  258 Sep 10 01:45 packages/virtualenvwrapper-readme.txt
