Package: vue-html-mode
Fetcher: github
Source:  https://github.com/AdamNiederer/vue-html-mode.git

Updating /mnt/store/melpa/working/vue-html-mode/
Checking out origin/HEAD
Checking out 1514939804bad558584feeb6298b38d22eadf64e
Built vue-html-mode in 5.189s, finished at 2021-09-10T01:45:54+0000
 ✓ Success:
8.0K -rw-r--r-- 1 root root 5.2K Sep 10 01:45 packages/vue-html-mode-20180428.2035.el
4.0K -rw-r--r-- 1 root root  386 Sep 10 01:45 packages/vue-html-mode-20180428.2035.entry
4.0K -rw-r--r-- 1 root root 1.2K Sep 10 01:45 packages/vue-html-mode-badge.svg
