Package: waher-theme
Fetcher: github
Source:  https://github.com/emacsfodder/emacs-waher-theme.git

Updating /mnt/store/melpa/working/waher-theme/
Checking out origin/HEAD
Checking out 60d31519fcfd8e797723d47961b255ae2f2e2c0a
Built waher-theme in 6.692s, finished at 2021-09-10T01:46:07+0000
 ✓ Success:
8.0K -rw-r--r-- 1 root root 6.8K Sep 10 01:46 packages/waher-theme-20141115.1230.el
4.0K -rw-r--r-- 1 root root  375 Sep 10 01:46 packages/waher-theme-20141115.1230.entry
4.0K -rw-r--r-- 1 root root 1.2K Sep 10 01:46 packages/waher-theme-badge.svg
4.0K -rw-r--r-- 1 root root  119 Sep 10 01:46 packages/waher-theme-readme.txt
