Package: wrap-region
Fetcher: github
Source:  https://github.com/rejeep/wrap-region.el.git

Updating /mnt/store/melpa/working/wrap-region/
Checking out origin/HEAD
Checking out fbae9b0f106187af19823f1a6260b5c68b7252e6
Built wrap-region in 12.058s, finished at 2021-09-10T01:48:19+0000
 ✓ Success:
 16K -rw-r--r-- 1 root root  13K Sep 10 01:48 packages/wrap-region-20140117.720.el
4.0K -rw-r--r-- 1 root root  411 Sep 10 01:48 packages/wrap-region-20140117.720.entry
4.0K -rw-r--r-- 1 root root 1.2K Sep 10 01:48 packages/wrap-region-badge.svg
4.0K -rw-r--r-- 1 root root 1.8K Sep 10 01:48 packages/wrap-region-readme.txt
