Package: ac-racer
Fetcher: github
Source:  https://github.com/emacsorphanage/ac-racer.git

Updating /mnt/store/melpa/working/ac-racer/
Checking out origin/HEAD
Checking out 4408c2d652dec0432e20c05e001db8222d778c6b
Built ac-racer in 6.896s, finished at 2021-09-10T04:01:36+0000
 ✓ Success:
4.0K -rw-r--r-- 1 root root 3.0K Sep 10 04:01 packages/ac-racer-20170114.809.el
4.0K -rw-r--r-- 1 root root  402 Sep 10 04:01 packages/ac-racer-20170114.809.entry
4.0K -rw-r--r-- 1 root root 1.2K Sep 10 04:01 packages/ac-racer-badge.svg
4.0K -rw-r--r-- 1 root root   73 Sep 10 04:01 packages/ac-racer-readme.txt
