Package: ammonite-term-repl
Fetcher: github
Source:  https://github.com/zwild/ammonite-term-repl.git

Updating /mnt/store/melpa/working/ammonite-term-repl/
Checking out origin/HEAD
Checking out b552fe21977e005c1c460bf6607557e67241a6b6
Built ammonite-term-repl in 6.876s, finished at 2021-09-10T04:03:29+0000
 ✓ Success:
 12K -rw-r--r-- 1 root root 9.7K Sep 10 04:03 packages/ammonite-term-repl-20200416.559.el
4.0K -rw-r--r-- 1 root root  498 Sep 10 04:03 packages/ammonite-term-repl-20200416.559.entry
4.0K -rw-r--r-- 1 root root 1.2K Sep 10 04:03 packages/ammonite-term-repl-badge.svg
4.0K -rw-r--r-- 1 root root  205 Sep 10 04:03 packages/ammonite-term-repl-readme.txt
