Package: auto-sudoedit
Fetcher: github
Source:  https://github.com/ncaq/auto-sudoedit.git

Updating /mnt/store/melpa/working/auto-sudoedit/
Checking out origin/HEAD
Checking out 0dec9e632f1f3208f0da2f94b57efa1aae9ce2ab
Built auto-sudoedit in 6.393s, finished at 2021-09-10T04:05:43+0000
 ✓ Success:
4.0K -rw-r--r-- 1 root root 3.7K Sep 10 04:05 packages/auto-sudoedit-20210522.612.el
4.0K -rw-r--r-- 1 root root  319 Sep 10 04:05 packages/auto-sudoedit-20210522.612.entry
4.0K -rw-r--r-- 1 root root 1.2K Sep 10 04:05 packages/auto-sudoedit-badge.svg
4.0K -rw-r--r-- 1 root root  105 Sep 10 04:05 packages/auto-sudoedit-readme.txt
