Package: aws-snippets
Fetcher: github
Source:  https://github.com/baron42bba/aws-snippets.git

Updating /mnt/store/melpa/working/aws-snippets/
Checking out origin/HEAD
Checking out 557d19a0bc486e0fddb597b2be5087769d9bd47e
Copying files (->) and directories (=>)
  from /mnt/store/melpa/working/aws-snippets/
  to /tmp/aws-snippetsoxoZyD/aws-snippets-20191203.1553
    aws-snippets.el -> aws-snippets.el
    snippets => snippets
Created aws-snippets-20191203.1553.tar containing:
  aws-snippets-20191203.1553/
  aws-snippets-20191203.1553/aws-snippets-pkg.el
  aws-snippets-20191203.1553/aws-snippets.el
  aws-snippets-20191203.1553/snippets/
  aws-snippets-20191203.1553/snippets/eshell-mode/
  aws-snippets-20191203.1553/snippets/eshell-mode/aws-ami-ls
  aws-snippets-20191203.1553/snippets/eshell-mode/aws-autoscaling-describe-auto-scaling-groups
  aws-snippets-20191203.1553/snippets/eshell-mode/aws-autoscaling-describe-launch-configurations
  aws-snippets-20191203.1553/snippets/eshell-mode/aws-autoscaling-update-auto-scaling-group-min-max
  aws-snippets-20191203.1553/snippets/eshell-mode/aws-cloudformation-change-ls
  aws-snippets-20191203.1553/snippets/eshell-mode/aws-cloudformation-create-change-set
  aws-snippets-20191203.1553/snippets/eshell-mode/aws-cloudformation-describe-change-set
  aws-snippets-20191203.1553/snippets/eshell-mode/aws-cloudformation-describe-stack
  aws-snippets-20191203.1553/snippets/eshell-mode/aws-cloudformation-describe-stack-events
  aws-snippets-20191203.1553/snippets/eshell-mode/aws-cloudformation-ls
  aws-snippets-20191203.1553/snippets/eshell-mode/aws-cloudformation-validate-template
  aws-snippets-20191203.1553/snippets/eshell-mode/aws-cloudtrail-lookup-events
  aws-snippets-20191203.1553/snippets/eshell-mode/aws-ec2-delete-snapshot
  aws-snippets-20191203.1553/snippets/eshell-mode/aws-ec2-delete-volume
  aws-snippets-20191203.1553/snippets/eshell-mode/aws-ec2-describe-instance-attribute
  aws-snippets-20191203.1553/snippets/eshell-mode/aws-ec2-describe-instance-status
  aws-snippets-20191203.1553/snippets/eshell-mode/aws-ec2-describe-userdata
  aws-snippets-20191203.1553/snippets/eshell-mode/aws-ec2-get-console-output
  aws-snippets-20191203.1553/snippets/eshell-mode/aws-ec2-get-dns-names
  aws-snippets-20191203.1553/snippets/eshell-mode/aws-ec2-get-instance-details
  aws-snippets-20191203.1553/snippets/eshell-mode/aws-ec2-get-instance-volumes
  aws-snippets-20191203.1553/snippets/eshell-mode/aws-ec2-get-securitygroup-details
  aws-snippets-20191203.1553/snippets/eshell-mode/aws-ec2-get-securitygroup-references
  aws-snippets-20191203.1553/snippets/eshell-mode/aws-ec2-get-securitygroups
  aws-snippets-20191203.1553/snippets/eshell-mode/aws-ec2-get-snapshot-details
  aws-snippets-20191203.1553/snippets/eshell-mode/aws-ec2-get-snapshots
  aws-snippets-20191203.1553/snippets/eshell-mode/aws-ec2-get-volumes
  aws-snippets-20191203.1553/snippets/eshell-mode/aws-ec2-get-volumes-unused
  aws-snippets-20191203.1553/snippets/eshell-mode/aws-ec2-instance-running
  aws-snippets-20191203.1553/snippets/eshell-mode/aws-ec2-list-instances
  aws-snippets-20191203.1553/snippets/eshell-mode/aws-ec2-list-subnets
  aws-snippets-20191203.1553/snippets/eshell-mode/aws-ec2-list-vpcs
  aws-snippets-20191203.1553/snippets/eshell-mode/aws-ec2-start-stop-instance
  aws-snippets-20191203.1553/snippets/eshell-mode/aws-ec2-volume-details
  aws-snippets-20191203.1553/snippets/eshell-mode/aws-elb-describe-instance-health
  aws-snippets-20191203.1553/snippets/eshell-mode/aws-elb-describe-load-balancer
  aws-snippets-20191203.1553/snippets/eshell-mode/aws-elb-describe-load-balancer-attributes
  aws-snippets-20191203.1553/snippets/eshell-mode/aws-elb-get-list
  aws-snippets-20191203.1553/snippets/eshell-mode/aws-elb-search
  aws-snippets-20191203.1553/snippets/eshell-mode/aws-emr-describe-cluster
  aws-snippets-20191203.1553/snippets/eshell-mode/aws-emr-list-clusters
  aws-snippets-20191203.1553/snippets/eshell-mode/aws-filters
  aws-snippets-20191203.1553/snippets/eshell-mode/aws-logs-get-groups
  aws-snippets-20191203.1553/snippets/eshell-mode/aws-logs-set-retention
  aws-snippets-20191203.1553/snippets/eshell-mode/aws-policy-ls
  aws-snippets-20191203.1553/snippets/eshell-mode/aws-rds-describe-db-instance-details
  aws-snippets-20191203.1553/snippets/eshell-mode/aws-rds-describe-db-instances
  aws-snippets-20191203.1553/snippets/eshell-mode/aws-rds-describe-db-parameter-groups
  aws-snippets-20191203.1553/snippets/eshell-mode/aws-rds-describe-parameters
  aws-snippets-20191203.1553/snippets/eshell-mode/aws-region-loop
  aws-snippets-20191203.1553/snippets/eshell-mode/aws-regions
  aws-snippets-20191203.1553/snippets/eshell-mode/aws-route53-list-hosted-zones
  aws-snippets-20191203.1553/snippets/eshell-mode/aws-route53-list-resource-record-sets
  aws-snippets-20191203.1553/snippets/eshell-mode/aws-sns-ls
  aws-snippets-20191203.1553/snippets/eshell-mode/aws-ssm-start-session
  aws-snippets-20191203.1553/snippets/eshell-mode/aws-support-describe
  aws-snippets-20191203.1553/snippets/eshell-mode/aws-support-ls
  aws-snippets-20191203.1553/snippets/json-mode/
  aws-snippets-20191203.1553/snippets/json-mode/aws-autoscaling-group
  aws-snippets-20191203.1553/snippets/json-mode/aws-autoscaling-group-vpc
  aws-snippets-20191203.1553/snippets/json-mode/aws-availibility-zone
  aws-snippets-20191203.1553/snippets/json-mode/aws-cloudformation-authentication
  aws-snippets-20191203.1553/snippets/json-mode/aws-cloudformation-customresource
  aws-snippets-20191203.1553/snippets/json-mode/aws-cloudformation-init
  aws-snippets-20191203.1553/snippets/json-mode/aws-cloudformation-stack
  aws-snippets-20191203.1553/snippets/json-mode/aws-cloudformation-waitcondition
  aws-snippets-20191203.1553/snippets/json-mode/aws-cloudformation-waitconditionhandle
  aws-snippets-20191203.1553/snippets/json-mode/aws-cloudfront-distribution
  aws-snippets-20191203.1553/snippets/json-mode/aws-cloudtrail
  aws-snippets-20191203.1553/snippets/json-mode/aws-cloudwatch-alarm
  aws-snippets-20191203.1553/snippets/json-mode/aws-dynamodb-table
  aws-snippets-20191203.1553/snippets/json-mode/aws-ec2-instance
  aws-snippets-20191203.1553/snippets/json-mode/aws-ec2-volume
  aws-snippets-20191203.1553/snippets/json-mode/aws-eip-vpc
  aws-snippets-20191203.1553/snippets/json-mode/aws-elastic-load-balancer
  aws-snippets-20191203.1553/snippets/json-mode/aws-elastic-load-balancer-vpc
  aws-snippets-20191203.1553/snippets/json-mode/aws-elastic-load-balancer-vpc-internal
  aws-snippets-20191203.1553/snippets/json-mode/aws-elasticache-cachecluster
  aws-snippets-20191203.1553/snippets/json-mode/aws-elasticache-parametergroup
  aws-snippets-20191203.1553/snippets/json-mode/aws-elasticache-securitygroup
  aws-snippets-20191203.1553/snippets/json-mode/aws-elasticache-securitygroupingress
  aws-snippets-20191203.1553/snippets/json-mode/aws-elasticache-subnetgroup
  aws-snippets-20191203.1553/snippets/json-mode/aws-elasticbeanstalk-application
  aws-snippets-20191203.1553/snippets/json-mode/aws-elasticbeanstalk-applicationversion
  aws-snippets-20191203.1553/snippets/json-mode/aws-elasticbeanstalk-configurationtemplate
  aws-snippets-20191203.1553/snippets/json-mode/aws-elasticbeanstalk-environment
  aws-snippets-20191203.1553/snippets/json-mode/aws-elb-listener
  aws-snippets-20191203.1553/snippets/json-mode/aws-find-in-map
  aws-snippets-20191203.1553/snippets/json-mode/aws-get-attr
  aws-snippets-20191203.1553/snippets/json-mode/aws-iam-accesskey
  aws-snippets-20191203.1553/snippets/json-mode/aws-iam-group
  aws-snippets-20191203.1553/snippets/json-mode/aws-iam-instanceprofile
  aws-snippets-20191203.1553/snippets/json-mode/aws-iam-policy
  aws-snippets-20191203.1553/snippets/json-mode/aws-iam-role
  aws-snippets-20191203.1553/snippets/json-mode/aws-iam-user
  aws-snippets-20191203.1553/snippets/json-mode/aws-iam-usertogroupaddition
  aws-snippets-20191203.1553/snippets/json-mode/aws-internet-gateway
  aws-snippets-20191203.1553/snippets/json-mode/aws-join
  aws-snippets-20191203.1553/snippets/json-mode/aws-kinesis-stream
  aws-snippets-20191203.1553/snippets/json-mode/aws-launch-config
  aws-snippets-20191203.1553/snippets/json-mode/aws-logs-loggroup
  aws-snippets-20191203.1553/snippets/json-mode/aws-logs-metricfilter
  aws-snippets-20191203.1553/snippets/json-mode/aws-map
  aws-snippets-20191203.1553/snippets/json-mode/aws-map-item
  aws-snippets-20191203.1553/snippets/json-mode/aws-opsworks-app
  aws-snippets-20191203.1553/snippets/json-mode/aws-opsworks-elasticloadbalancerattachment
  aws-snippets-20191203.1553/snippets/json-mode/aws-opsworks-instance
  aws-snippets-20191203.1553/snippets/json-mode/aws-opsworks-layer
  aws-snippets-20191203.1553/snippets/json-mode/aws-opsworks-stack
  aws-snippets-20191203.1553/snippets/json-mode/aws-output
  aws-snippets-20191203.1553/snippets/json-mode/aws-parameter
  aws-snippets-20191203.1553/snippets/json-mode/aws-rds-dbinstance
  aws-snippets-20191203.1553/snippets/json-mode/aws-rds-dbparametergroup
  aws-snippets-20191203.1553/snippets/json-mode/aws-rds-dbsecuritygroup
  aws-snippets-20191203.1553/snippets/json-mode/aws-rds-dbsecuritygroupingress
  aws-snippets-20191203.1553/snippets/json-mode/aws-rds-dbsubnetgroup
  aws-snippets-20191203.1553/snippets/json-mode/aws-rds-eventsubscription
  aws-snippets-20191203.1553/snippets/json-mode/aws-redshift-cluster
  aws-snippets-20191203.1553/snippets/json-mode/aws-redshift-clusterparametergroup
  aws-snippets-20191203.1553/snippets/json-mode/aws-redshift-clustersecuritygroup
  aws-snippets-20191203.1553/snippets/json-mode/aws-redshift-clustersecuritygroupingress
  aws-snippets-20191203.1553/snippets/json-mode/aws-redshift-clustersubnetgroup
  aws-snippets-20191203.1553/snippets/json-mode/aws-ref
  aws-snippets-20191203.1553/snippets/json-mode/aws-resource
  aws-snippets-20191203.1553/snippets/json-mode/aws-route
  aws-snippets-20191203.1553/snippets/json-mode/aws-route-table
  aws-snippets-20191203.1553/snippets/json-mode/aws-route-table-assoc
  aws-snippets-20191203.1553/snippets/json-mode/aws-route53-healthcheck
  aws-snippets-20191203.1553/snippets/json-mode/aws-route53-hostedzone
  aws-snippets-20191203.1553/snippets/json-mode/aws-route53-recordset
  aws-snippets-20191203.1553/snippets/json-mode/aws-route53-recordset-group
  aws-snippets-20191203.1553/snippets/json-mode/aws-s3-bucket
  aws-snippets-20191203.1553/snippets/json-mode/aws-s3-bucketpolicy
  aws-snippets-20191203.1553/snippets/json-mode/aws-security-group-egress-block
  aws-snippets-20191203.1553/snippets/json-mode/aws-securitygroup
  aws-snippets-20191203.1553/snippets/json-mode/aws-securitygroup-rule
  aws-snippets-20191203.1553/snippets/json-mode/aws-select-list
  aws-snippets-20191203.1553/snippets/json-mode/aws-sg-egress-cidr
  aws-snippets-20191203.1553/snippets/json-mode/aws-sg-ingress-cidr
  aws-snippets-20191203.1553/snippets/json-mode/aws-sns-topic
  aws-snippets-20191203.1553/snippets/json-mode/aws-sns-topicpolicy
  aws-snippets-20191203.1553/snippets/json-mode/aws-sqs-queue
  aws-snippets-20191203.1553/snippets/json-mode/aws-sqs-queuepolicy
  aws-snippets-20191203.1553/snippets/json-mode/aws-start
  aws-snippets-20191203.1553/snippets/json-mode/aws-subnet
  aws-snippets-20191203.1553/snippets/json-mode/aws-tag
  aws-snippets-20191203.1553/snippets/json-mode/aws-vpc
  aws-snippets-20191203.1553/snippets/json-mode/aws-vpn-gateway
  aws-snippets-20191203.1553/snippets/sh-mode/
  aws-snippets-20191203.1553/snippets/sh-mode/.yas-parents
  aws-snippets-20191203.1553/snippets/shell-mode/
  aws-snippets-20191203.1553/snippets/shell-mode/.yas-parents
  aws-snippets-20191203.1553/snippets/yaml-mode/
  aws-snippets-20191203.1553/snippets/yaml-mode/aws-autoscaling-group
  aws-snippets-20191203.1553/snippets/yaml-mode/aws-autoscaling-group-vpc
  aws-snippets-20191203.1553/snippets/yaml-mode/aws-availability-zone
  aws-snippets-20191203.1553/snippets/yaml-mode/aws-cloudformation-authentication
  aws-snippets-20191203.1553/snippets/yaml-mode/aws-cloudformation-customresource
  aws-snippets-20191203.1553/snippets/yaml-mode/aws-cloudformation-init
  aws-snippets-20191203.1553/snippets/yaml-mode/aws-cloudformation-stack
  aws-snippets-20191203.1553/snippets/yaml-mode/aws-cloudformation-waitcondition
  aws-snippets-20191203.1553/snippets/yaml-mode/aws-cloudformation-waitconditionhandle
  aws-snippets-20191203.1553/snippets/yaml-mode/aws-cloudfront-distribution
  aws-snippets-20191203.1553/snippets/yaml-mode/aws-cloudtrail
  aws-snippets-20191203.1553/snippets/yaml-mode/aws-cloudwatch-alarm
  aws-snippets-20191203.1553/snippets/yaml-mode/aws-dynamodb-table
  aws-snippets-20191203.1553/snippets/yaml-mode/aws-ec2-instance
  aws-snippets-20191203.1553/snippets/yaml-mode/aws-ec2-volume
  aws-snippets-20191203.1553/snippets/yaml-mode/aws-eip-vpc
  aws-snippets-20191203.1553/snippets/yaml-mode/aws-elastic-load-balancer
  aws-snippets-20191203.1553/snippets/yaml-mode/aws-elastic-load-balancer-vpc
  aws-snippets-20191203.1553/snippets/yaml-mode/aws-elastic-load-balancer-vpc-internal
  aws-snippets-20191203.1553/snippets/yaml-mode/aws-elasticache-cachecluster
  aws-snippets-20191203.1553/snippets/yaml-mode/aws-elasticache-parametergroup
  aws-snippets-20191203.1553/snippets/yaml-mode/aws-elasticache-securitygroup
  aws-snippets-20191203.1553/snippets/yaml-mode/aws-elasticache-securitygroupingress
  aws-snippets-20191203.1553/snippets/yaml-mode/aws-elasticache-subnetgroup
  aws-snippets-20191203.1553/snippets/yaml-mode/aws-elasticbeanstalk-application
  aws-snippets-20191203.1553/snippets/yaml-mode/aws-elasticbeanstalk-applicationversion
  aws-snippets-20191203.1553/snippets/yaml-mode/aws-elasticbeanstalk-configurationtemplate
  aws-snippets-20191203.1553/snippets/yaml-mode/aws-elasticbeanstalk-environment
  aws-snippets-20191203.1553/snippets/yaml-mode/aws-elb-listener
  aws-snippets-20191203.1553/snippets/yaml-mode/aws-find-in-map
  aws-snippets-20191203.1553/snippets/yaml-mode/aws-get-attr
  aws-snippets-20191203.1553/snippets/yaml-mode/aws-iam-accesskey
  aws-snippets-20191203.1553/snippets/yaml-mode/aws-iam-group
  aws-snippets-20191203.1553/snippets/yaml-mode/aws-iam-instanceprofile
  aws-snippets-20191203.1553/snippets/yaml-mode/aws-iam-policy
  aws-snippets-20191203.1553/snippets/yaml-mode/aws-iam-role
  aws-snippets-20191203.1553/snippets/yaml-mode/aws-iam-user
  aws-snippets-20191203.1553/snippets/yaml-mode/aws-iam-usertogroupaddition
  aws-snippets-20191203.1553/snippets/yaml-mode/aws-internet-gateway
  aws-snippets-20191203.1553/snippets/yaml-mode/aws-join
  aws-snippets-20191203.1553/snippets/yaml-mode/aws-kinesis-stream
  aws-snippets-20191203.1553/snippets/yaml-mode/aws-launch-config
  aws-snippets-20191203.1553/snippets/yaml-mode/aws-logs-loggroup
  aws-snippets-20191203.1553/snippets/yaml-mode/aws-logs-metricfilter
  aws-snippets-20191203.1553/snippets/yaml-mode/aws-map
  aws-snippets-20191203.1553/snippets/yaml-mode/aws-map-item
  aws-snippets-20191203.1553/snippets/yaml-mode/aws-opsworks-app
  aws-snippets-20191203.1553/snippets/yaml-mode/aws-opsworks-elasticloadbalancerattachment
  aws-snippets-20191203.1553/snippets/yaml-mode/aws-opsworks-instance
  aws-snippets-20191203.1553/snippets/yaml-mode/aws-opsworks-layer
  aws-snippets-20191203.1553/snippets/yaml-mode/aws-opsworks-stack
  aws-snippets-20191203.1553/snippets/yaml-mode/aws-output
  aws-snippets-20191203.1553/snippets/yaml-mode/aws-parameter
  aws-snippets-20191203.1553/snippets/yaml-mode/aws-rds-dbinstance
  aws-snippets-20191203.1553/snippets/yaml-mode/aws-rds-dbparametergroup
  aws-snippets-20191203.1553/snippets/yaml-mode/aws-rds-dbsecuritygroup
  aws-snippets-20191203.1553/snippets/yaml-mode/aws-rds-dbsecuritygroupingress
  aws-snippets-20191203.1553/snippets/yaml-mode/aws-rds-dbsubnetgroup
  aws-snippets-20191203.1553/snippets/yaml-mode/aws-rds-eventsubscription
  aws-snippets-20191203.1553/snippets/yaml-mode/aws-redshift-cluster
  aws-snippets-20191203.1553/snippets/yaml-mode/aws-redshift-clusterparametergroup
  aws-snippets-20191203.1553/snippets/yaml-mode/aws-redshift-clustersecuritygroup
  aws-snippets-20191203.1553/snippets/yaml-mode/aws-redshift-clustersecuritygroupingress
  aws-snippets-20191203.1553/snippets/yaml-mode/aws-redshift-clustersubnetgroup
  aws-snippets-20191203.1553/snippets/yaml-mode/aws-ref
  aws-snippets-20191203.1553/snippets/yaml-mode/aws-resource
  aws-snippets-20191203.1553/snippets/yaml-mode/aws-route
  aws-snippets-20191203.1553/snippets/yaml-mode/aws-route-table
  aws-snippets-20191203.1553/snippets/yaml-mode/aws-route-table-assoc
  aws-snippets-20191203.1553/snippets/yaml-mode/aws-route53-healthcheck
  aws-snippets-20191203.1553/snippets/yaml-mode/aws-route53-hostedzone
  aws-snippets-20191203.1553/snippets/yaml-mode/aws-route53-recordset
  aws-snippets-20191203.1553/snippets/yaml-mode/aws-route53-recordset-group
  aws-snippets-20191203.1553/snippets/yaml-mode/aws-s3-bucket
  aws-snippets-20191203.1553/snippets/yaml-mode/aws-s3-bucketpolicy
  aws-snippets-20191203.1553/snippets/yaml-mode/aws-securitygroup
  aws-snippets-20191203.1553/snippets/yaml-mode/aws-securitygroup-rule
  aws-snippets-20191203.1553/snippets/yaml-mode/aws-select-list
  aws-snippets-20191203.1553/snippets/yaml-mode/aws-sg-egress-cidr
  aws-snippets-20191203.1553/snippets/yaml-mode/aws-sg-ingress-cidr
  aws-snippets-20191203.1553/snippets/yaml-mode/aws-sns-topic
  aws-snippets-20191203.1553/snippets/yaml-mode/aws-sns-topicpolicy
  aws-snippets-20191203.1553/snippets/yaml-mode/aws-sqs-queue
  aws-snippets-20191203.1553/snippets/yaml-mode/aws-sqs-queuepolicy
  aws-snippets-20191203.1553/snippets/yaml-mode/aws-start
  aws-snippets-20191203.1553/snippets/yaml-mode/aws-subnet
  aws-snippets-20191203.1553/snippets/yaml-mode/aws-tag
  aws-snippets-20191203.1553/snippets/yaml-mode/aws-vpc
  aws-snippets-20191203.1553/snippets/yaml-mode/aws-vpn-gateway
Built aws-snippets in 7.087s, finished at 2021-09-10T04:06:10+0000
 ✓ Success:
4.0K -rw-r--r-- 1 root root  198 Sep 10 04:06 packages/aws-snippets-20191203.1553.entry
280K -rw-r--r-- 1 root root 280K Sep 10 04:06 packages/aws-snippets-20191203.1553.tar
4.0K -rw-r--r-- 1 root root 1.2K Sep 10 04:06 packages/aws-snippets-badge.svg
4.0K -rw-r--r-- 1 root root   94 Sep 10 04:06 packages/aws-snippets-readme.txt
