Package: bap-mode
Fetcher: github
Source:  https://github.com/BinaryAnalysisPlatform/bap-mode.git

Updating /mnt/store/melpa/working/bap-mode/
Checking out origin/HEAD
Checking out 8969679f60db0aa918d35f40d959c0a9c723b111
Built bap-mode in 6.361s, finished at 2021-09-10T04:06:29+0000
 ✓ Success:
8.0K -rw-r--r-- 1 root root 5.4K Sep 10 04:06 packages/bap-mode-20200128.1354.el
4.0K -rw-r--r-- 1 root root  366 Sep 10 04:06 packages/bap-mode-20200128.1354.entry
4.0K -rw-r--r-- 1 root root 1.2K Sep 10 04:06 packages/bap-mode-badge.svg
4.0K -rw-r--r-- 1 root root  125 Sep 10 04:06 packages/bap-mode-readme.txt
