Package: bonjourmadame
Fetcher: github
Source:  https://github.com/pierre-lecocq/bonjourmadame.git

Updating /mnt/store/melpa/working/bonjourmadame/
Checking out origin/HEAD
Checking out d3df185fce78aefa689fded8e56a654f0fde4ac0
Built bonjourmadame in 6.281s, finished at 2021-09-10T00:23:42+0000
 ✓ Success:
 12K -rw-r--r-- 1 root root 8.4K Sep 10 00:23 packages/bonjourmadame-20170919.1134.el
4.0K -rw-r--r-- 1 root root  139 Sep 10 00:23 packages/bonjourmadame-20170919.1134.entry
4.0K -rw-r--r-- 1 root root 1.2K Sep 10 00:23 packages/bonjourmadame-badge.svg
4.0K -rw-r--r-- 1 root root  231 Sep 10 00:23 packages/bonjourmadame-readme.txt
