Package: brainfuck-mode
Fetcher: github
Source:  https://github.com/tom-tan/brainfuck-mode.git

Updating /mnt/store/melpa/working/brainfuck-mode/
Checking out origin/HEAD
Checking out 36e69552bb3b97a4f888d362c59845651bd0d492
Built brainfuck-mode in 5.914s, finished at 2021-09-10T00:23:53+0000
 ✓ Success:
8.0K -rw-r--r-- 1 root root 4.1K Sep 10 00:23 packages/brainfuck-mode-20150113.842.el
4.0K -rw-r--r-- 1 root root  379 Sep 10 00:23 packages/brainfuck-mode-20150113.842.entry
4.0K -rw-r--r-- 1 root root 1.2K Sep 10 00:23 packages/brainfuck-mode-badge.svg
4.0K -rw-r--r-- 1 root root  499 Sep 10 00:23 packages/brainfuck-mode-readme.txt
