Package: cdlatex
Fetcher: github
Source:  https://github.com/cdominik/cdlatex.git

Updating /mnt/store/melpa/working/cdlatex/
Checking out origin/HEAD
Checking out f215b70c5cb02bbc43f5a7d5c8e5e3460ff82428
Built cdlatex in 5.366s, finished at 2021-09-10T00:25:27+0000
 ✓ Success:
 80K -rw-r--r-- 1 root root  78K Sep 10 00:25 packages/cdlatex-20210804.452.el
4.0K -rw-r--r-- 1 root root  316 Sep 10 00:25 packages/cdlatex-20210804.452.entry
4.0K -rw-r--r-- 1 root root 1.2K Sep 10 00:25 packages/cdlatex-badge.svg
 16K -rw-r--r-- 1 root root  14K Sep 10 00:25 packages/cdlatex-readme.txt
