Package: circe-notifications
Fetcher: github
Source:  https://github.com/eqyiel/circe-notifications.git

Updating /mnt/store/melpa/working/circe-notifications/
Checking out origin/HEAD
Checking out 291149ac12877bbd062da993479d3533a26862b0
Built circe-notifications in 5.256s, finished at 2021-09-10T00:26:19+0000
 ✓ Success:
 12K -rw-r--r-- 1 root root 9.6K Sep 10 00:26 packages/circe-notifications-20180102.2318.el
4.0K -rw-r--r-- 1 root root  421 Sep 10 00:26 packages/circe-notifications-20180102.2318.entry
4.0K -rw-r--r-- 1 root root 1.2K Sep 10 00:26 packages/circe-notifications-badge.svg
