Package: cloc
Fetcher: github
Source:  https://github.com/cosmicexplorer/cloc-emacs.git

Updating /mnt/store/melpa/working/cloc/
Checking out origin/HEAD
Checking out f30f0472e465cc8d433d2473e9d3b8dfe2c94491
Built cloc in 14.775s, finished at 2021-09-10T00:26:57+0000
 ✓ Success:
 16K -rw-r--r-- 1 root root  15K Sep 10 00:26 packages/cloc-20170728.1824.el
4.0K -rw-r--r-- 1 root root  420 Sep 10 00:26 packages/cloc-20170728.1824.entry
4.0K -rw-r--r-- 1 root root 1.2K Sep 10 00:26 packages/cloc-badge.svg
4.0K -rw-r--r-- 1 root root  937 Sep 10 00:26 packages/cloc-readme.txt
