Package: company-manually
Fetcher: github
Source:  https://github.com/yanghaoxie/company-manually.git

Updating /mnt/store/melpa/working/company-manually/
Checking out origin/HEAD
Checking out 44c7a655e5f2a462835a96d1f0ed2ce434848416
Built company-manually in 5.121s, finished at 2021-09-10T00:28:55+0000
 ✓ Success:
8.0K -rw-r--r-- 1 root root 7.5K Sep 10 00:28 packages/company-manually-20200709.913.el
4.0K -rw-r--r-- 1 root root  499 Sep 10 00:28 packages/company-manually-20200709.913.entry
4.0K -rw-r--r-- 1 root root 1.2K Sep 10 00:28 packages/company-manually-badge.svg
4.0K -rw-r--r-- 1 root root   51 Sep 10 00:28 packages/company-manually-readme.txt
