Package: company-c-headers
Fetcher: github
Source:  https://github.com/randomphrase/company-c-headers.git

Updating /mnt/store/melpa/working/company-c-headers/
Checking out origin/HEAD
Checking out 9d384571b1190e99d0a789e5296176d69a3d0771
Built company-c-headers in 4.992s, finished at 2021-09-10T00:28:30+0000
 ✓ Success:
8.0K -rw-r--r-- 1 root root 7.5K Sep 10 00:28 packages/company-c-headers-20190825.1631.el
4.0K -rw-r--r-- 1 root root  407 Sep 10 00:28 packages/company-c-headers-20190825.1631.entry
4.0K -rw-r--r-- 1 root root 1.2K Sep 10 00:28 packages/company-c-headers-badge.svg
4.0K -rw-r--r-- 1 root root  620 Sep 10 00:28 packages/company-c-headers-readme.txt
