Package: control-mode
Fetcher: github
Source:  https://github.com/stephendavidmarsh/control-mode.git

Updating /mnt/store/melpa/working/control-mode/
Checking out origin/HEAD
Checking out 72d6179b60adc438aada74083b2bf4264b575de3
Built control-mode in 5.539s, finished at 2021-09-10T00:29:58+0000
 ✓ Success:
 12K -rw-r--r-- 1 root root 9.6K Sep 10 00:29 packages/control-mode-20160624.1710.el
4.0K -rw-r--r-- 1 root root  419 Sep 10 00:29 packages/control-mode-20160624.1710.entry
4.0K -rw-r--r-- 1 root root 1.2K Sep 10 00:29 packages/control-mode-badge.svg
4.0K -rw-r--r-- 1 root root  517 Sep 10 00:29 packages/control-mode-readme.txt
