Package: cursor-test
Fetcher: github
Source:  https://github.com/ainame/cursor-test.el.git

Updating /mnt/store/melpa/working/cursor-test/
Checking out origin/HEAD
Checking out e09956e048b88fd2ee8dd90b5678baed8b04d31b
Built cursor-test in 5.222s, finished at 2021-09-10T00:31:27+0000
 ✓ Success:
8.0K -rw-r--r-- 1 root root 6.1K Sep 10 00:31 packages/cursor-test-20131207.1732.el
4.0K -rw-r--r-- 1 root root  313 Sep 10 00:31 packages/cursor-test-20131207.1732.entry
4.0K -rw-r--r-- 1 root root 1.2K Sep 10 00:31 packages/cursor-test-badge.svg
4.0K -rw-r--r-- 1 root root   52 Sep 10 00:31 packages/cursor-test-readme.txt
