Package: dark-mint-theme
Fetcher: github
Source:  https://github.com/shaunvxc/dark-mint-theme.git

Updating /mnt/store/melpa/working/dark-mint-theme/
Checking out origin/HEAD
Checking out 95c30a26de31549cd341184ba9ab2be8fdc67eba
Built dark-mint-theme in 4.469s, finished at 2021-09-10T00:31:48+0000
 ✓ Success:
4.0K -rw-r--r-- 1 root root 2.5K Sep 10 00:31 packages/dark-mint-theme-20160302.642.el
4.0K -rw-r--r-- 1 root root  143 Sep 10 00:31 packages/dark-mint-theme-20160302.642.entry
4.0K -rw-r--r-- 1 root root 1.2K Sep 10 00:31 packages/dark-mint-theme-badge.svg
