Package: delim-kill
Fetcher: github
Source:  https://github.com/thomas11/delim-kill.git

Updating /mnt/store/melpa/working/delim-kill/
Checking out origin/HEAD
Checking out 1dbe47344f2d2cbc8c54beedf0cf0bf10fd203c1
Built delim-kill in 8.836s, finished at 2021-09-10T00:32:39+0000
 ✓ Success:
8.0K -rw-r--r-- 1 root root 6.8K Sep 10 00:32 packages/delim-kill-20100517.620.el
4.0K -rw-r--r-- 1 root root  391 Sep 10 00:32 packages/delim-kill-20100517.620.entry
4.0K -rw-r--r-- 1 root root 1.2K Sep 10 00:32 packages/delim-kill-badge.svg
4.0K -rw-r--r-- 1 root root 1.2K Sep 10 00:32 packages/delim-kill-readme.txt
