Package: dhall-mode
Fetcher: github
Source:  https://github.com/psibi/dhall-mode.git

Updating /mnt/store/melpa/working/dhall-mode/
Checking out origin/HEAD
Checking out ad259c8a2292fb398dff1ce7d25c686edb02945d
Built dhall-mode in 12.819s, finished at 2021-09-10T00:33:09+0000
 ✓ Success:
 12K -rw-r--r-- 1 root root  12K Sep 10 00:33 packages/dhall-mode-20200822.258.el
4.0K -rw-r--r-- 1 root root  435 Sep 10 00:33 packages/dhall-mode-20200822.258.entry
4.0K -rw-r--r-- 1 root root 1.2K Sep 10 00:33 packages/dhall-mode-badge.svg
4.0K -rw-r--r-- 1 root root  315 Sep 10 00:33 packages/dhall-mode-readme.txt
