Package: dmacro
Fetcher: github
Source:  https://github.com/emacs-jp/dmacro.git

Updating /mnt/store/melpa/working/dmacro/
Checking out origin/HEAD
Checking out 3480b97aaad9e65fa03c6a9d1a0a8111be1179f8
Built dmacro in 6.237s, finished at 2021-09-10T00:35:00+0000
 ✓ Success:
8.0K -rw-r--r-- 1 root root 4.4K Sep 10 00:34 packages/dmacro-20200803.633.el
4.0K -rw-r--r-- 1 root root  444 Sep 10 00:35 packages/dmacro-20200803.633.entry
4.0K -rw-r--r-- 1 root root 1.2K Sep 10 00:35 packages/dmacro-badge.svg
4.0K -rw-r--r-- 1 root root  547 Sep 10 00:35 packages/dmacro-readme.txt
