Package: dogears
Fetcher: github
Source:  https://github.com/alphapapa/dogears.el.git

Updating /mnt/store/melpa/working/dogears/
Checking out origin/HEAD
Checking out 00dd88cc53d3a7d6ddeb3c6eea2c2a37d9b610d6
Built dogears in 5.393s, finished at 2021-09-10T00:35:18+0000
 ✓ Success:
 20K -rw-r--r-- 1 root root  20K Sep 10 00:35 packages/dogears-20210903.514.el
4.0K -rw-r--r-- 1 root root  376 Sep 10 00:35 packages/dogears-20210903.514.entry
4.0K -rw-r--r-- 1 root root 1.2K Sep 10 00:35 packages/dogears-badge.svg
4.0K -rw-r--r-- 1 root root  296 Sep 10 00:35 packages/dogears-readme.txt
