Package: easy-kill-extras
Fetcher: github
Source:  https://github.com/knu/easy-kill-extras.el.git

Updating /mnt/store/melpa/working/easy-kill-extras/
Checking out origin/HEAD
Checking out 74e9d0fcafc38d5f24e6209671a552bc1ba5a867
Copying files (->) and directories (=>)
  from /mnt/store/melpa/working/easy-kill-extras/
  to /tmp/easy-kill-extrasOAp16e/easy-kill-extras-20210529.945
    easy-kill-aj.el -> easy-kill-aj.el
    easy-kill-buffer.el -> easy-kill-buffer.el
    easy-kill-er.el -> easy-kill-er.el
    easy-kill-extras.el -> easy-kill-extras.el
    easy-kill-line-edge.el -> easy-kill-line-edge.el
    easy-kill-mc.el -> easy-kill-mc.el
    easy-kill-to-char.el -> easy-kill-to-char.el
    extra-things.el -> extra-things.el
Created easy-kill-extras-20210529.945.tar containing:
  easy-kill-extras-20210529.945/
  easy-kill-extras-20210529.945/easy-kill-aj.el
  easy-kill-extras-20210529.945/easy-kill-buffer.el
  easy-kill-extras-20210529.945/easy-kill-er.el
  easy-kill-extras-20210529.945/easy-kill-extras-pkg.el
  easy-kill-extras-20210529.945/easy-kill-extras.el
  easy-kill-extras-20210529.945/easy-kill-line-edge.el
  easy-kill-extras-20210529.945/easy-kill-mc.el
  easy-kill-extras-20210529.945/easy-kill-to-char.el
  easy-kill-extras-20210529.945/extra-things.el
Built easy-kill-extras in 4.722s, finished at 2021-09-10T00:36:20+0000
 ✓ Success:
4.0K -rw-r--r-- 1 root root  402 Sep 10 00:36 packages/easy-kill-extras-20210529.945.entry
 72K -rw-r--r-- 1 root root  70K Sep 10 00:36 packages/easy-kill-extras-20210529.945.tar
4.0K -rw-r--r-- 1 root root 1.2K Sep 10 00:36 packages/easy-kill-extras-badge.svg
4.0K -rw-r--r-- 1 root root 2.5K Sep 10 00:36 packages/easy-kill-extras-readme.txt
