Package: el-fly-indent-mode
Fetcher: github
Source:  https://github.com/jiahaowork/el-fly-indent-mode.el.git

Updating /mnt/store/melpa/working/el-fly-indent-mode/
Checking out origin/HEAD
Checking out 39738c88c01a3a035edffe63400d434edb1e3003
Built el-fly-indent-mode in 5.949s, finished at 2021-09-10T00:37:20+0000
 ✓ Success:
4.0K -rw-r--r-- 1 root root 3.1K Sep 10 00:37 packages/el-fly-indent-mode-20180422.243.el
4.0K -rw-r--r-- 1 root root  422 Sep 10 00:37 packages/el-fly-indent-mode-20180422.243.entry
4.0K -rw-r--r-- 1 root root 1.2K Sep 10 00:37 packages/el-fly-indent-mode-badge.svg
4.0K -rw-r--r-- 1 root root  268 Sep 10 00:37 packages/el-fly-indent-mode-readme.txt
