Package: eldev
Fetcher: github
Source:  https://github.com/doublep/eldev.git

Updating /mnt/store/melpa/working/eldev/
Checking out origin/HEAD
Checking out f9d034ff330d657fa3cbbb1df3a582cd417da78a
Copying files (->) and directories (=>)
  from /mnt/store/melpa/working/eldev/
  to /tmp/eldevV2BGbs/eldev-20210711.1204
    eldev-buttercup.el -> eldev-buttercup.el
    eldev-ert.el -> eldev-ert.el
    eldev-plugins.el -> eldev-plugins.el
    eldev-util.el -> eldev-util.el
    eldev-vc.el -> eldev-vc.el
    eldev.el -> eldev.el
    bin/eldev -> bin/eldev
    bin/eldev.bat -> bin/eldev.bat
    bin/eldev.ps1 -> bin/eldev.ps1
Created eldev-20210711.1204.tar containing:
  eldev-20210711.1204/
  eldev-20210711.1204/bin/
  eldev-20210711.1204/bin/eldev
  eldev-20210711.1204/bin/eldev.bat
  eldev-20210711.1204/bin/eldev.ps1
  eldev-20210711.1204/eldev-buttercup.el
  eldev-20210711.1204/eldev-ert.el
  eldev-20210711.1204/eldev-pkg.el
  eldev-20210711.1204/eldev-plugins.el
  eldev-20210711.1204/eldev-util.el
  eldev-20210711.1204/eldev-vc.el
  eldev-20210711.1204/eldev.el
Built eldev in 5.061s, finished at 2021-09-10T00:37:37+0000
 ✓ Success:
4.0K -rw-r--r-- 1 root root  340 Sep 10 00:37 packages/eldev-20210711.1204.entry
412K -rw-r--r-- 1 root root 410K Sep 10 00:37 packages/eldev-20210711.1204.tar
4.0K -rw-r--r-- 1 root root 1.2K Sep 10 00:37 packages/eldev-badge.svg
4.0K -rw-r--r-- 1 root root 1.4K Sep 10 00:37 packages/eldev-readme.txt
