Package: elfeed-autotag
Fetcher: github
Source:  https://github.com/paulelms/elfeed-autotag.git

Updating /mnt/store/melpa/working/elfeed-autotag/
Checking out origin/HEAD
Checking out bc62c37fb79b720ff8b6d67f04f2268841306dcd
Built elfeed-autotag in 5.352s, finished at 2021-09-10T00:37:52+0000
 ✓ Success:
 12K -rw-r--r-- 1 root root  12K Sep 10 00:37 packages/elfeed-autotag-20210607.637.el
4.0K -rw-r--r-- 1 root root  481 Sep 10 00:37 packages/elfeed-autotag-20210607.637.entry
4.0K -rw-r--r-- 1 root root 1.2K Sep 10 00:37 packages/elfeed-autotag-badge.svg
4.0K -rw-r--r-- 1 root root  120 Sep 10 00:37 packages/elfeed-autotag-readme.txt
