Package: elogcat
Fetcher: github
Source:  https://github.com/youngker/elogcat.el.git

Updating /mnt/store/melpa/working/elogcat/
Checking out origin/HEAD
Checking out 4f311b7a07565b0d060334bc68edb36f2bff703f
Built elogcat in 5.391s, finished at 2021-09-10T00:38:23+0000
 ✓ Success:
 12K -rw-r--r-- 1 root root  11K Sep 10 00:38 packages/elogcat-20151121.41.el
4.0K -rw-r--r-- 1 root root  306 Sep 10 00:38 packages/elogcat-20151121.41.entry
4.0K -rw-r--r-- 1 root root 1.2K Sep 10 00:38 packages/elogcat-badge.svg
4.0K -rw-r--r-- 1 root root   27 Sep 10 00:38 packages/elogcat-readme.txt
