Package: elscreen-tab
Fetcher: github
Source:  https://github.com/aki-s/elscreen-tab.git

Updating /mnt/store/melpa/working/elscreen-tab/
Checking out origin/HEAD
Checking out 5d7a740e47a56365413d75f4f0553de74f5ca198
Copying files (->) and directories (=>)
  from /mnt/store/melpa/working/elscreen-tab/
  to /tmp/elscreen-tabUdWUBM/elscreen-tab-20201229.1428
    elscreen-tab--emacs27.el -> elscreen-tab--emacs27.el
    elscreen-tab.el -> elscreen-tab.el
Created elscreen-tab-20201229.1428.tar containing:
  elscreen-tab-20201229.1428/
  elscreen-tab-20201229.1428/elscreen-tab--emacs27.el
  elscreen-tab-20201229.1428/elscreen-tab-pkg.el
  elscreen-tab-20201229.1428/elscreen-tab.el
Built elscreen-tab in 10.937s, finished at 2021-09-10T00:38:52+0000
 ✓ Success:
4.0K -rw-r--r-- 1 root root  462 Sep 10 00:38 packages/elscreen-tab-20201229.1428.entry
 40K -rw-r--r-- 1 root root  40K Sep 10 00:38 packages/elscreen-tab-20201229.1428.tar
4.0K -rw-r--r-- 1 root root 1.2K Sep 10 00:38 packages/elscreen-tab-badge.svg
4.0K -rw-r--r-- 1 root root  647 Sep 10 00:38 packages/elscreen-tab-readme.txt
