Package: erc-hl-nicks
Fetcher: github
Source:  https://github.com/leathekd/erc-hl-nicks.git

Updating /mnt/store/melpa/working/erc-hl-nicks/
Checking out origin/HEAD
Checking out a67fe361c8f2aa20fc235447fbb898f424b51439
Built erc-hl-nicks in 7.257s, finished at 2021-09-10T00:40:21+0000
 ✓ Success:
 16K -rw-r--r-- 1 root root  14K Sep 10 00:40 packages/erc-hl-nicks-20200317.16.el
4.0K -rw-r--r-- 1 root root  369 Sep 10 00:40 packages/erc-hl-nicks-20200317.16.entry
4.0K -rw-r--r-- 1 root root 1.2K Sep 10 00:40 packages/erc-hl-nicks-badge.svg
4.0K -rw-r--r-- 1 root root 2.5K Sep 10 00:40 packages/erc-hl-nicks-readme.txt
