Package: espresso-theme
Fetcher: github
Source:  https://github.com/dgutov/espresso-theme.git

Updating /mnt/store/melpa/working/espresso-theme/
Checking out origin/HEAD
Checking out 580f673729f02aa07070c5300bedf24733d56e74
Built espresso-theme in 5.373s, finished at 2021-09-10T00:41:18+0000
 ✓ Success:
8.0K -rw-r--r-- 1 root root 4.5K Sep 10 00:41 packages/espresso-theme-20210505.1957.el
4.0K -rw-r--r-- 1 root root  318 Sep 10 00:41 packages/espresso-theme-20210505.1957.entry
4.0K -rw-r--r-- 1 root root 1.2K Sep 10 00:41 packages/espresso-theme-badge.svg
4.0K -rw-r--r-- 1 root root  155 Sep 10 00:41 packages/espresso-theme-readme.txt
