Package: evil-leader
Fetcher: github
Source:  https://github.com/cofi/evil-leader.git

Updating /mnt/store/melpa/working/evil-leader/
Checking out origin/HEAD
Checking out 39f7014bcf8b36463e0c7512c638bda4bac6c2cf
Built evil-leader in 5.770s, finished at 2021-09-10T00:42:18+0000
 ✓ Success:
8.0K -rw-r--r-- 1 root root 7.9K Sep 10 00:42 packages/evil-leader-20140606.1243.el
4.0K -rw-r--r-- 1 root root  421 Sep 10 00:42 packages/evil-leader-20140606.1243.entry
4.0K -rw-r--r-- 1 root root 1.2K Sep 10 00:42 packages/evil-leader-badge.svg
4.0K -rw-r--r-- 1 root root 1.4K Sep 10 00:42 packages/evil-leader-readme.txt
