Package: fill-page
Fetcher: github
Source:  https://github.com/jcs-elpa/fill-page.git

Updating /mnt/store/melpa/working/fill-page/
Checking out origin/HEAD
Checking out cad66696f334f70adf2b8bdf9910852c017dbdd0
Built fill-page in 9.301s, finished at 2021-09-10T00:44:25+0000
 ✓ Success:
8.0K -rw-r--r-- 1 root root 5.5K Sep 10 00:44 packages/fill-page-20210707.354.el
4.0K -rw-r--r-- 1 root root  377 Sep 10 00:44 packages/fill-page-20210707.354.entry
4.0K -rw-r--r-- 1 root root 1.2K Sep 10 00:44 packages/fill-page-badge.svg
4.0K -rw-r--r-- 1 root root   54 Sep 10 00:44 packages/fill-page-readme.txt
