Package: fn
Fetcher: github
Source:  https://github.com/troyp/fn.el.git

Updating /mnt/store/melpa/working/fn/
Checking out origin/HEAD
Checking out 98e3fe1b4785e162d9aca978a2db106baa79260f
Built fn in 5.159s, finished at 2021-09-10T00:48:17+0000
 ✓ Success:
8.0K -rw-r--r-- 1 root root 6.3K Sep 10 00:48 packages/fn-20210304.1812.el
4.0K -rw-r--r-- 1 root root  335 Sep 10 00:48 packages/fn-20210304.1812.entry
4.0K -rw-r--r-- 1 root root 1.2K Sep 10 00:48 packages/fn-badge.svg
4.0K -rw-r--r-- 1 root root   94 Sep 10 00:48 packages/fn-readme.txt
