Package: format-sql
Fetcher: github
Source:  https://github.com/paetzke/format-sql.el.git

Updating /mnt/store/melpa/working/format-sql/
Checking out origin/HEAD
Checking out 97f475c245cd6c81a72a265678e2087cee66ac7b
Built format-sql in 5.362s, finished at 2021-09-10T00:48:41+0000
 ✓ Success:
8.0K -rw-r--r-- 1 root root 5.7K Sep 10 00:48 packages/format-sql-20150422.1333.el
4.0K -rw-r--r-- 1 root root  376 Sep 10 00:48 packages/format-sql-20150422.1333.entry
4.0K -rw-r--r-- 1 root root 1.2K Sep 10 00:48 packages/format-sql-badge.svg
4.0K -rw-r--r-- 1 root root  259 Sep 10 00:48 packages/format-sql-readme.txt
