Package: german-holidays
Fetcher: github
Source:  https://github.com/rudolfochrist/german-holidays.git

Updating /mnt/store/melpa/working/german-holidays/
Checking out origin/HEAD
Checking out a8462dffccaf2b665f2032e646b5370e993a386a
Built german-holidays in 5.697s, finished at 2021-09-10T00:49:59+0000
 ✓ Success:
8.0K -rw-r--r-- 1 root root 5.2K Sep 10 00:49 packages/german-holidays-20181213.644.el
4.0K -rw-r--r-- 1 root root  357 Sep 10 00:49 packages/german-holidays-20181213.644.entry
4.0K -rw-r--r-- 1 root root 1.2K Sep 10 00:49 packages/german-holidays-badge.svg
4.0K -rw-r--r-- 1 root root  551 Sep 10 00:49 packages/german-holidays-readme.txt
