Package: gitter
Fetcher: github
Source:  https://github.com/xuchunyang/gitter.el.git

Updating /mnt/store/melpa/working/gitter/
Checking out origin/HEAD
Checking out 11cb9b4b45f67bdc24f055a9bfac21d2bd19ea1a
Built gitter in 5.321s, finished at 2021-09-10T00:51:37+0000
 ✓ Success:
 16K -rw-r--r-- 1 root root  15K Sep 10 00:51 packages/gitter-20180122.856.el
4.0K -rw-r--r-- 1 root root  391 Sep 10 00:51 packages/gitter-20180122.856.entry
4.0K -rw-r--r-- 1 root root 1.2K Sep 10 00:51 packages/gitter-badge.svg
4.0K -rw-r--r-- 1 root root   44 Sep 10 00:51 packages/gitter-readme.txt
