Package: gopher
Fetcher: github
Source:  https://github.com/msnyder-info/gopher.el.git

Updating /mnt/store/melpa/working/gopher/
Checking out origin/HEAD
Checking out 6f4accac226698b22e8388e41ad5723b12553dde
Built gopher in 5.767s, finished at 2021-09-10T00:52:47+0000
 ✓ Success:
 24K -rw-r--r-- 1 root root  21K Sep 10 00:52 packages/gopher-20190512.1351.el
4.0K -rw-r--r-- 1 root root  420 Sep 10 00:52 packages/gopher-20190512.1351.entry
4.0K -rw-r--r-- 1 root root 1.2K Sep 10 00:52 packages/gopher-badge.svg
4.0K -rw-r--r-- 1 root root  414 Sep 10 00:52 packages/gopher-readme.txt
