Package: helm-bm
Fetcher: github
Source:  https://github.com/yasuyk/helm-bm.git

Updating /mnt/store/melpa/working/helm-bm/
Checking out origin/HEAD
Checking out d66341f5646c23178d4d8bffb6cfebe3fb73f1d7
Built helm-bm in 5.442s, finished at 2021-09-10T00:54:44+0000
 ✓ Success:
8.0K -rw-r--r-- 1 root root 6.8K Sep 10 00:54 packages/helm-bm-20160321.1331.el
4.0K -rw-r--r-- 1 root root  413 Sep 10 00:54 packages/helm-bm-20160321.1331.entry
4.0K -rw-r--r-- 1 root root 1.2K Sep 10 00:54 packages/helm-bm-badge.svg
4.0K -rw-r--r-- 1 root root  170 Sep 10 00:54 packages/helm-bm-readme.txt
