Package: helm-z
Fetcher: github
Source:  https://github.com/zonkyy/helm-z.git

Updating /mnt/store/melpa/working/helm-z/
Checking out origin/HEAD
Checking out 37212220bebea8b9c238cb1bbacd8332b7f26c03
Built helm-z in 5.498s, finished at 2021-09-10T00:57:57+0000
 ✓ Success:
4.0K -rw-r--r-- 1 root root 1.9K Sep 10 00:57 packages/helm-z-20171204.325.el
4.0K -rw-r--r-- 1 root root  308 Sep 10 00:57 packages/helm-z-20171204.325.entry
4.0K -rw-r--r-- 1 root root 1.2K Sep 10 00:57 packages/helm-z-badge.svg
4.0K -rw-r--r-- 1 root root   46 Sep 10 00:57 packages/helm-z-readme.txt
