Package: helm-bufler
Fetcher: github
Source:  https://github.com/alphapapa/bufler.el.git

Updating /mnt/store/melpa/working/helm-bufler/
Checking out origin/HEAD
Checking out 5d7cd93beb847141b684154827693998098a796a
Built helm-bufler in 5.631s, finished at 2021-09-10T00:54:45+0000
 ✓ Success:
4.0K -rw-r--r-- 1 root root 3.3K Sep 10 00:54 packages/helm-bufler-20210708.2217.el
4.0K -rw-r--r-- 1 root root  433 Sep 10 00:54 packages/helm-bufler-20210708.2217.entry
4.0K -rw-r--r-- 1 root root 1.2K Sep 10 00:54 packages/helm-bufler-badge.svg
4.0K -rw-r--r-- 1 root root  290 Sep 10 00:54 packages/helm-bufler-readme.txt
