Package: info-colors
Fetcher: github
Source:  https://github.com/ubolonton/info-colors.git

Updating /mnt/store/melpa/working/info-colors/
Checking out origin/HEAD
Checking out 47ee73cc19b1049eef32c9f3e264ea7ef2aaf8a5
Built info-colors in 5.619s, finished at 2021-09-10T01:01:18+0000
 ✓ Success:
8.0K -rw-r--r-- 1 root root 6.6K Sep 10 01:01 packages/info-colors-20200125.1447.el
4.0K -rw-r--r-- 1 root root  421 Sep 10 01:01 packages/info-colors-20200125.1447.entry
4.0K -rw-r--r-- 1 root root 1.2K Sep 10 01:01 packages/info-colors-badge.svg
4.0K -rw-r--r-- 1 root root  169 Sep 10 01:01 packages/info-colors-readme.txt
