Package: ispc-mode
Fetcher: github
Source:  https://github.com/Munksgaard/ispc-mode.git

Updating /mnt/store/melpa/working/ispc-mode/
Checking out origin/HEAD
Checking out 722fdc45da2714f8fe0757968589cdb5ccacc8a0
Built ispc-mode in 5.490s, finished at 2021-09-10T01:02:29+0000
 ✓ Success:
4.0K -rw-r--r-- 1 root root 3.2K Sep 10 01:02 packages/ispc-mode-20201215.852.el
4.0K -rw-r--r-- 1 root root  371 Sep 10 01:02 packages/ispc-mode-20201215.852.entry
4.0K -rw-r--r-- 1 root root 1.2K Sep 10 01:02 packages/ispc-mode-badge.svg
4.0K -rw-r--r-- 1 root root  251 Sep 10 01:02 packages/ispc-mode-readme.txt
