Package: json-snatcher
Fetcher: github
Source:  https://github.com/Sterlingg/json-snatcher.git

Updating /mnt/store/melpa/working/json-snatcher/
Checking out origin/HEAD
Checking out b28d1c0670636da6db508d03872d96ffddbc10f2
Built json-snatcher in 5.345s, finished at 2021-09-10T01:04:24+0000
 ✓ Success:
 16K -rw-r--r-- 1 root root  15K Sep 10 01:04 packages/json-snatcher-20200916.1717.el
4.0K -rw-r--r-- 1 root root  369 Sep 10 01:04 packages/json-snatcher-20200916.1717.entry
4.0K -rw-r--r-- 1 root root 1.2K Sep 10 01:04 packages/json-snatcher-badge.svg
4.0K -rw-r--r-- 1 root root 1.9K Sep 10 01:04 packages/json-snatcher-readme.txt
