Package: latex-pretty-symbols
Fetcher: github
Source:  https://github.com/epa095/latex-pretty-symbols.el.git

Updating /mnt/store/melpa/working/latex-pretty-symbols/
Checking out origin/HEAD
Checking out 83d5888147bb734a94dfd4847a11e975a7d86ba8
Built latex-pretty-symbols in 6.053s, finished at 2021-09-10T01:06:26+0000
 ✓ Success:
 24K -rw-r--r-- 1 root root  24K Sep 10 01:06 packages/latex-pretty-symbols-20151112.1044.el
4.0K -rw-r--r-- 1 root root  439 Sep 10 01:06 packages/latex-pretty-symbols-20151112.1044.entry
4.0K -rw-r--r-- 1 root root 1.2K Sep 10 01:06 packages/latex-pretty-symbols-badge.svg
4.0K -rw-r--r-- 1 root root 1.6K Sep 10 01:06 packages/latex-pretty-symbols-readme.txt
