Package: lavender-theme
Fetcher: github
Source:  https://github.com/emacsfodder/emacs-lavender-theme.git

Updating /mnt/store/melpa/working/lavender-theme/
Checking out origin/HEAD
Checking out ef5e959b95d7fb8152137bc186c4c24e986c1e3c
Built lavender-theme in 5.375s, finished at 2021-09-10T01:06:31+0000
 ✓ Success:
8.0K -rw-r--r-- 1 root root 7.4K Sep 10 01:06 packages/lavender-theme-20170808.1313.el
4.0K -rw-r--r-- 1 root root  320 Sep 10 01:06 packages/lavender-theme-20170808.1313.entry
4.0K -rw-r--r-- 1 root root 1.2K Sep 10 01:06 packages/lavender-theme-badge.svg
4.0K -rw-r--r-- 1 root root  119 Sep 10 01:06 packages/lavender-theme-readme.txt
