Package: lxc
Fetcher: github
Source:  https://github.com/nicferrier/emacs-lxc.git

Updating /mnt/store/melpa/working/lxc/
Checking out origin/HEAD
Checking out 88bed56c954d1edd9ff5ce0ced2c02dcf9f71835
Built lxc in 5.498s, finished at 2021-09-10T01:09:35+0000
 ✓ Success:
4.0K -rw-r--r-- 1 root root 3.9K Sep 10 01:09 packages/lxc-20140410.2022.el
4.0K -rw-r--r-- 1 root root  353 Sep 10 01:09 packages/lxc-20140410.2022.entry
4.0K -rw-r--r-- 1 root root 1.2K Sep 10 01:09 packages/lxc-badge.svg
4.0K -rw-r--r-- 1 root root   60 Sep 10 01:09 packages/lxc-readme.txt
8.0K -rw-r--r-- 1 root root 4.6K Sep 10 01:09 packages/lxc-tramp-20200414.1445.el
4.0K -rw-r--r-- 1 root root  368 Sep 10 01:09 packages/lxc-tramp-20200414.1445.entry
4.0K -rw-r--r-- 1 root root 1.2K Sep 10 01:09 packages/lxc-tramp-badge.svg
4.0K -rw-r--r-- 1 root root  304 Sep 10 01:09 packages/lxc-tramp-readme.txt
4.0K -rw-r--r-- 1 root root  608 Sep 10 01:09 packages/lxc-tramp.log
