Package: manage-minor-mode-table
Fetcher: github
Source:  https://github.com/jcs-elpa/manage-minor-mode-table.git

Updating /mnt/store/melpa/working/manage-minor-mode-table/
Checking out origin/HEAD
Checking out ae46a80e27dc42913620ad78d7a84ece12643bd7
Built manage-minor-mode-table in 5.703s, finished at 2021-09-10T01:10:39+0000
 ✓ Success:
8.0K -rw-r--r-- 1 root root 6.3K Sep 10 01:10 packages/manage-minor-mode-table-20200717.809.el
4.0K -rw-r--r-- 1 root root  420 Sep 10 01:10 packages/manage-minor-mode-table-20200717.809.entry
4.0K -rw-r--r-- 1 root root 1.2K Sep 10 01:10 packages/manage-minor-mode-table-badge.svg
4.0K -rw-r--r-- 1 root root   30 Sep 10 01:10 packages/manage-minor-mode-table-readme.txt
