Package: metrics-tracker
Fetcher: github
Source:  https://github.com/ianxm/emacs-tracker.git

Updating /mnt/store/melpa/working/metrics-tracker/
Checking out origin/HEAD
Checking out e0ddd7a17da899fa85b1d49f1260042f8caa0612
Built metrics-tracker in 6.314s, finished at 2021-09-10T01:11:50+0000
 ✓ Success:
 72K -rw-r--r-- 1 root root  72K Sep 10 01:11 packages/metrics-tracker-20210207.1100.el
4.0K -rw-r--r-- 1 root root  411 Sep 10 01:11 packages/metrics-tracker-20210207.1100.entry
4.0K -rw-r--r-- 1 root root 1.2K Sep 10 01:11 packages/metrics-tracker-badge.svg
4.0K -rw-r--r-- 1 root root  107 Sep 10 01:11 packages/metrics-tracker-readme.txt
