Package: mew
Fetcher: github
Source:  https://github.com/kazu-yamamoto/Mew.git

Updating /mnt/store/melpa/working/mew/
Checking out origin/HEAD
Checking out fc4bca6d95d8b8d5e169ecf1433d968c2eec299d
Copying files (->) and directories (=>)
  from /mnt/store/melpa/working/mew/
  to /tmp/mewsQR9R1/mew-20210625.240
    mew-addrbook.el -> mew-addrbook.el
    mew-attach.el -> mew-attach.el
    mew-auth.el -> mew-auth.el
    mew-blvs.el -> mew-blvs.el
    mew-bq.el -> mew-bq.el
    mew-cache.el -> mew-cache.el
    mew-complete.el -> mew-complete.el
    mew-config.el -> mew-config.el
    mew-const.el -> mew-const.el
    mew-darwin.el -> mew-darwin.el
    mew-decode.el -> mew-decode.el
    mew-demo.el -> mew-demo.el
    mew-draft.el -> mew-draft.el
    mew-edit.el -> mew-edit.el
    mew-encode.el -> mew-encode.el
    mew-env.el -> mew-env.el
    mew-exec.el -> mew-exec.el
    mew-ext.el -> mew-ext.el
    mew-fib.el -> mew-fib.el
    mew-func.el -> mew-func.el
    mew-gemacs.el -> mew-gemacs.el
    mew-header.el -> mew-header.el
    mew-highlight.el -> mew-highlight.el
    mew-imap.el -> mew-imap.el
    mew-imap2.el -> mew-imap2.el
    mew-key.el -> mew-key.el
    mew-lang-jp.el -> mew-lang-jp.el
    mew-lang-kr.el -> mew-lang-kr.el
    mew-lang-latin.el -> mew-lang-latin.el
    mew-local.el -> mew-local.el
    mew-mark.el -> mew-mark.el
    mew-message.el -> mew-message.el
    mew-mime.el -> mew-mime.el
    mew-minibuf.el -> mew-minibuf.el
    mew-mule.el -> mew-mule.el
    mew-mule3.el -> mew-mule3.el
    mew-net.el -> mew-net.el
    mew-nntp.el -> mew-nntp.el
    mew-nntp2.el -> mew-nntp2.el
    mew-passwd.el -> mew-passwd.el
    mew-pgp.el -> mew-pgp.el
    mew-pick.el -> mew-pick.el
    mew-pop.el -> mew-pop.el
    mew-refile.el -> mew-refile.el
    mew-scan.el -> mew-scan.el
    mew-search.el -> mew-search.el
    mew-smime.el -> mew-smime.el
    mew-smtp.el -> mew-smtp.el
    mew-sort.el -> mew-sort.el
    mew-ssh.el -> mew-ssh.el
    mew-ssl.el -> mew-ssl.el
    mew-summary.el -> mew-summary.el
    mew-summary2.el -> mew-summary2.el
    mew-summary3.el -> mew-summary3.el
    mew-summary4.el -> mew-summary4.el
    mew-syntax.el -> mew-syntax.el
    mew-thread.el -> mew-thread.el
    mew-unix.el -> mew-unix.el
    mew-vars.el -> mew-vars.el
    mew-vars2.el -> mew-vars2.el
    mew-vars3.el -> mew-vars3.el
    mew-varsx.el -> mew-varsx.el
    mew-virtual.el -> mew-virtual.el
    mew-win32.el -> mew-win32.el
    mew.el -> mew.el
    etc => etc
  ! info/mew.info -> mew.info
  ! info/mew.ja.info -> mew.ja.info
Created mew-20210625.240.tar containing:
  mew-20210625.240/
  mew-20210625.240/dir
  mew-20210625.240/etc/
  mew-20210625.240/etc/Mew.img
  mew-20210625.240/etc/Mew.png
  mew-20210625.240/etc/Mew.xbm
  mew-20210625.240/etc/Mew.xpm
  mew-20210625.240/etc/mew-Audio.xpm
  mew-20210625.240/etc/mew-Blank.xpm
  mew-20210625.240/etc/mew-External.xpm
  mew-20210625.240/etc/mew-Folder.xpm
  mew-20210625.240/etc/mew-Image.xpm
  mew-20210625.240/etc/mew-Octet-Stream.xpm
  mew-20210625.240/etc/mew-Postscript.xpm
  mew-20210625.240/etc/mew-Rfc822.xpm
  mew-20210625.240/etc/mew-Text.xpm
  mew-20210625.240/etc/mew-Unknown.xpm
  mew-20210625.240/etc/mew-Video.xpm
  mew-20210625.240/etc/mew-attach.xpm
  mew-20210625.240/etc/mew-cite.xpm
  mew-20210625.240/etc/mew-forward.xpm
  mew-20210625.240/etc/mew-inc.xpm
  mew-20210625.240/etc/mew-lock.xpm
  mew-20210625.240/etc/mew-next.xpm
  mew-20210625.240/etc/mew-pgp-enc.xpm
  mew-20210625.240/etc/mew-pgp-sigenc.xpm
  mew-20210625.240/etc/mew-pgp-sign.xpm
  mew-20210625.240/etc/mew-prev.xpm
  mew-20210625.240/etc/mew-queue.xpm
  mew-20210625.240/etc/mew-refile.xpm
  mew-20210625.240/etc/mew-reply.xpm
  mew-20210625.240/etc/mew-send.xpm
  mew-20210625.240/etc/mew-sep.xpm
  mew-20210625.240/etc/mew-show.xpm
  mew-20210625.240/etc/mew-write.xpm
  mew-20210625.240/etc/mew-yank.xpm
  mew-20210625.240/mew-addrbook.el
  mew-20210625.240/mew-attach.el
  mew-20210625.240/mew-auth.el
  mew-20210625.240/mew-blvs.el
  mew-20210625.240/mew-bq.el
  mew-20210625.240/mew-cache.el
  mew-20210625.240/mew-complete.el
  mew-20210625.240/mew-config.el
  mew-20210625.240/mew-const.el
  mew-20210625.240/mew-darwin.el
  mew-20210625.240/mew-decode.el
  mew-20210625.240/mew-demo.el
  mew-20210625.240/mew-draft.el
  mew-20210625.240/mew-edit.el
  mew-20210625.240/mew-encode.el
  mew-20210625.240/mew-env.el
  mew-20210625.240/mew-exec.el
  mew-20210625.240/mew-ext.el
  mew-20210625.240/mew-fib.el
  mew-20210625.240/mew-func.el
  mew-20210625.240/mew-gemacs.el
  mew-20210625.240/mew-header.el
  mew-20210625.240/mew-highlight.el
  mew-20210625.240/mew-imap.el
  mew-20210625.240/mew-imap2.el
  mew-20210625.240/mew-key.el
  mew-20210625.240/mew-lang-jp.el
  mew-20210625.240/mew-lang-kr.el
  mew-20210625.240/mew-lang-latin.el
  mew-20210625.240/mew-local.el
  mew-20210625.240/mew-mark.el
  mew-20210625.240/mew-message.el
  mew-20210625.240/mew-mime.el
  mew-20210625.240/mew-minibuf.el
  mew-20210625.240/mew-mule.el
  mew-20210625.240/mew-mule3.el
  mew-20210625.240/mew-net.el
  mew-20210625.240/mew-nntp.el
  mew-20210625.240/mew-nntp2.el
  mew-20210625.240/mew-passwd.el
  mew-20210625.240/mew-pgp.el
  mew-20210625.240/mew-pick.el
  mew-20210625.240/mew-pkg.el
  mew-20210625.240/mew-pop.el
  mew-20210625.240/mew-refile.el
  mew-20210625.240/mew-scan.el
  mew-20210625.240/mew-search.el
  mew-20210625.240/mew-smime.el
  mew-20210625.240/mew-smtp.el
  mew-20210625.240/mew-sort.el
  mew-20210625.240/mew-ssh.el
  mew-20210625.240/mew-ssl.el
  mew-20210625.240/mew-summary.el
  mew-20210625.240/mew-summary2.el
  mew-20210625.240/mew-summary3.el
  mew-20210625.240/mew-summary4.el
  mew-20210625.240/mew-syntax.el
  mew-20210625.240/mew-thread.el
  mew-20210625.240/mew-unix.el
  mew-20210625.240/mew-vars.el
  mew-20210625.240/mew-vars2.el
  mew-20210625.240/mew-vars3.el
  mew-20210625.240/mew-varsx.el
  mew-20210625.240/mew-virtual.el
  mew-20210625.240/mew-win32.el
  mew-20210625.240/mew.el
  mew-20210625.240/mew.info
  mew-20210625.240/mew.ja.info
Built mew in 6.932s, finished at 2021-09-10T01:11:54+0000
 ✓ Success:
4.0K -rw-r--r-- 1 root root  246 Sep 10 01:11 packages/mew-20210625.240.entry
2.4M -rw-r--r-- 1 root root 2.4M Sep 10 01:11 packages/mew-20210625.240.tar
4.0K -rw-r--r-- 1 root root 1.2K Sep 10 01:11 packages/mew-badge.svg
4.0K -rw-r--r-- 1 root root  113 Sep 10 01:11 packages/mew-readme.txt
