Package: modern-cpp-font-lock
Fetcher: github
Source:  https://github.com/ludwigpacifici/modern-cpp-font-lock.git

Updating /mnt/store/melpa/working/modern-cpp-font-lock/
Checking out origin/HEAD
Checking out 43c6b68ff58fccdf9deef11674a172e4eaa8455c
Built modern-cpp-font-lock in 6.583s, finished at 2021-09-10T01:12:51+0000
 ✓ Success:
 20K -rw-r--r-- 1 root root  19K Sep 10 01:12 packages/modern-cpp-font-lock-20210405.1155.el
4.0K -rw-r--r-- 1 root root  400 Sep 10 01:12 packages/modern-cpp-font-lock-20210405.1155.entry
4.0K -rw-r--r-- 1 root root 1.2K Sep 10 01:12 packages/modern-cpp-font-lock-badge.svg
4.0K -rw-r--r-- 1 root root  759 Sep 10 01:12 packages/modern-cpp-font-lock-readme.txt
