Package: moonshot
Fetcher: github
Source:  https://github.com/ageldama/moonshot.git

Updating /mnt/store/melpa/working/moonshot/
Checking out origin/HEAD
Checking out ec37a12825888047a90d9ee8131aa4bea348edf7
Built moonshot in 12.353s, finished at 2021-09-10T01:13:41+0000
 ✓ Success:
 16K -rw-r--r-- 1 root root  13K Sep 10 01:13 packages/moonshot-20210627.2244.el
4.0K -rw-r--r-- 1 root root  652 Sep 10 01:13 packages/moonshot-20210627.2244.entry
4.0K -rw-r--r-- 1 root root 1.2K Sep 10 01:13 packages/moonshot-badge.svg
4.0K -rw-r--r-- 1 root root 2.0K Sep 10 01:13 packages/moonshot-readme.txt
