Package: mustache-mode
Fetcher: github
Source:  https://github.com/mustache/emacs.git

Updating /mnt/store/melpa/working/mustache-mode/
Checking out origin/HEAD
Checking out bf9897eb287ca47ced65d7d4e07ea61ea0aec39f
Built mustache-mode in 5.731s, finished at 2021-09-10T01:14:53+0000
 ✓ Success:
 12K -rw-r--r-- 1 root root  10K Sep 10 01:14 packages/mustache-mode-20141024.1432.el
4.0K -rw-r--r-- 1 root root  279 Sep 10 01:14 packages/mustache-mode-20141024.1432.entry
4.0K -rw-r--r-- 1 root root 1.2K Sep 10 01:14 packages/mustache-mode-badge.svg
4.0K -rw-r--r-- 1 root root  323 Sep 10 01:14 packages/mustache-mode-readme.txt
