Package: nameframe-projectile
Fetcher: github
Source:  https://github.com/john2x/nameframe.git

Updating /mnt/store/melpa/working/nameframe-projectile/
Checking out origin/HEAD
Checking out aafb8c5c5fbe0510e2f5d5b6b6b5dd0b73abe5d8
Built nameframe-projectile in 5.336s, finished at 2021-09-10T01:15:14+0000
 ✓ Success:
4.0K -rw-r--r-- 1 root root 3.2K Sep 10 01:15 packages/nameframe-projectile-20160928.403.el
4.0K -rw-r--r-- 1 root root  406 Sep 10 01:15 packages/nameframe-projectile-20160928.403.entry
4.0K -rw-r--r-- 1 root root 1.2K Sep 10 01:15 packages/nameframe-projectile-badge.svg
4.0K -rw-r--r-- 1 root root  250 Sep 10 01:15 packages/nameframe-projectile-readme.txt
