Package: netease-cloud-music
Fetcher: github
Source:  https://github.com/SpringHan/netease-cloud-music.el.git

Updating /mnt/store/melpa/working/netease-cloud-music/
Checking out origin/HEAD
Checking out e228a3e8646d4d66f61eb91e306b8bc1cfa9861a
Copying files (->) and directories (=>)
  from /mnt/store/melpa/working/netease-cloud-music/
  to /tmp/netease-cloud-musicNYc0Vf/netease-cloud-music-20210817.1148
    netease-cloud-music-functions.el -> netease-cloud-music-functions.el
    netease-cloud-music-ui.el -> netease-cloud-music-ui.el
    netease-cloud-music.el -> netease-cloud-music.el
Created netease-cloud-music-20210817.1148.tar containing:
  netease-cloud-music-20210817.1148/
  netease-cloud-music-20210817.1148/netease-cloud-music-functions.el
  netease-cloud-music-20210817.1148/netease-cloud-music-pkg.el
  netease-cloud-music-20210817.1148/netease-cloud-music-ui.el
  netease-cloud-music-20210817.1148/netease-cloud-music.el
Built netease-cloud-music in 5.488s, finished at 2021-09-10T01:15:43+0000
 ✓ Success:
4.0K -rw-r--r-- 1 root root  392 Sep 10 01:15 packages/netease-cloud-music-20210817.1148.entry
152K -rw-r--r-- 1 root root 150K Sep 10 01:15 packages/netease-cloud-music-20210817.1148.tar
4.0K -rw-r--r-- 1 root root 1.2K Sep 10 01:15 packages/netease-cloud-music-badge.svg
4.0K -rw-r--r-- 1 root root  286 Sep 10 01:15 packages/netease-cloud-music-readme.txt
