Package: notmuch-transient
Fetcher: git
Source:  https://git.sr.ht/~tarsius/notmuch-transient

Updating /mnt/store/melpa/working/notmuch-transient/
Checking out origin/HEAD
Checking out d43ac12e397e1f014deef6c76aaf9b187b17ba5b
Built notmuch-transient in 5.137s, finished at 2021-09-10T01:16:41+0000
 ✓ Success:
 16K -rw-r--r-- 1 root root  16K Sep 10 01:16 packages/notmuch-transient-20210703.2133.el
4.0K -rw-r--r-- 1 root root  436 Sep 10 01:16 packages/notmuch-transient-20210703.2133.entry
4.0K -rw-r--r-- 1 root root 1.2K Sep 10 01:16 packages/notmuch-transient-badge.svg
4.0K -rw-r--r-- 1 root root  189 Sep 10 01:16 packages/notmuch-transient-readme.txt
