Package: ob-napkin
Fetcher: github
Source:  https://github.com/pinetr2e/ob-napkin.git

Updating /mnt/store/melpa/working/ob-napkin/
Checking out origin/HEAD
Checking out 7af5e8af08da8455c489909afbd9528a61f570e7
Built ob-napkin in 5.501s, finished at 2021-09-10T01:17:46+0000
 ✓ Success:
8.0K -rw-r--r-- 1 root root 5.6K Sep 10 01:17 packages/ob-napkin-20200816.1245.el
4.0K -rw-r--r-- 1 root root  386 Sep 10 01:17 packages/ob-napkin-20200816.1245.entry
4.0K -rw-r--r-- 1 root root 1.2K Sep 10 01:17 packages/ob-napkin-badge.svg
4.0K -rw-r--r-- 1 root root  182 Sep 10 01:17 packages/ob-napkin-readme.txt
