Package: ob-reticulate
Fetcher: github
Source:  https://github.com/jackkamm/ob-reticulate.git

Updating /mnt/store/melpa/working/ob-reticulate/
Checking out origin/HEAD
Checking out 8109fb02fb6339b1cf9290df29fc0c1109a33c04
Built ob-reticulate in 5.013s, finished at 2021-09-10T01:17:48+0000
 ✓ Success:
4.0K -rw-r--r-- 1 root root 3.2K Sep 10 01:17 packages/ob-reticulate-20210214.2229.el
4.0K -rw-r--r-- 1 root root  427 Sep 10 01:17 packages/ob-reticulate-20210214.2229.entry
4.0K -rw-r--r-- 1 root root 1.2K Sep 10 01:17 packages/ob-reticulate-badge.svg
4.0K -rw-r--r-- 1 root root   86 Sep 10 01:17 packages/ob-reticulate-readme.txt
