Package: ob-swift
Fetcher: github
Source:  https://github.com/zweifisch/ob-swift.git

Updating /mnt/store/melpa/working/ob-swift/
Checking out origin/HEAD
Checking out ed478ddbbe41ce5373efde06b4dd0c3663c9055f
Built ob-swift in 5.403s, finished at 2021-09-10T01:17:55+0000
 ✓ Success:
4.0K -rw-r--r-- 1 root root 2.9K Sep 10 01:17 packages/ob-swift-20170921.1325.el
4.0K -rw-r--r-- 1 root root  378 Sep 10 01:17 packages/ob-swift-20170921.1325.entry
4.0K -rw-r--r-- 1 root root 1.2K Sep 10 01:17 packages/ob-swift-badge.svg
4.0K -rw-r--r-- 1 root root   42 Sep 10 01:17 packages/ob-swift-readme.txt
