Package: omni-kill
Fetcher: github
Source:  https://github.com/AdrieanKhisbe/omni-kill.el.git

Updating /mnt/store/melpa/working/omni-kill/
Checking out origin/HEAD
Checking out 904549c8fd6ac3cf22b5d7111ca8944e179cffea
Built omni-kill in 5.785s, finished at 2021-09-10T01:18:28+0000
 ✓ Success:
8.0K -rw-r--r-- 1 root root 7.6K Sep 10 01:18 packages/omni-kill-20171016.2140.el
4.0K -rw-r--r-- 1 root root  320 Sep 10 01:18 packages/omni-kill-20171016.2140.entry
4.0K -rw-r--r-- 1 root root 1.2K Sep 10 01:18 packages/omni-kill-badge.svg
4.0K -rw-r--r-- 1 root root  221 Sep 10 01:18 packages/omni-kill-readme.txt
