Package: on-parens
Fetcher: github
Source:  https://github.com/willghatch/emacs-on-parens.git

Updating /mnt/store/melpa/working/on-parens/
Checking out origin/HEAD
Checking out 7a41bc02bcffd265f8a69ed4b4e0df3c3009aaa4
Built on-parens in 5.191s, finished at 2021-09-10T01:18:35+0000
 ✓ Success:
 16K -rw-r--r-- 1 root root  15K Sep 10 01:18 packages/on-parens-20180202.2241.el
4.0K -rw-r--r-- 1 root root  411 Sep 10 01:18 packages/on-parens-20180202.2241.entry
4.0K -rw-r--r-- 1 root root 1.2K Sep 10 01:18 packages/on-parens-badge.svg
4.0K -rw-r--r-- 1 root root  701 Sep 10 01:18 packages/on-parens-readme.txt
