Package: org-starter-swiper
Fetcher: github
Source:  https://github.com/akirak/org-starter.git

Updating /mnt/store/melpa/working/org-starter-swiper/
Checking out origin/HEAD
Checking out 786257e682bf147022d5b19e6df6e7c9939193af
Built org-starter-swiper in 7.069s, finished at 2021-09-10T01:21:25+0000
 ✓ Success:
8.0K -rw-r--r-- 1 root root 4.3K Sep 10 01:21 packages/org-starter-swiper-20201202.144.el
4.0K -rw-r--r-- 1 root root  455 Sep 10 01:21 packages/org-starter-swiper-20201202.144.entry
4.0K -rw-r--r-- 1 root root 1.2K Sep 10 01:21 packages/org-starter-swiper-badge.svg
4.0K -rw-r--r-- 1 root root  122 Sep 10 01:21 packages/org-starter-swiper-readme.txt
