Package: org-kindle
Fetcher: github
Source:  https://github.com/stardiviner/org-kindle.git

Updating /mnt/store/melpa/working/org-kindle/
Checking out origin/HEAD
Checking out 5fde4a53f062612b2a118c53ff0196a128b80d6d
Built org-kindle in 5.349s, finished at 2021-09-10T01:20:22+0000
 ✓ Success:
 12K -rw-r--r-- 1 root root 8.5K Sep 10 01:20 packages/org-kindle-20200906.944.el
4.0K -rw-r--r-- 1 root root  368 Sep 10 01:20 packages/org-kindle-20200906.944.entry
4.0K -rw-r--r-- 1 root root 1.2K Sep 10 01:20 packages/org-kindle-badge.svg
4.0K -rw-r--r-- 1 root root  628 Sep 10 01:20 packages/org-kindle-readme.txt
