Package: org-password-manager
Fetcher: github
Source:  https://github.com/leafac/org-password-manager.git

Updating /mnt/store/melpa/working/org-password-manager/
Built org-password-manager in 3.638s, finished at Thu Feb  4 22:48:13 2021
 ✓ Success:
 12K -rw-r--r-- 1 root root  11K Feb  4 22:48 packages/org-password-manager-20180227.1810.el
4.0K -rw-r--r-- 1 root root  439 Feb  4 22:48 packages/org-password-manager-20180227.1810.entry
4.0K -rw-r--r-- 1 root root 1.2K Feb  4 22:48 packages/org-password-manager-badge.svg
4.0K -rw-r--r-- 1 root root 3.5K Feb  4 22:48 packages/org-password-manager-readme.txt
