Package: org2issue
Fetcher: github
Source:  https://github.com/lujun9972/org2issue.git

Updating /mnt/store/melpa/working/org2issue/
Checking out origin/HEAD
Checking out 910b98c858762fd14b11d261626c5e979dde0833
Built org2issue in 6.105s, finished at 2021-09-10T01:22:03+0000
 ✓ Success:
 12K -rw-r--r-- 1 root root  12K Sep 10 01:22 packages/org2issue-20190531.941.el
4.0K -rw-r--r-- 1 root root  493 Sep 10 01:22 packages/org2issue-20190531.941.entry
4.0K -rw-r--r-- 1 root root 1.2K Sep 10 01:22 packages/org2issue-badge.svg
4.0K -rw-r--r-- 1 root root 1.1K Sep 10 01:22 packages/org2issue-readme.txt
