Package: orgstrap
Fetcher: github
Source:  https://github.com/tgbugs/orgstrap.git

Updating /mnt/store/melpa/working/orgstrap/
Checking out origin/HEAD
Checking out 3a6bd917c524c73542315f7c2b0d68161fd5c228
Built orgstrap in 5.524s, finished at 2021-09-10T01:22:15+0000
 ✓ Success:
 52K -rw-r--r-- 1 root root  51K Sep 10 01:22 packages/orgstrap-20210722.737.el
4.0K -rw-r--r-- 1 root root  362 Sep 10 01:22 packages/orgstrap-20210722.737.entry
4.0K -rw-r--r-- 1 root root 1.2K Sep 10 01:22 packages/orgstrap-badge.svg
4.0K -rw-r--r-- 1 root root 1.5K Sep 10 01:22 packages/orgstrap-readme.txt
