Package: pandoc
Fetcher: github
Source:  https://github.com/zonuexe/pandoc.el.git

Updating /mnt/store/melpa/working/pandoc/
Checking out origin/HEAD
Checking out 198d262d09e30448f1672338b0b5a81cf75e1eaa
Built pandoc in 5.744s, finished at 2021-09-10T01:23:55+0000
 ✓ Success:
8.0K -rw-r--r-- 1 root root 5.0K Sep 10 01:23 packages/pandoc-20161128.1157.el
4.0K -rw-r--r-- 1 root root  359 Sep 10 01:23 packages/pandoc-20161128.1157.entry
4.0K -rw-r--r-- 1 root root 1.2K Sep 10 01:23 packages/pandoc-badge.svg
4.0K -rw-r--r-- 1 root root  443 Sep 10 01:23 packages/pandoc-mode-20210819.1141.entry
192K -rw-r--r-- 1 root root 190K Sep 10 01:23 packages/pandoc-mode-20210819.1141.tar
4.0K -rw-r--r-- 1 root root 1.2K Sep  9 21:42 packages/pandoc-mode-badge.svg
4.0K -rw-r--r-- 1 root root  197 Sep 10 01:23 packages/pandoc-mode-readme.txt
4.0K -rw-r--r-- 1 root root  782 Sep 10 01:23 packages/pandoc-mode.log
4.0K -rw-r--r-- 1 root root  153 Sep 10 01:23 packages/pandoc-readme.txt
