Package: paper-theme
Fetcher: github
Source:  https://github.com/cadadr/elisp.git

Updating /mnt/store/melpa/working/paper-theme/
Checking out origin/HEAD
Checking out 8a3b529d5ece261a8847298ea03ed35615cc9bfa
Built paper-theme in 6.400s, finished at 2021-09-10T01:23:58+0000
 ✓ Success:
 16K -rw-r--r-- 1 root root  15K Sep 10 01:23 packages/paper-theme-20200510.5.el
4.0K -rw-r--r-- 1 root root  357 Sep 10 01:23 packages/paper-theme-20200510.5.entry
4.0K -rw-r--r-- 1 root root 1.2K Sep 10 01:23 packages/paper-theme-badge.svg
4.0K -rw-r--r-- 1 root root 2.4K Sep 10 01:23 packages/paper-theme-readme.txt
