Package: pastehub
Fetcher: github
Source:  https://github.com/kiyoka/pastehub.git

Updating /mnt/store/melpa/working/pastehub/
Checking out origin/HEAD
Checking out 37b045c67659c078f1517d0fbd5282dab58dca23
Built pastehub in 5.225s, finished at 2021-09-10T01:24:26+0000
 ✓ Success:
8.0K -rw-r--r-- 1 root root 7.2K Sep 10 01:24 packages/pastehub-20140615.620.el
4.0K -rw-r--r-- 1 root root  283 Sep 10 01:24 packages/pastehub-20140615.620.entry
4.0K -rw-r--r-- 1 root root 1.2K Sep 10 01:24 packages/pastehub-badge.svg
4.0K -rw-r--r-- 1 root root  435 Sep 10 01:24 packages/pastehub-readme.txt
