Package: persp-mode-projectile-bridge
Fetcher: github
Source:  https://github.com/Bad-ptr/persp-mode-projectile-bridge.el.git

Updating /mnt/store/melpa/working/persp-mode-projectile-bridge/
Checking out origin/HEAD
Checking out f6453cd7b8b4352c06e771706f2c5b7e2cdff1ce
Built persp-mode-projectile-bridge in 9.715s, finished at 2021-09-10T01:25:28+0000
 ✓ Success:
 12K -rw-r--r-- 1 root root 8.2K Sep 10 01:25 packages/persp-mode-projectile-bridge-20170315.1120.el
4.0K -rw-r--r-- 1 root root  540 Sep 10 01:25 packages/persp-mode-projectile-bridge-20170315.1120.entry
4.0K -rw-r--r-- 1 root root 1.2K Sep 10 01:25 packages/persp-mode-projectile-bridge-badge.svg
4.0K -rw-r--r-- 1 root root   51 Sep 10 01:25 packages/persp-mode-projectile-bridge-readme.txt
