Package: phan
Fetcher: github
Source:  https://github.com/emacs-php/phan.el.git

Updating /mnt/store/melpa/working/phan/
Checking out origin/HEAD
Checking out b7d523630bb072c4dbcfa9995dc734b25b72a69f
Built phan in 5.244s, finished at 2021-09-10T01:25:37+0000
 ✓ Success:
 32K -rw-r--r-- 1 root root  32K Sep 10 01:25 packages/phan-20200805.356.el
4.0K -rw-r--r-- 1 root root  398 Sep 10 01:25 packages/phan-20200805.356.entry
4.0K -rw-r--r-- 1 root root 1.2K Sep 10 01:25 packages/phan-badge.svg
4.0K -rw-r--r-- 1 root root  287 Sep 10 01:25 packages/phan-readme.txt
