Package: pillar
Fetcher: github
Source:  https://github.com/pillar-markup/pillar-mode.git

Updating /mnt/store/melpa/working/pillar/
Checking out origin/HEAD
Checking out 13a7f676544cc66005ccd8e6fc1c25e4ccd6f909
Copying files (->) and directories (=>)
  from /mnt/store/melpa/working/pillar/
  to /tmp/pillarrYVg8P/pillar-20141112.1811
    pillar-latex2pillar.el -> pillar-latex2pillar.el
    pillar.el -> pillar.el
Created pillar-20141112.1811.tar containing:
  pillar-20141112.1811/
  pillar-20141112.1811/pillar-latex2pillar.el
  pillar-20141112.1811/pillar-pkg.el
  pillar-20141112.1811/pillar.el
Built pillar in 6.315s, finished at 2021-09-10T01:26:07+0000
 ✓ Success:
4.0K -rw-r--r-- 1 root root  374 Sep 10 01:26 packages/pillar-20141112.1811.entry
 32K -rw-r--r-- 1 root root  30K Sep 10 01:26 packages/pillar-20141112.1811.tar
4.0K -rw-r--r-- 1 root root 1.2K Sep 10 01:26 packages/pillar-badge.svg
4.0K -rw-r--r-- 1 root root   36 Sep 10 01:26 packages/pillar-readme.txt
