Package: pinboard-api
Fetcher: github
Source:  https://github.com/danieroux/pinboard-api-el.git

Updating /mnt/store/melpa/working/pinboard-api/
Checking out origin/HEAD
Checking out b7b5214d0c35178f8dca08cf22d6ef3c21f0fce4
Built pinboard-api in 5.927s, finished at 2021-09-10T01:26:11+0000
 ✓ Success:
8.0K -rw-r--r-- 1 root root 6.3K Sep 10 01:26 packages/pinboard-api-20140324.1148.el
4.0K -rw-r--r-- 1 root root  368 Sep 10 01:26 packages/pinboard-api-20140324.1148.entry
4.0K -rw-r--r-- 1 root root 1.2K Sep 10 01:26 packages/pinboard-api-badge.svg
4.0K -rw-r--r-- 1 root root   46 Sep 10 01:26 packages/pinboard-api-readme.txt
