Package: playerctl
Fetcher: github
Source:  https://github.com/thomasluquet/playerctl.el.git

Updating /mnt/store/melpa/working/playerctl/
Checking out origin/HEAD
Checking out 41564d453c9f936a4ce2699afacc6d1dff974f1c
Built playerctl in 5.460s, finished at 2021-09-10T01:26:35+0000
 ✓ Success:
4.0K -rw-r--r-- 1 root root 3.6K Sep 10 01:26 packages/playerctl-20210411.1442.el
4.0K -rw-r--r-- 1 root root  407 Sep 10 01:26 packages/playerctl-20210411.1442.entry
4.0K -rw-r--r-- 1 root root 1.2K Sep 10 01:26 packages/playerctl-badge.svg
4.0K -rw-r--r-- 1 root root  132 Sep 10 01:26 packages/playerctl-readme.txt
