Package: pretty-mode
Fetcher: github
Source:  https://github.com/pretty-mode/pretty-mode.git

Updating /mnt/store/melpa/working/pretty-mode/
Checking out origin/HEAD
Checking out 5154355e90fdd70d3647257280a89eeb725ef084
Built pretty-mode in 5.850s, finished at 2021-09-10T01:27:48+0000
 ✓ Success:
 36K -rw-r--r-- 1 root root  35K Sep 10 01:27 packages/pretty-mode-20190615.2045.el
4.0K -rw-r--r-- 1 root root  422 Sep 10 01:27 packages/pretty-mode-20190615.2045.entry
4.0K -rw-r--r-- 1 root root 1.2K Sep 10 01:27 packages/pretty-mode-badge.svg
4.0K -rw-r--r-- 1 root root  377 Sep 10 01:27 packages/pretty-mode-readme.txt
