Package: quelpa-leaf
Fetcher: github
Source:  https://github.com/quelpa/quelpa-leaf.git

Updating /mnt/store/melpa/working/quelpa-leaf/
Checking out origin/HEAD
Checking out cc13df4a6c6cdf1dea558be5b6e99b6e8d8b4065
Built quelpa-leaf in 4.680s, finished at 2021-09-10T01:29:46+0000
 ✓ Success:
8.0K -rw-r--r-- 1 root root 5.5K Sep 10 01:29 packages/quelpa-leaf-20210124.348.el
4.0K -rw-r--r-- 1 root root  405 Sep 10 01:29 packages/quelpa-leaf-20210124.348.entry
4.0K -rw-r--r-- 1 root root 1.2K Sep 10 01:29 packages/quelpa-leaf-badge.svg
4.0K -rw-r--r-- 1 root root  105 Sep 10 01:29 packages/quelpa-leaf-readme.txt
