Package: rainbow-fart
Fetcher: github
Source:  https://github.com/stardiviner/emacs-rainbow-fart.git

Updating /mnt/store/melpa/working/rainbow-fart/
Checking out origin/HEAD
Checking out 57fe85c0f03917f6867833636a5617cbfa663a29
Copying files (->) and directories (=>)
  from /mnt/store/melpa/working/rainbow-fart/
  to /tmp/rainbow-fartzpOFOe/rainbow-fart-20210803.922
    rainbow-fart.el -> rainbow-fart.el
    voices => voices
Created rainbow-fart-20210803.922.tar containing:
  rainbow-fart-20210803.922/
  rainbow-fart-20210803.922/rainbow-fart-pkg.el
  rainbow-fart-20210803.922/rainbow-fart.el
  rainbow-fart-20210803.922/voices/
  rainbow-fart-20210803.922/voices/JustKowalski/
  rainbow-fart-20210803.922/voices/JustKowalski/README.md
  rainbow-fart-20210803.922/voices/JustKowalski/arrow_function_01.mp3
  rainbow-fart-20210803.922/voices/JustKowalski/avatar-dark.jpg
  rainbow-fart-20210803.922/voices/JustKowalski/avatar.jpg
  rainbow-fart-20210803.922/voices/JustKowalski/await_01.mp3
  rainbow-fart-20210803.922/voices/JustKowalski/await_02.mp3
  rainbow-fart-20210803.922/voices/JustKowalski/await_03.mp3
  rainbow-fart-20210803.922/voices/JustKowalski/catch_01.mp3
  rainbow-fart-20210803.922/voices/JustKowalski/catch_02.mp3
  rainbow-fart-20210803.922/voices/JustKowalski/catch_03.mp3
  rainbow-fart-20210803.922/voices/JustKowalski/contributes.json
  rainbow-fart-20210803.922/voices/JustKowalski/for_01.mp3
  rainbow-fart-20210803.922/voices/JustKowalski/for_02.mp3
  rainbow-fart-20210803.922/voices/JustKowalski/for_03.mp3
  rainbow-fart-20210803.922/voices/JustKowalski/fuck_pm_01.mp3
  rainbow-fart-20210803.922/voices/JustKowalski/fuck_pm_02.mp3
  rainbow-fart-20210803.922/voices/JustKowalski/function.mp3
  rainbow-fart-20210803.922/voices/JustKowalski/function_01.mp3
  rainbow-fart-20210803.922/voices/JustKowalski/function_02.mp3
  rainbow-fart-20210803.922/voices/JustKowalski/function_03.mp3
  rainbow-fart-20210803.922/voices/JustKowalski/if_01.mp3
  rainbow-fart-20210803.922/voices/JustKowalski/if_02.mp3
  rainbow-fart-20210803.922/voices/JustKowalski/if_03.mp3
  rainbow-fart-20210803.922/voices/JustKowalski/import_01.mp3
  rainbow-fart-20210803.922/voices/JustKowalski/import_02.mp3
  rainbow-fart-20210803.922/voices/JustKowalski/manifest.json
  rainbow-fart-20210803.922/voices/JustKowalski/time_before_noon_01.mp3
  rainbow-fart-20210803.922/voices/JustKowalski/time_before_noon_02.mp3
  rainbow-fart-20210803.922/voices/JustKowalski/time_before_noon_03.mp3
  rainbow-fart-20210803.922/voices/JustKowalski/time_before_noon_04.mp3
  rainbow-fart-20210803.922/voices/JustKowalski/time_each_hour_01.mp3
  rainbow-fart-20210803.922/voices/JustKowalski/time_each_hour_02.mp3
  rainbow-fart-20210803.922/voices/JustKowalski/time_each_hour_03.mp3
  rainbow-fart-20210803.922/voices/JustKowalski/time_each_hour_04.mp3
  rainbow-fart-20210803.922/voices/JustKowalski/time_each_hour_05.mp3
  rainbow-fart-20210803.922/voices/JustKowalski/time_evening_01.mp3
  rainbow-fart-20210803.922/voices/JustKowalski/time_midnight_01.mp3
  rainbow-fart-20210803.922/voices/JustKowalski/time_morning_01.mp3
  rainbow-fart-20210803.922/voices/JustKowalski/time_noon_01.mp3
  rainbow-fart-20210803.922/voices/JustKowalski/v_html_01.mp3
  rainbow-fart-20210803.922/voices/built-in-voice-english/
  rainbow-fart-20210803.922/voices/built-in-voice-english/arrow_function_01.mp3
  rainbow-fart-20210803.922/voices/built-in-voice-english/catch_01.mp3
  rainbow-fart-20210803.922/voices/built-in-voice-english/contributes.json
  rainbow-fart-20210803.922/voices/built-in-voice-english/function_01.mp3
  rainbow-fart-20210803.922/voices/built-in-voice-english/function_02.mp3
  rainbow-fart-20210803.922/voices/built-in-voice-english/function_03.mp3
  rainbow-fart-20210803.922/voices/built-in-voice-english/manifest.json
  rainbow-fart-20210803.922/voices/sounds/
  rainbow-fart-20210803.922/voices/sounds/ajax.mp3
  rainbow-fart-20210803.922/voices/sounds/alert.mp3
  rainbow-fart-20210803.922/voices/sounds/document.mp3
  rainbow-fart-20210803.922/voices/sounds/duang.mp3
  rainbow-fart-20210803.922/voices/sounds/function.mp3
  rainbow-fart-20210803.922/voices/sounds/vue.mp3
Built rainbow-fart in 7.896s, finished at 2021-09-10T01:30:10+0000
 ✓ Success:
4.0K -rw-r--r-- 1 root root  309 Sep 10 01:30 packages/rainbow-fart-20210803.922.entry
3.4M -rw-r--r-- 1 root root 3.4M Sep 10 01:30 packages/rainbow-fart-20210803.922.tar
4.0K -rw-r--r-- 1 root root 1.2K Sep 10 01:30 packages/rainbow-fart-badge.svg
4.0K -rw-r--r-- 1 root root   55 Sep 10 01:30 packages/rainbow-fart-readme.txt
