Package: redshank
Fetcher: github
Source:  https://github.com/emacsattic/redshank.git

Updating /mnt/store/melpa/working/redshank/
Checking out origin/HEAD
Checking out d059c5841044aa163664f8bf87c1d981bf0a04fe
Copying files (->) and directories (=>)
  from /mnt/store/melpa/working/redshank/
  to /tmp/redshankZiJT7t/redshank-20180730.407
    redshank-loader.el -> redshank-loader.el
    redshank.el -> redshank.el
Created redshank-20180730.407.tar containing:
  redshank-20180730.407/
  redshank-20180730.407/redshank-loader.el
  redshank-20180730.407/redshank-pkg.el
  redshank-20180730.407/redshank.el
Built redshank in 5.049s, finished at 2021-09-10T01:31:31+0000
 ✓ Success:
4.0K -rw-r--r-- 1 root root  319 Sep 10 01:31 packages/redshank-20180730.407.entry
 52K -rw-r--r-- 1 root root  50K Sep 10 01:31 packages/redshank-20180730.407.tar
4.0K -rw-r--r-- 1 root root 1.2K Sep 10 01:31 packages/redshank-badge.svg
4.0K -rw-r--r-- 1 root root  210 Sep 10 01:31 packages/redshank-readme.txt
