Package: replace-with-inflections
Fetcher: github
Source:  https://github.com/knu/replace-with-inflections.el.git

Updating /mnt/store/melpa/working/replace-with-inflections/
Checking out origin/HEAD
Checking out d9201e047856492f282da65459b28aba25998dbb
Built replace-with-inflections in 5.013s, finished at 2021-09-10T01:31:57+0000
 ✓ Success:
 12K -rw-r--r-- 1 root root 8.4K Sep 10 01:31 packages/replace-with-inflections-20180831.635.el
4.0K -rw-r--r-- 1 root root  494 Sep 10 01:31 packages/replace-with-inflections-20180831.635.entry
4.0K -rw-r--r-- 1 root root 1.2K Sep 10 01:31 packages/replace-with-inflections-badge.svg
4.0K -rw-r--r-- 1 root root  658 Sep 10 01:31 packages/replace-with-inflections-readme.txt
