Package: rpn-calc
Fetcher: github
Source:  https://github.com/zk-phi/rpn-calc.git

Updating /mnt/store/melpa/working/rpn-calc/
Checking out origin/HEAD
Checking out 320123ede874a8fc6cde542baa0d106950318071
Built rpn-calc in 5.351s, finished at 2021-09-10T01:32:44+0000
 ✓ Success:
 20K -rw-r--r-- 1 root root  18K Sep 10 01:32 packages/rpn-calc-20210306.426.el
4.0K -rw-r--r-- 1 root root  278 Sep 10 01:32 packages/rpn-calc-20210306.426.entry
4.0K -rw-r--r-- 1 root root 1.2K Sep 10 01:32 packages/rpn-calc-badge.svg
4.0K -rw-r--r-- 1 root root   60 Sep 10 01:32 packages/rpn-calc-readme.txt
