Package: ruby-electric
Fetcher: github
Source:  https://github.com/ruby/elisp-ruby-electric.git

Updating /mnt/store/melpa/working/ruby-electric/
Checking out origin/HEAD
Checking out f2323cd9b5df3b34aa9810ba8109502824925d23
Built ruby-electric in 6.113s, finished at 2021-09-10T01:32:53+0000
 ✓ Success:
 24K -rw-r--r-- 1 root root  22K Sep 10 01:32 packages/ruby-electric-20200328.1528.el
4.0K -rw-r--r-- 1 root root  310 Sep 10 01:32 packages/ruby-electric-20200328.1528.entry
4.0K -rw-r--r-- 1 root root 1.2K Sep 10 01:32 packages/ruby-electric-badge.svg
4.0K -rw-r--r-- 1 root root  634 Sep 10 01:32 packages/ruby-electric-readme.txt
