Package: selected
Fetcher: github
Source:  https://github.com/Kungsgeten/selected.el.git

Updating /mnt/store/melpa/working/selected/
Checking out origin/HEAD
Checking out 3043fd2609f7e71d809763ae6e8dd4b6c904e63d
Built selected in 5.686s, finished at 2021-09-10T01:34:16+0000
 ✓ Success:
4.0K -rw-r--r-- 1 root root 3.3K Sep 10 01:34 packages/selected-20200528.606.el
4.0K -rw-r--r-- 1 root root  311 Sep 10 01:34 packages/selected-20200528.606.entry
4.0K -rw-r--r-- 1 root root 1.2K Sep 10 01:34 packages/selected-badge.svg
4.0K -rw-r--r-- 1 root root  699 Sep 10 01:34 packages/selected-readme.txt
