Package: shackle
Fetcher: git
Source:  https://depp.brause.cc/shackle.git

Updating /mnt/store/melpa/working/shackle/
Checking out origin/HEAD
Checking out 4ef05b117c87e1f0d97e0ee74fd2f0bfd07a49b1
Built shackle in 6.022s, finished at 2021-09-10T01:34:42+0000
 ✓ Success:
 24K -rw-r--r-- 1 root root  22K Sep 10 01:34 packages/shackle-20210508.1637.el
4.0K -rw-r--r-- 1 root root  382 Sep 10 01:34 packages/shackle-20210508.1637.entry
4.0K -rw-r--r-- 1 root root 1.2K Sep 10 01:34 packages/shackle-badge.svg
4.0K -rw-r--r-- 1 root root  140 Sep 10 01:34 packages/shackle-readme.txt
