Package: textile-mode
Fetcher: github
Source:  https://github.com/juba/textile-mode.git

Updating /mnt/store/melpa/working/textile-mode/
Checking out origin/HEAD
Checking out c37aaab809503df008209390e31e19abf4e23630
Built textile-mode in 5.238s, finished at 2021-09-10T01:41:19+0000
 ✓ Success:
 16K -rw-r--r-- 1 root root  13K Sep 10 01:41 packages/textile-mode-20170304.1716.el
4.0K -rw-r--r-- 1 root root  272 Sep 10 01:41 packages/textile-mode-20170304.1716.entry
4.0K -rw-r--r-- 1 root root 1.2K Sep 10 01:41 packages/textile-mode-badge.svg
4.0K -rw-r--r-- 1 root root  300 Sep 10 01:41 packages/textile-mode-readme.txt
