Package: tile
Fetcher: github
Source:  https://github.com/IvanMalison/tile.git

Updating /mnt/store/melpa/working/tile/
Checking out origin/HEAD
Checking out 22660f21f6e95de5aba55cd5d293d4841e9a4661
Built tile in 7.445s, finished at 2021-09-10T01:41:45+0000
 ✓ Success:
 12K -rw-r--r-- 1 root root 9.9K Sep 10 01:41 packages/tile-20161225.357.el
4.0K -rw-r--r-- 1 root root  446 Sep 10 01:41 packages/tile-20161225.357.entry
4.0K -rw-r--r-- 1 root root 1.2K Sep 10 01:41 packages/tile-badge.svg
4.0K -rw-r--r-- 1 root root  103 Sep 10 01:41 packages/tile-readme.txt
