Package: tiny-menu
Fetcher: github
Source:  https://github.com/aaronbieber/tiny-menu.el.git

Updating /mnt/store/melpa/working/tiny-menu/
Checking out origin/HEAD
Checking out 05563b94537b6eb22aeddedef2a6e59e3f88d073
Built tiny-menu in 4.944s, finished at 2021-09-10T01:41:53+0000
 ✓ Success:
8.0K -rw-r--r-- 1 root root 6.1K Sep 10 01:41 packages/tiny-menu-20161213.1235.el
4.0K -rw-r--r-- 1 root root  383 Sep 10 01:41 packages/tiny-menu-20161213.1235.entry
4.0K -rw-r--r-- 1 root root 1.2K Sep 10 01:41 packages/tiny-menu-badge.svg
4.0K -rw-r--r-- 1 root root  212 Sep 10 01:41 packages/tiny-menu-readme.txt
