Package: trinary
Fetcher: github
Source:  https://github.com/emacs-elsa/trinary-logic.git

Updating /mnt/store/melpa/working/trinary/
Checking out origin/HEAD
Checking out 886232c6d7e92a8e9fe573eef46754ebe321f90d
Built trinary in 6.131s, finished at 2021-09-10T01:43:21+0000
 ✓ Success:
8.0K -rw-r--r-- 1 root root 4.5K Sep 10 01:43 packages/trinary-20180904.2313.el
4.0K -rw-r--r-- 1 root root  352 Sep 10 01:43 packages/trinary-20180904.2313.entry
4.0K -rw-r--r-- 1 root root 1.2K Sep 10 01:43 packages/trinary-badge.svg
4.0K -rw-r--r-- 1 root root   15 Sep 10 01:43 packages/trinary-readme.txt
