Package: turing-machine
Fetcher: github
Source:  https://github.com/dieggsy/turing-machine.git

Updating /mnt/store/melpa/working/turing-machine/
Checking out origin/HEAD
Checking out fa60b76a5bac1f54b7a1b3dc55aae7602c7e385b
Built turing-machine in 5.300s, finished at 2021-09-10T01:43:36+0000
 ✓ Success:
8.0K -rw-r--r-- 1 root root 8.0K Sep 10 01:43 packages/turing-machine-20180222.438.el
4.0K -rw-r--r-- 1 root root  413 Sep 10 01:43 packages/turing-machine-20180222.438.entry
4.0K -rw-r--r-- 1 root root 1.2K Sep 10 01:43 packages/turing-machine-badge.svg
4.0K -rw-r--r-- 1 root root  122 Sep 10 01:43 packages/turing-machine-readme.txt
