Package: typo
Fetcher: github
Source:  https://github.com/jorgenschaefer/typoel.git

Updating /mnt/store/melpa/working/typo/
Checking out origin/HEAD
Checking out 173ebe4fc7ac38f344b16e6eaf41f79e38f20d57
Built typo in 5.974s, finished at 2021-09-10T01:43:50+0000
 ✓ Success:
 20K -rw-r--r-- 1 root root  18K Sep 10 01:43 packages/typo-20200706.1714.el
4.0K -rw-r--r-- 1 root root  346 Sep 10 01:43 packages/typo-20200706.1714.entry
4.0K -rw-r--r-- 1 root root 1.2K Sep 10 01:43 packages/typo-badge.svg
4.0K -rw-r--r-- 1 root root 2.2K Sep 10 01:43 packages/typo-readme.txt
8.0K -rw-r--r-- 1 root root 8.0K Sep 10 01:43 packages/typo-suggest-20200830.1143.el
4.0K -rw-r--r-- 1 root root  504 Sep 10 01:43 packages/typo-suggest-20200830.1143.entry
4.0K -rw-r--r-- 1 root root 1.2K Sep  9 22:02 packages/typo-suggest-badge.svg
4.0K -rw-r--r-- 1 root root  581 Sep 10 01:43 packages/typo-suggest-readme.txt
4.0K -rw-r--r-- 1 root root  225 Sep 10 01:43 packages/typo-suggest.log
