Package: udev-mode
Fetcher: github
Source:  https://github.com/benley/emacs-udev-mode.git

Updating /mnt/store/melpa/working/udev-mode/
Checking out origin/HEAD
Checking out 5ca236980662141518603672ebdbdf863756da5a
Built udev-mode in 5.070s, finished at 2021-09-10T01:43:56+0000
 ✓ Success:
4.0K -rw-r--r-- 1 root root 3.3K Sep 10 01:43 packages/udev-mode-20200702.1536.el
4.0K -rw-r--r-- 1 root root  401 Sep 10 01:43 packages/udev-mode-20200702.1536.entry
4.0K -rw-r--r-- 1 root root 1.2K Sep 10 01:43 packages/udev-mode-badge.svg
4.0K -rw-r--r-- 1 root root   69 Sep 10 01:43 packages/udev-mode-readme.txt
