Package: underwater-theme
Fetcher: github
Source:  https://github.com/jmdeldin/underwater-theme.el.git

Updating /mnt/store/melpa/working/underwater-theme/
Checking out origin/HEAD
Checking out 4eb9ef014f580adc135d91d1cd68d37a310640b6
Built underwater-theme in 5.588s, finished at 2021-09-10T01:44:05+0000
 ✓ Success:
8.0K -rw-r--r-- 1 root root 6.3K Sep 10 01:44 packages/underwater-theme-20131118.2.el
4.0K -rw-r--r-- 1 root root  308 Sep 10 01:44 packages/underwater-theme-20131118.2.entry
4.0K -rw-r--r-- 1 root root 1.2K Sep 10 01:44 packages/underwater-theme-badge.svg
4.0K -rw-r--r-- 1 root root  397 Sep 10 01:44 packages/underwater-theme-readme.txt
