Package: wiki-summary
Fetcher: github
Source:  https://github.com/jozefg/wiki-summary.el.git

Updating /mnt/store/melpa/working/wiki-summary/
Checking out origin/HEAD
Checking out fa41ab6e50b3b80e54148af9d4bac18fd0405000
Built wiki-summary in 5.527s, finished at 2021-09-10T01:47:14+0000
 ✓ Success:
8.0K -rw-r--r-- 1 root root 5.1K Sep 10 01:47 packages/wiki-summary-20181010.1824.el
4.0K -rw-r--r-- 1 root root  349 Sep 10 01:47 packages/wiki-summary-20181010.1824.entry
4.0K -rw-r--r-- 1 root root 1.2K Sep 10 01:47 packages/wiki-summary-badge.svg
4.0K -rw-r--r-- 1 root root  767 Sep 10 01:47 packages/wiki-summary-readme.txt
