Package: yang-mode
Fetcher: github
Source:  https://github.com/mbj4668/yang-mode.git

Updating /mnt/store/melpa/working/yang-mode/
Checking out origin/HEAD
Checking out 4b4ab4d4a79d37d6c31c6ea7cccbc425e0b1eded
Built yang-mode in 5.914s, finished at 2021-09-10T01:49:28+0000
 ✓ Success:
 16K -rw-r--r-- 1 root root  13K Sep 10 01:49 packages/yang-mode-20190507.724.el
4.0K -rw-r--r-- 1 root root  277 Sep 10 01:49 packages/yang-mode-20190507.724.entry
4.0K -rw-r--r-- 1 root root 1.2K Sep 10 01:49 packages/yang-mode-badge.svg
4.0K -rw-r--r-- 1 root root 3.9K Sep 10 01:49 packages/yang-mode-readme.txt
