Package: yapfify
Fetcher: github
Source:  https://github.com/JorisE/yapfify.git

Updating /mnt/store/melpa/working/yapfify/
Checking out origin/HEAD
Checking out 3df4e8ce65f55fd69479b3417525ce83a2b00b45
Built yapfify in 5.154s, finished at 2021-09-10T01:49:31+0000
 ✓ Success:
8.0K -rw-r--r-- 1 root root 4.4K Sep 10 01:49 packages/yapfify-20200406.830.el
4.0K -rw-r--r-- 1 root root  328 Sep 10 01:49 packages/yapfify-20200406.830.entry
4.0K -rw-r--r-- 1 root root 1.2K Sep 10 01:49 packages/yapfify-badge.svg
4.0K -rw-r--r-- 1 root root  421 Sep 10 01:49 packages/yapfify-readme.txt
