Package: zim-wiki-mode
Fetcher: github
Source:  https://github.com/WillForan/zim-wiki-mode.git

Updating /mnt/store/melpa/working/zim-wiki-mode/
Checking out origin/HEAD
Checking out f65a2da6ea762532355fc726319ba3e3dd217ec2
Built zim-wiki-mode in 5.572s, finished at 2021-09-10T01:50:17+0000
 ✓ Success:
 16K -rw-r--r-- 1 root root  16K Sep 10 01:50 packages/zim-wiki-mode-20200908.218.el
4.0K -rw-r--r-- 1 root root  529 Sep 10 01:50 packages/zim-wiki-mode-20200908.218.entry
4.0K -rw-r--r-- 1 root root 1.2K Sep 10 01:50 packages/zim-wiki-mode-badge.svg
4.0K -rw-r--r-- 1 root root  152 Sep 10 01:50 packages/zim-wiki-mode-readme.txt
