Package: zotelo
Fetcher: github
Source:  https://github.com/vspinu/zotelo.git

Updating /mnt/store/melpa/working/zotelo/
Checking out origin/HEAD
Checking out d9dc089b9adfcc70a63f2a84269a12eb7cb4c748
Built zotelo in 5.628s, finished at 2021-09-10T01:50:32+0000
 ✓ Success:
 32K -rw-r--r-- 1 root root  32K Sep 10 01:50 packages/zotelo-20160602.949.el
4.0K -rw-r--r-- 1 root root  360 Sep 10 01:50 packages/zotelo-20160602.949.entry
4.0K -rw-r--r-- 1 root root 1.2K Sep 10 01:50 packages/zotelo-badge.svg
4.0K -rw-r--r-- 1 root root  500 Sep 10 01:50 packages/zotelo-readme.txt
